{
  "version": "14.0.4",
  "vulnerabilities": [
    {
      "id": "ab86943463bc829ccc9153990bb044d7fb75821a18874a157343534d2924ec8e",
      "category": "dependency_scanning",
      "name": "Bypass of a protection mechanism in libxslt",
      "message": "Bypass of a protection mechanism in libxslt in nokogiri",
      "description": "The libxslt binary, which is included in nokogiri, allows bypass of a protection mechanism because callers of `xsltCheckRead` and `xsltCheckWrite` permit access even upon receiving a -1 error code. `xsltCheckRead` can return -1 for a crafted URL that is not actually invalid and is subsequently loaded.",
      "cve": "Gemfile.lock:nokogiri:gemnasium:1a2e2e6e-67ba-4142-bfa1-3391f5416e4c",
      "severity": "Critical",
      "solution": "Upgrade to version 1.2.0 or above.",
      "scanner": {
        "id": "gemnasium",
        "name": "Gemnasium"
      },
      "location": {
        "file": "Gemfile.lock",
        "dependency": {
          "package": {
            "name": "nokogiri"
          },
          "version": "1.6.7.2"
        }
      },
      "identifiers": [
        {
          "type": "gemnasium",
          "name": "Gemnasium-1a2e2e6e-67ba-4142-bfa1-3391f5416e4c",
          "value": "1a2e2e6e-67ba-4142-bfa1-3391f5416e4c",
          "url": "https://gitlab.com/gitlab-org/security-products/gemnasium-db/-/blob/v1.2.142/gem/nokogiri/CVE-2019-11068.yml"
        },
        {
          "type": "cve",
          "name": "CVE-2019-11068",
          "value": "CVE-2019-11068",
          "url": "https://cve.mitre.org/cgi-bin/cvename.cgi?name=CVE-2019-11068"
        }
      ],
      "links": [
        {
          "url": "https://cve.mitre.org/cgi-bin/cvename.cgi?name=CVE-2019-11068"
        },
        {
          "url": "https://github.com/sparklemotion/nokogiri/issues/1892"
        },
        {
          "url": "https://nvd.nist.gov/vuln/detail/CVE-2019-11068"
        },
        {
          "url": "https://people.canonical.com/~ubuntu-security/cve/CVE-2019-11068"
        },
        {
          "url": "https://security-tracker.debian.org/tracker/CVE-2019-11068"
        }
      ],
      "details": {
        "vulnerable_package": {
          "name": "Vulnerable Package",
          "type": "text",
          "value": "nokogiri:1.6.7.2"
        }
      }
    },
    {
      "id": "5daafd27c41ba47daa3c2fdee305151e34e2dac888601cf8cc28f8c5ea225d36",
      "category": "dependency_scanning",
      "name": "libxml2 vulnerabilities",
      "message": "libxml2 vulnerabilities in nokogiri",
      "description": "Nokogiri is affected via its dependency libxml2. CVE-2016-4448: Format string vulnerability in libxml2 allows attackers to have unspecified impact via format string specifiers in unknown vectors. CVE-2016-4658: libxml2 allows remote attackers to execute arbitrary code or cause a denial of service (memory corruption) via a crafted XML document. CVE-2016-5131: libxml2 allows remote attackers to cause a denial of service or possibly have unspecified other impact via vectors related to the XPointer range-to function. ",
      "cve": "Gemfile.lock:nokogiri:gemnasium:208c00fd-0100-4109-9577-79b0a9a63a60",
      "severity": "Critical",
      "solution": "Upgrade to latest version",
      "scanner": {
        "id": "gemnasium",
        "name": "Gemnasium"
      },
      "location": {
        "file": "Gemfile.lock",
        "dependency": {
          "package": {
            "name": "nokogiri"
          },
          "version": "1.6.7.2"
        }
      },
      "identifiers": [
        {
          "type": "gemnasium",
          "name": "Gemnasium-208c00fd-0100-4109-9577-79b0a9a63a60",
          "value": "208c00fd-0100-4109-9577-79b0a9a63a60",
          "url": "https://gitlab.com/gitlab-org/security-products/gemnasium-db/-/blob/v1.2.142/gem/nokogiri/CVE-2016-4658.yml"
        },
        {
          "type": "cve",
          "name": "CVE-2016-4658",
          "value": "CVE-2016-4658",
          "url": "https://cve.mitre.org/cgi-bin/cvename.cgi?name=CVE-2016-4658"
        }
      ],
      "links": [
        {
          "url": "http://people.canonical.com/~ubuntu-security/cve/2016/CVE-2016-4448.html"
        },
        {
          "url": "http://people.canonical.com/~ubuntu-security/cve/2016/CVE-2016-4658.html"
        },
        {
          "url": "http://people.canonical.com/~ubuntu-security/cve/2016/CVE-2016-5131.html"
        },
        {
          "url": "https://github.com/sparklemotion/nokogiri/issues/1615"
        }
      ],
      "details": {
        "vulnerable_package": {
          "name": "Vulnerable Package",
          "type": "text",
          "value": "nokogiri:1.6.7.2"
        }
      }
    },
    {
      "id": "10a699b78185b177ed912a187a1b2adc9af2c575da27ad4128995f955f8d9b04",
      "category": "dependency_scanning",
      "name": "Command Injection",
      "message": "Command Injection in nokogiri",
      "description": "A command injection vulnerability in Nokogiri and earlier allows commands to be executed in a subprocess via Ruby's `Kernel.open` method. Processes are vulnerable only if the undocumented method `Nokogiri::CSS::Tokenizer#load_file` is being called with unsafe user input as the filename.",
      "cve": "Gemfile.lock:nokogiri:gemnasium:7e9c16eb-d4ee-4c0a-a3b7-ed88f1ea7125",
      "severity": "Critical",
      "solution": "Upgrade to version 1.10.4 or above.",
      "scanner": {
        "id": "gemnasium",
        "name": "Gemnasium"
      },
      "location": {
        "file": "Gemfile.lock",
        "dependency": {
          "package": {
            "name": "nokogiri"
          },
          "version": "1.6.7.2"
        }
      },
      "identifiers": [
        {
          "type": "gemnasium",
          "name": "Gemnasium-7e9c16eb-d4ee-4c0a-a3b7-ed88f1ea7125",
          "value": "7e9c16eb-d4ee-4c0a-a3b7-ed88f1ea7125",
          "url": "https://gitlab.com/gitlab-org/security-products/gemnasium-db/-/blob/v1.2.142/gem/nokogiri/CVE-2019-5477.yml"
        },
        {
          "type": "cve",
          "name": "CVE-2019-5477",
          "value": "CVE-2019-5477",
          "url": "https://cve.mitre.org/cgi-bin/cvename.cgi?name=CVE-2019-5477"
        }
      ],
      "links": [
        {
          "url": "https://github.com/sparklemotion/nokogiri/issues/1915"
        },
        {
          "url": "https://nvd.nist.gov/vuln/detail/CVE-2019-5477"
        }
      ],
      "details": {
        "vulnerable_package": {
          "name": "Vulnerable Package",
          "type": "text",
          "value": "nokogiri:1.6.7.2"
        }
      }
    },
    {
      "id": "5bc90a9c99569d8737aa5ca18354711a2e8ef617e74ee57a14998691d81373bd",
      "category": "dependency_scanning",
      "name": "Untrusted Search Path",
      "message": "Untrusted Search Path in ffi",
      "description": "ruby-ffi has a DLL loading issue which can be hijacked on Windows OS, when a Symbol is used as DLL name instead of a String.",
      "cve": "Gemfile.lock:ffi:gemnasium:8e0cf74f-27fb-41ad-939b-d86940adefa2",
      "severity": "High",
      "solution": "Upgrade to version 1.9.24 or above.",
      "scanner": {
        "id": "gemnasium",
        "name": "Gemnasium"
      },
      "location": {
        "file": "Gemfile.lock",
        "dependency": {
          "package": {
            "name": "ffi"
          },
          "version": "1.9.21"
        }
      },
      "identifiers": [
        {
          "type": "gemnasium",
          "name": "Gemnasium-8e0cf74f-27fb-41ad-939b-d86940adefa2",
          "value": "8e0cf74f-27fb-41ad-939b-d86940adefa2",
          "url": "https://gitlab.com/gitlab-org/security-products/gemnasium-db/-/blob/v1.2.142/gem/ffi/CVE-2018-1000201.yml"
        },
        {
          "type": "cve",
          "name": "CVE-2018-1000201",
          "value": "CVE-2018-1000201",
          "url": "https://cve.mitre.org/cgi-bin/cvename.cgi?name=CVE-2018-1000201"
        }
      ],
      "links": [
        {
          "url": "https://nvd.nist.gov/vuln/detail/CVE-2018-1000201"
        }
      ],
      "details": {
        "vulnerable_package": {
          "name": "Vulnerable Package",
          "type": "text",
          "value": "ffi:1.9.21"
        }
      }
    },
    {
      "id": "837d0bf169abf92b41cd4f85d4693d1d0c8d799086384c8cedd1315ef0517bc1",
      "category": "dependency_scanning",
      "name": "Improper Input Validation",
      "message": "Improper Input Validation in nokogiri",
      "description": "In `numbers.c` in libxslt 1.1.33, which is used by nokogiri, an `xsl:number` with certain format strings could lead to an uninitialized read in `xsltNumberFormatInsertNumbers`.  This could allow an attacker to discern whether a byte on the stack contains the characters `[AaIi0]`, or any other character.",
      "cve": "Gemfile.lock:nokogiri:gemnasium:0f3c3d7c-8e3c-4bc7-8b8d-a3a6703fff7d",
      "severity": "High",
      "solution": "Upgrade to version 1.10.5 or above.",
      "scanner": {
        "id": "gemnasium",
        "name": "Gemnasium"
      },
      "location": {
        "file": "Gemfile.lock",
        "dependency": {
          "package": {
            "name": "nokogiri"
          },
          "version": "1.6.7.2"
        }
      },
      "identifiers": [
        {
          "type": "gemnasium",
          "name": "Gemnasium-0f3c3d7c-8e3c-4bc7-8b8d-a3a6703fff7d",
          "value": "0f3c3d7c-8e3c-4bc7-8b8d-a3a6703fff7d",
          "url": "https://gitlab.com/gitlab-org/security-products/gemnasium-db/-/blob/v1.2.142/gem/nokogiri/CVE-2019-13117.yml"
        },
        {
          "type": "cve",
          "name": "CVE-2019-13117",
          "value": "CVE-2019-13117",
          "url": "https://cve.mitre.org/cgi-bin/cvename.cgi?name=CVE-2019-13117"
        }
      ],
      "links": [
        {
          "url": "https://bugs.chromium.org/p/oss-fuzz/issues/detail?id=14471"
        },
        {
          "url": "https://nvd.nist.gov/vuln/detail/CVE-2019-13117"
        }
      ],
      "details": {
        "vulnerable_package": {
          "name": "Vulnerable Package",
          "type": "text",
          "value": "nokogiri:1.6.7.2"
        }
      }
    },
    {
      "id": "12bcf2966febd905541dcce3b19641f70ff7691e7fba546637288b311e08f4f3",
      "category": "dependency_scanning",
      "name": "Upstream libxslt vulnerabilities",
      "message": "Upstream libxslt vulnerabilities in nokogiri",
      "description": "The `xsltAddTextString` function in `transform.c` in libxslt, as used by nokogiri, lacks a check for integer overflow during a size calculation, which allows a remote attacker to perform an out-of-bounds memory write via a crafted HTML page.",
      "cve": "Gemfile.lock:nokogiri:gemnasium:4289ba56-7bdf-4067-8314-1b3209d05948",
      "severity": "High",
      "solution": "Upgrade to version 1.7.1 or above.",
      "scanner": {
        "id": "gemnasium",
        "name": "Gemnasium"
      },
      "location": {
        "file": "Gemfile.lock",
        "dependency": {
          "package": {
            "name": "nokogiri"
          },
          "version": "1.6.7.2"
        }
      },
      "identifiers": [
        {
          "type": "gemnasium",
          "name": "Gemnasium-4289ba56-7bdf-4067-8314-1b3209d05948",
          "value": "4289ba56-7bdf-4067-8314-1b3209d05948",
          "url": "https://gitlab.com/gitlab-org/security-products/gemnasium-db/-/blob/v1.2.142/gem/nokogiri/CVE-2017-5029.yml"
        },
        {
          "type": "cve",
          "name": "CVE-2017-5029",
          "value": "CVE-2017-5029",
          "url": "https://cve.mitre.org/cgi-bin/cvename.cgi?name=CVE-2017-5029"
        }
      ],
      "links": [
        {
          "url": "http://www.securityfocus.com/bid/96767"
        },
        {
          "url": "https://crbug.com/676623"
        },
        {
          "url": "https://github.com/sparklemotion/nokogiri/issues/1634"
        },
        {
          "url": "https://nvd.nist.gov/vuln/detail/CVE-2017-5029"
        }
      ],
      "details": {
        "vulnerable_package": {
          "name": "Vulnerable Package",
          "type": "text",
          "value": "nokogiri:1.6.7.2"
        }
      }
    },
    {
      "id": "040840a87415bea0b53f334599d3f6fcbb771ca89966f0dfc9c7cfc8649f3973",
      "category": "dependency_scanning",
      "name": "Access of Resource Using Incompatible Type (Type Confusion)",
      "message": "Access of Resource Using Incompatible Type (Type Confusion) in nokogiri",
      "description": "Type confusion in `xsltNumberFormatGetMultipleLevel` in libxslt, which is included in nokogiri, could allow attackers to potentially exploit heap corruption via crafted XML data.",
      "cve": "Gemfile.lock:nokogiri:gemnasium:66bbb585-09a1-4042-bb63-e57e64568ded",
      "severity": "High",
      "solution": "Upgrade to version 1.2.0 or above.",
      "scanner": {
        "id": "gemnasium",
        "name": "Gemnasium"
      },
      "location": {
        "file": "Gemfile.lock",
        "dependency": {
          "package": {
            "name": "nokogiri"
          },
          "version": "1.6.7.2"
        }
      },
      "identifiers": [
        {
          "type": "gemnasium",
          "name": "Gemnasium-66bbb585-09a1-4042-bb63-e57e64568ded",
          "value": "66bbb585-09a1-4042-bb63-e57e64568ded",
          "url": "https://gitlab.com/gitlab-org/security-products/gemnasium-db/-/blob/v1.2.142/gem/nokogiri/CVE-2019-5815.yml"
        },
        {
          "type": "cve",
          "name": "CVE-2019-5815",
          "value": "CVE-2019-5815",
          "url": "https://cve.mitre.org/cgi-bin/cvename.cgi?name=CVE-2019-5815"
        }
      ],
      "links": [
        {
          "url": "https://bugs.chromium.org/p/chromium/issues/detail?id=930663"
        },
        {
          "url": "https://gitlab.gnome.org/GNOME/libxslt/commit/08b62c25871b38d5d573515ca8a065b4b8f64f6b"
        },
        {
          "url": "https://nvd.nist.gov/vuln/detail/CVE-2019-5815"
        }
      ],
      "details": {
        "vulnerable_package": {
          "name": "Vulnerable Package",
          "type": "text",
          "value": "nokogiri:1.6.7.2"
        }
      }
    },
    {
      "id": "5a64c9a0280544f1d5ef74096026c508442c8c68b0a6d55253b6d195fb5cbe1a",
      "category": "dependency_scanning",
      "name": "Infinite recursion in parameter entities",
      "message": "Infinite recursion in parameter entities in nokogiri",
      "description": "The library libxml2, which is included in nokogiri, incorrectly handles certain parameter entities. An attacker can leverage this with specially constructed XML data to cause libxml2 to consume resources, leading to a denial of service.",
      "cve": "Gemfile.lock:nokogiri:gemnasium:6a0d56f6-2441-492a-9b14-edb95ac31919",
      "severity": "High",
      "solution": "Upgrade to latest version.",
      "scanner": {
        "id": "gemnasium",
        "name": "Gemnasium"
      },
      "location": {
        "file": "Gemfile.lock",
        "dependency": {
          "package": {
            "name": "nokogiri"
          },
          "version": "1.6.7.2"
        }
      },
      "identifiers": [
        {
          "type": "gemnasium",
          "name": "Gemnasium-6a0d56f6-2441-492a-9b14-edb95ac31919",
          "value": "6a0d56f6-2441-492a-9b14-edb95ac31919",
          "url": "https://gitlab.com/gitlab-org/security-products/gemnasium-db/-/blob/v1.2.142/gem/nokogiri/CVE-2017-16932.yml"
        },
        {
          "type": "cve",
          "name": "CVE-2017-16932",
          "value": "CVE-2017-16932",
          "url": "https://cve.mitre.org/cgi-bin/cvename.cgi?name=CVE-2017-16932"
        }
      ],
      "links": [
        {
          "url": "https://cve.mitre.org/cgi-bin/cvename.cgi?name=CVE-2017-16932"
        },
        {
          "url": "https://github.com/sparklemotion/nokogiri/issues/1714"
        },
        {
          "url": "https://people.canonical.com/~ubuntu-security/cve/2017/CVE-2017-16932.html"
        },
        {
          "url": "https://usn.ubuntu.com/usn/usn-3504-1/"
        }
      ],
      "details": {
        "vulnerable_package": {
          "name": "Vulnerable Package",
          "type": "text",
          "value": "nokogiri:1.6.7.2"
        }
      }
    },
    {
      "id": "a707724f5606ebfbeda745f724f187b828859ab0931c497e27133683fe1328af",
      "category": "dependency_scanning",
      "name": "Denial of Service",
      "message": "Denial of Service in nokogiri",
      "description": "The libxml2 binary, which is included in nokogiri, incorrectly handles certain files. An attacker can use this issue with specially constructed XML data to cause libxml2 to consume resources, leading to a denial of service. ",
      "cve": "Gemfile.lock:nokogiri:gemnasium:78658378-bd8f-4d79-81c8-07c419302426",
      "severity": "High",
      "solution": "Upgrade to latest version.",
      "scanner": {
        "id": "gemnasium",
        "name": "Gemnasium"
      },
      "location": {
        "file": "Gemfile.lock",
        "dependency": {
          "package": {
            "name": "nokogiri"
          },
          "version": "1.6.7.2"
        }
      },
      "identifiers": [
        {
          "type": "gemnasium",
          "name": "Gemnasium-78658378-bd8f-4d79-81c8-07c419302426",
          "value": "78658378-bd8f-4d79-81c8-07c419302426",
          "url": "https://gitlab.com/gitlab-org/security-products/gemnasium-db/-/blob/v1.2.142/gem/nokogiri/CVE-2017-15412.yml"
        },
        {
          "type": "cve",
          "name": "CVE-2017-15412",
          "value": "CVE-2017-15412",
          "url": "https://cve.mitre.org/cgi-bin/cvename.cgi?name=CVE-2017-15412"
        }
      ],
      "links": [
        {
          "url": "https://cve.mitre.org/cgi-bin/cvename.cgi?name=CVE-2017-15412"
        },
        {
          "url": "https://github.com/sparklemotion/nokogiri/issues/1714"
        },
        {
          "url": "https://people.canonical.com/~ubuntu-security/cve/2017/CVE-2017-15412.html"
        }
      ],
      "details": {
        "vulnerable_package": {
          "name": "Vulnerable Package",
          "type": "text",
          "value": "nokogiri:1.6.7.2"
        }
      }
    },
    {
      "id": "c92b936c537788cc0e4f1248f07ba7ff353492657126ce6625aadfa215d76fcd",
      "category": "dependency_scanning",
      "name": "Denial of service or RCE from libxml2 and libxslt",
      "message": "Denial of service or RCE from libxml2 and libxslt in nokogiri",
      "description": "Nokogiri is affected by series of vulnerabilities in libxml2 and libxslt, which are libraries Nokogiri depends on. It was discovered that libxml2 and libxslt incorrectly handled certain malformed documents, which can allow malicious users to cause issues ranging from denial of service to remote code execution attacks.",
      "cve": "Gemfile.lock:nokogiri:gemnasium:988aa1ec-2e90-4cdf-9ed5-0900f3846b70",
      "severity": "High",
      "solution": "Upgrade to latest version.",
      "scanner": {
        "id": "gemnasium",
        "name": "Gemnasium"
      },
      "location": {
        "file": "Gemfile.lock",
        "dependency": {
          "package": {
            "name": "nokogiri"
          },
          "version": "1.6.7.2"
        }
      },
      "identifiers": [
        {
          "type": "gemnasium",
          "name": "Gemnasium-988aa1ec-2e90-4cdf-9ed5-0900f3846b70",
          "value": "988aa1ec-2e90-4cdf-9ed5-0900f3846b70",
          "url": "https://gitlab.com/gitlab-org/security-products/gemnasium-db/-/blob/v1.2.142/gem/nokogiri/CVE-2015-8806.yml"
        },
        {
          "type": "cve",
          "name": "CVE-2015-8806",
          "value": "CVE-2015-8806",
          "url": "https://cve.mitre.org/cgi-bin/cvename.cgi?name=CVE-2015-8806"
        }
      ],
      "links": [
        {
          "url": "http://www.ubuntu.com/usn/usn-2994-1/"
        },
        {
          "url": "https://github.com/sparklemotion/nokogiri/commit/03d402212707bd5dfa0a21b7de5e91a7f9d90028"
        },
        {
          "url": "https://github.com/sparklemotion/nokogiri/issues/1473"
        },
        {
          "url": "https://mail.gnome.org/archives/xml/2016-May/msg00023.html"
        }
      ],
      "details": {
        "vulnerable_package": {
          "name": "Vulnerable Package",
          "type": "text",
          "value": "nokogiri:1.6.7.2"
        }
      }
    },
    {
      "id": "7742dc262e81548c232bb1e862c528a770d189ee8875369baa93d722cae3f582",
      "category": "dependency_scanning",
      "name": "Improper Input Validation",
      "message": "Improper Input Validation in nokogiri",
      "description": "In `numbers.c` in libxslt 1.1.33, which is used by nokogiri, a type holding grouping characters of an `xsl:number` instruction was too narrow and an invalid character/length combination could be passed to `xsltNumberFormatDecimal`, leading to a read of uninitialized stack data.",
      "cve": "Gemfile.lock:nokogiri:gemnasium:e81fe131-f92b-4449-bc54-ca2baa35b06f",
      "severity": "High",
      "solution": "Upgrade to version 1.10.5 or above.",
      "scanner": {
        "id": "gemnasium",
        "name": "Gemnasium"
      },
      "location": {
        "file": "Gemfile.lock",
        "dependency": {
          "package": {
            "name": "nokogiri"
          },
          "version": "1.6.7.2"
        }
      },
      "identifiers": [
        {
          "type": "gemnasium",
          "name": "Gemnasium-e81fe131-f92b-4449-bc54-ca2baa35b06f",
          "value": "e81fe131-f92b-4449-bc54-ca2baa35b06f",
          "url": "https://gitlab.com/gitlab-org/security-products/gemnasium-db/-/blob/v1.2.142/gem/nokogiri/CVE-2019-13118.yml"
        },
        {
          "type": "cve",
          "name": "CVE-2019-13118",
          "value": "CVE-2019-13118",
          "url": "https://cve.mitre.org/cgi-bin/cvename.cgi?name=CVE-2019-13118"
        }
      ],
      "links": [
        {
          "url": "https://nvd.nist.gov/vuln/detail/CVE-2019-13118"
        }
      ],
      "details": {
        "vulnerable_package": {
          "name": "Vulnerable Package",
          "type": "text",
          "value": "nokogiri:1.6.7.2"
        }
      }
    },
    {
      "id": "9670fdc4bb1b4d7ce95450015d027c19cd04e089a85c3fda0a43eb9e64e080f0",
      "category": "dependency_scanning",
      "name": "Use After Free",
      "message": "Use After Free in nokogiri",
      "description": "In `xsltCopyText` in `transform.c` in libxslt, which is used by nokogiri, a pointer variable isn't reset under certain circumstances. If the relevant memory area happened to be freed and reused in a certain way, a bounds check could fail and memory outside a buffer could be written to, or uninitialized data could be disclosed.",
      "cve": "Gemfile.lock:nokogiri:gemnasium:ecf64d0e-4f5c-4ebe-9f3f-c75ea81dc837",
      "severity": "High",
      "solution": "Upgrade to version 1.10.5 or above.",
      "scanner": {
        "id": "gemnasium",
        "name": "Gemnasium"
      },
      "location": {
        "file": "Gemfile.lock",
        "dependency": {
          "package": {
            "name": "nokogiri"
          },
          "version": "1.6.7.2"
        }
      },
      "identifiers": [
        {
          "type": "gemnasium",
          "name": "Gemnasium-ecf64d0e-4f5c-4ebe-9f3f-c75ea81dc837",
          "value": "ecf64d0e-4f5c-4ebe-9f3f-c75ea81dc837",
          "url": "https://gitlab.com/gitlab-org/security-products/gemnasium-db/-/blob/v1.2.142/gem/nokogiri/CVE-2019-18197.yml"
        },
        {
          "type": "cve",
          "name": "CVE-2019-18197",
          "value": "CVE-2019-18197",
          "url": "https://cve.mitre.org/cgi-bin/cvename.cgi?name=CVE-2019-18197"
        }
      ],
      "links": [
        {
          "url": "https://nvd.nist.gov/vuln/detail/CVE-2019-18197"
        }
      ],
      "details": {
        "vulnerable_package": {
          "name": "Vulnerable Package",
          "type": "text",
          "value": "nokogiri:1.6.7.2"
        }
      }
    },
    {
      "id": "9b67097d9e602047a92667939e75f3e7aa08d036e8eb013954360354354cc87e",
      "category": "dependency_scanning",
      "name": "Inconsistent Interpretation of HTTP Requests (HTTP Request Smuggling)",
      "message": "Inconsistent Interpretation of HTTP Requests (HTTP Request Smuggling) in puma",
      "description": " In Puma (RubyGem), a client could smuggle a request through a proxy, causing the proxy to send a response back to another unknown client. If the proxy uses persistent connections and the client adds another request in via HTTP pipelining, the proxy may mistake it as the first request's body. Puma, however, would see it as two requests, and when processing the second request, send back a response that the proxy does not expect. If the proxy has reused the persistent connection to Puma to send another request for a different client, the second response from the first client will be sent to the second client.",
      "cve": "Gemfile.lock:puma:gemnasium:1cd16c54-101c-455b-9267-b5e2904acc67",
      "severity": "High",
      "solution": "Upgrade to versions 3.12.6, 4.3.5 or above.",
      "scanner": {
        "id": "gemnasium",
        "name": "Gemnasium"
      },
      "location": {
        "file": "Gemfile.lock",
        "dependency": {
          "package": {
            "name": "puma"
          },
          "version": "3.12.0"
        }
      },
      "identifiers": [
        {
          "type": "gemnasium",
          "name": "Gemnasium-1cd16c54-101c-455b-9267-b5e2904acc67",
          "value": "1cd16c54-101c-455b-9267-b5e2904acc67",
          "url": "https://gitlab.com/gitlab-org/security-products/gemnasium-db/-/blob/v1.2.142/gem/puma/CVE-2020-11077.yml"
        },
        {
          "type": "cve",
          "name": "CVE-2020-11077",
          "value": "CVE-2020-11077",
          "url": "https://cve.mitre.org/cgi-bin/cvename.cgi?name=CVE-2020-11077"
        }
      ],
      "links": [
        {
          "url": "https://nvd.nist.gov/vuln/detail/CVE-2020-11077"
        }
      ],
      "details": {
        "vulnerable_package": {
          "name": "Vulnerable Package",
          "type": "text",
          "value": "puma:3.12.0"
        }
      }
    },
    {
      "id": "6aac2d2896c343512672620709de6cc9e561ff79d4465b23a2da060e38f48706",
      "category": "dependency_scanning",
      "name": "Inconsistent Interpretation of HTTP Requests (HTTP Request Smuggling)",
      "message": "Inconsistent Interpretation of HTTP Requests (HTTP Request Smuggling) in puma",
      "description": "In Puma (RubyGem), an attacker could smuggle an HTTP response, by using an invalid transfer-encoding header.",
      "cve": "Gemfile.lock:puma:gemnasium:3f0a2579-150e-454f-a3d7-2f3e1959be45",
      "severity": "High",
      "solution": "Upgrade to versions 3.12.6, 4.3.5 or above.",
      "scanner": {
        "id": "gemnasium",
        "name": "Gemnasium"
      },
      "location": {
        "file": "Gemfile.lock",
        "dependency": {
          "package": {
            "name": "puma"
          },
          "version": "3.12.0"
        }
      },
      "identifiers": [
        {
          "type": "gemnasium",
          "name": "Gemnasium-3f0a2579-150e-454f-a3d7-2f3e1959be45",
          "value": "3f0a2579-150e-454f-a3d7-2f3e1959be45",
          "url": "https://gitlab.com/gitlab-org/security-products/gemnasium-db/-/blob/v1.2.142/gem/puma/CVE-2020-11076.yml"
        },
        {
          "type": "cve",
          "name": "CVE-2020-11076",
          "value": "CVE-2020-11076",
          "url": "https://cve.mitre.org/cgi-bin/cvename.cgi?name=CVE-2020-11076"
        }
      ],
      "links": [
        {
          "url": "https://nvd.nist.gov/vuln/detail/CVE-2020-11076"
        }
      ],
      "details": {
        "vulnerable_package": {
          "name": "Vulnerable Package",
          "type": "text",
          "value": "puma:3.12.0"
        }
      }
    },
    {
      "id": "031c46a9320dcc766b2ff58a1523c28fd8b4213cf94e5d8a310409c4ab58b283",
      "category": "dependency_scanning",
      "name": "Improper Neutralization of CRLF Sequences in HTTP Headers",
      "message": "Improper Neutralization of CRLF Sequences in HTTP Headers in puma",
      "description": "In Puma (RubyGem), if an application using Puma allows untrusted input in a response header, an attacker can use newline characters (i.e. `CR`, `LF` or`/r`, `/n`) to end the header and inject malicious content, such as additional headers or an entirely new response body. This vulnerability is known as HTTP Response Splitting. While not an attack in itself, response splitting is a vector for several other attacks, such as cross-site scripting (XSS).",
      "cve": "Gemfile.lock:puma:gemnasium:66c46af8-8f1d-46c9-be8e-36ee0801fba3",
      "severity": "High",
      "solution": "Upgrade to versions 3.12.4, 4.3.3 or above.",
      "scanner": {
        "id": "gemnasium",
        "name": "Gemnasium"
      },
      "location": {
        "file": "Gemfile.lock",
        "dependency": {
          "package": {
            "name": "puma"
          },
          "version": "3.12.0"
        }
      },
      "identifiers": [
        {
          "type": "gemnasium",
          "name": "Gemnasium-66c46af8-8f1d-46c9-be8e-36ee0801fba3",
          "value": "66c46af8-8f1d-46c9-be8e-36ee0801fba3",
          "url": "https://gitlab.com/gitlab-org/security-products/gemnasium-db/-/blob/v1.2.142/gem/puma/CVE-2020-5247.yml"
        },
        {
          "type": "cve",
          "name": "CVE-2020-5247",
          "value": "CVE-2020-5247",
          "url": "https://cve.mitre.org/cgi-bin/cvename.cgi?name=CVE-2020-5247"
        }
      ],
      "links": [
        {
          "url": "https://github.com/puma/puma/security/advisories/GHSA-84j7-475p-hp8v"
        },
        {
          "url": "https://nvd.nist.gov/vuln/detail/CVE-2020-5247"
        },
        {
          "url": "https://www.ruby-lang.org/en/news/2019/10/01/http-response-splitting-in-webrick-cve-2019-16254"
        }
      ],
      "details": {
        "vulnerable_package": {
          "name": "Vulnerable Package",
          "type": "text",
          "value": "puma:3.12.0"
        }
      }
    },
    {
      "id": "1d57f06e151b0082a5a1d36920d19c4a0e001a9ffceade0c0505872638af46d4",
      "category": "dependency_scanning",
      "name": "Path Traversal",
      "message": "Path Traversal in rack",
      "description": "A directory traversal vulnerability exists in rack that allows an attacker perform directory traversal vulnerability in the `Rack::Directory` app that is bundled with Rack which could result in information disclosure.",
      "cve": "Gemfile.lock:rack:gemnasium:53834578-b5cb-4f46-9607-ce88978e7443",
      "severity": "High",
      "solution": "Upgrade to version 2.2.0 or above.",
      "scanner": {
        "id": "gemnasium",
        "name": "Gemnasium"
      },
      "location": {
        "file": "Gemfile.lock",
        "dependency": {
          "package": {
            "name": "rack"
          },
          "version": "2.0.4"
        }
      },
      "identifiers": [
        {
          "type": "gemnasium",
          "name": "Gemnasium-53834578-b5cb-4f46-9607-ce88978e7443",
          "value": "53834578-b5cb-4f46-9607-ce88978e7443",
          "url": "https://gitlab.com/gitlab-org/security-products/gemnasium-db/-/blob/v1.2.142/gem/rack/CVE-2020-8161.yml"
        },
        {
          "type": "cve",
          "name": "CVE-2020-8161",
          "value": "CVE-2020-8161",
          "url": "https://cve.mitre.org/cgi-bin/cvename.cgi?name=CVE-2020-8161"
        }
      ],
      "links": [
        {
          "url": "https://nvd.nist.gov/vuln/detail/CVE-2020-8161"
        }
      ],
      "details": {
        "vulnerable_package": {
          "name": "Vulnerable Package",
          "type": "text",
          "value": "rack:2.0.4"
        }
      }
    },
    {
      "id": "9bedf1a177114e96ba57161f01c7137239a1effabda4326bc2096d7f62be3ebb",
      "category": "dependency_scanning",
      "name": "Improper Input Validation",
      "message": "Improper Input Validation in rack",
      "description": "A reliance on cookies without `validation/integrity` check security vulnerability exists in rack that makes it is possible for an attacker to forge a secure or host-only cookie prefix.",
      "cve": "Gemfile.lock:rack:gemnasium:b960a2e0-c5c1-4117-b443-bf772494bcb7",
      "severity": "High",
      "solution": "Upgrade to versions 2.1.4, 2.2.3 or above.",
      "scanner": {
        "id": "gemnasium",
        "name": "Gemnasium"
      },
      "location": {
        "file": "Gemfile.lock",
        "dependency": {
          "package": {
            "name": "rack"
          },
          "version": "2.0.4"
        }
      },
      "identifiers": [
        {
          "type": "gemnasium",
          "name": "Gemnasium-b960a2e0-c5c1-4117-b443-bf772494bcb7",
          "value": "b960a2e0-c5c1-4117-b443-bf772494bcb7",
          "url": "https://gitlab.com/gitlab-org/security-products/gemnasium-db/-/blob/v1.2.142/gem/rack/CVE-2020-8184.yml"
        },
        {
          "type": "cve",
          "name": "CVE-2020-8184",
          "value": "CVE-2020-8184",
          "url": "https://cve.mitre.org/cgi-bin/cvename.cgi?name=CVE-2020-8184"
        }
      ],
      "links": [
        {
          "url": "https://nvd.nist.gov/vuln/detail/CVE-2020-8184"
        }
      ],
      "details": {
        "vulnerable_package": {
          "name": "Vulnerable Package",
          "type": "text",
          "value": "rack:2.0.4"
        }
      }
    },
    {
      "id": "83f48ba410a6a55c6c5ec5dffb647a599c21eb4b35dc0b8076e013873ccbf74d",
      "category": "dependency_scanning",
      "name": "Uncontrolled Resource Consumption",
      "message": "Uncontrolled Resource Consumption in rack",
      "description": "There is a possible DoS vulnerability in the multipart parser in Rack. Specially crafted requests can cause the multipart parser to enter a pathological state, causing the parser to use CPU resources disproportionate to the request size.",
      "cve": "Gemfile.lock:rack:gemnasium:fafa07ab-4b63-433a-a2aa-573f542f8f4d",
      "severity": "High",
      "solution": "Upgrade to version 2.0.6 or above.",
      "scanner": {
        "id": "gemnasium",
        "name": "Gemnasium"
      },
      "location": {
        "file": "Gemfile.lock",
        "dependency": {
          "package": {
            "name": "rack"
          },
          "version": "2.0.4"
        }
      },
      "identifiers": [
        {
          "type": "gemnasium",
          "name": "Gemnasium-fafa07ab-4b63-433a-a2aa-573f542f8f4d",
          "value": "fafa07ab-4b63-433a-a2aa-573f542f8f4d",
          "url": "https://gitlab.com/gitlab-org/security-products/gemnasium-db/-/blob/v1.2.142/gem/rack/CVE-2018-16470.yml"
        },
        {
          "type": "cve",
          "name": "CVE-2018-16470",
          "value": "CVE-2018-16470",
          "url": "https://cve.mitre.org/cgi-bin/cvename.cgi?name=CVE-2018-16470"
        }
      ],
      "links": [
        {
          "url": "https://nvd.nist.gov/vuln/detail/CVE-2018-16470"
        }
      ],
      "details": {
        "vulnerable_package": {
          "name": "Vulnerable Package",
          "type": "text",
          "value": "rack:2.0.4"
        }
      }
    },
    {
      "id": "08b4f5a650638938b984788d85cb0e24a9eb7883ad1a752352721beeea6515ec",
      "category": "dependency_scanning",
      "name": "Allocation of Resources Without Limits or Throttling",
      "message": "Allocation of Resources Without Limits or Throttling in puma",
      "description": "In Puma, a poorly-behaved client could use keepalive requests to monopolize Puma's reactor and create a denial of service attack. If more keepalive connections to Puma are opened than there are threads available, additional connections will wait permanently if the attacker sends requests frequently enough.",
      "cve": "Gemfile.lock:puma:gemnasium:855d4255-6625-4349-b9d9-b8df7a97e7f5",
      "severity": "Medium",
      "solution": "Upgrade to versions 3.12.2, 4.3.1 or above.",
      "scanner": {
        "id": "gemnasium",
        "name": "Gemnasium"
      },
      "location": {
        "file": "Gemfile.lock",
        "dependency": {
          "package": {
            "name": "puma"
          },
          "version": "3.12.0"
        }
      },
      "identifiers": [
        {
          "type": "gemnasium",
          "name": "Gemnasium-855d4255-6625-4349-b9d9-b8df7a97e7f5",
          "value": "855d4255-6625-4349-b9d9-b8df7a97e7f5",
          "url": "https://gitlab.com/gitlab-org/security-products/gemnasium-db/-/blob/v1.2.142/gem/puma/CVE-2019-16770.yml"
        },
        {
          "type": "cve",
          "name": "CVE-2019-16770",
          "value": "CVE-2019-16770",
          "url": "https://cve.mitre.org/cgi-bin/cvename.cgi?name=CVE-2019-16770"
        }
      ],
      "links": [
        {
          "url": "https://nvd.nist.gov/vuln/detail/CVE-2019-16770"
        }
      ],
      "details": {
        "vulnerable_package": {
          "name": "Vulnerable Package",
          "type": "text",
          "value": "puma:3.12.0"
        }
      }
    },
    {
      "id": "15a85962d23d173bf4866e0cc416fafdde68e954d56c2aa8a5ed12e09c627e5e",
      "category": "dependency_scanning",
      "name": "Injection Vulnerability",
      "message": "Injection Vulnerability in puma",
      "description": "In Puma (RubyGem), if an application using Puma allows untrusted input in an early-hints header, an attacker can use a carriage return character to end the header and inject malicious content, such as additional headers or an entirely new response body. This vulnerability is known as HTTP Response Splitting. While not an attack in itself, response splitting is a vector for several other attacks, such as cross-site scripting (XSS).",
      "cve": "Gemfile.lock:puma:gemnasium:9b88f320-c56b-477d-8d32-f99f79147d74",
      "severity": "Medium",
      "solution": "Upgrade to versions 3.12.4, 4.3.3 or above.",
      "scanner": {
        "id": "gemnasium",
        "name": "Gemnasium"
      },
      "location": {
        "file": "Gemfile.lock",
        "dependency": {
          "package": {
            "name": "puma"
          },
          "version": "3.12.0"
        }
      },
      "identifiers": [
        {
          "type": "gemnasium",
          "name": "Gemnasium-9b88f320-c56b-477d-8d32-f99f79147d74",
          "value": "9b88f320-c56b-477d-8d32-f99f79147d74",
          "url": "https://gitlab.com/gitlab-org/security-products/gemnasium-db/-/blob/v1.2.142/gem/puma/CVE-2020-5249.yml"
        },
        {
          "type": "cve",
          "name": "CVE-2020-5249",
          "value": "CVE-2020-5249",
          "url": "https://cve.mitre.org/cgi-bin/cvename.cgi?name=CVE-2020-5249"
        }
      ],
      "links": [
        {
          "url": "https://nvd.nist.gov/vuln/detail/CVE-2020-5249"
        }
      ],
      "details": {
        "vulnerable_package": {
          "name": "Vulnerable Package",
          "type": "text",
          "value": "puma:3.12.0"
        }
      }
    },
    {
      "id": "58117f1182f9ddf088a381ca26cf1b10391e15d98b4d36f0812130fba1c40c28",
      "category": "dependency_scanning",
      "name": "Path traversal on Windows",
      "message": "Path traversal on Windows in rack-protection",
      "description": "Path traversal is possible via backslash characters on Windows. An attacker could access arbitrary files and directories stored on the file system.",
      "cve": "Gemfile.lock:rack-protection:gemnasium:fff2cf11-3422-4aaf-b18f-aa30a0f2ae37",
      "severity": "Medium",
      "solution": "Upgrade to version 2.0.1 or above.",
      "scanner": {
        "id": "gemnasium",
        "name": "Gemnasium"
      },
      "location": {
        "file": "Gemfile.lock",
        "dependency": {
          "package": {
            "name": "rack-protection"
          },
          "version": "2.0.0"
        }
      },
      "identifiers": [
        {
          "type": "gemnasium",
          "name": "Gemnasium-fff2cf11-3422-4aaf-b18f-aa30a0f2ae37",
          "value": "fff2cf11-3422-4aaf-b18f-aa30a0f2ae37",
          "url": "https://gitlab.com/gitlab-org/security-products/gemnasium-db/-/blob/v1.2.142/gem/rack-protection/CVE-2018-7212.yml"
        },
        {
          "type": "cve",
          "name": "CVE-2018-7212",
          "value": "CVE-2018-7212",
          "url": "https://cve.mitre.org/cgi-bin/cvename.cgi?name=CVE-2018-7212"
        }
      ],
      "links": [
        {
          "url": "https://github.com/sinatra/rack-protection/pull/120"
        },
        {
          "url": "https://github.com/sinatra/rack-protection/pull/120/commits/4239c2f189a73dfc93e957fc97adcbcbc0ed31c6"
        },
        {
          "url": "https://github.com/sinatra/sinatra/commit/d17aa95f5056c52daf5d7c3170fbfd831dc96381"
        },
        {
          "url": "https://github.com/sinatra/sinatra/pull/1379"
        }
      ],
      "details": {
        "vulnerable_package": {
          "name": "Vulnerable Package",
          "type": "text",
          "value": "rack-protection:2.0.0"
        }
      }
    },
    {
      "id": "f53edfd91ba65f898d24d1070e3d27d9437b44df91ee150f37ec3b3054859e79",
      "category": "dependency_scanning",
      "name": "Cross-site Scripting",
      "message": "Cross-site Scripting in rack",
      "description": "There is a possible XSS vulnerability in Rack. Carefully crafted requests can impact the data returned by the `scheme` method on `Rack::Request`. Applications that expect the scheme to be limited to HTTP or HTTPS and do not escape the return value could be vulnerable to an XSS attack. Note that applications using the normal escaping mechanisms provided by Rails may not be impacted, but applications that bypass the escaping mechanisms, or do not use them may be vulnerable.",
      "cve": "Gemfile.lock:rack:gemnasium:effd904a-dbb5-4117-945f-fe7e235d2380",
      "severity": "Medium",
      "solution": "Upgrade to versions 1.6.11, 2.0.6 or above.",
      "scanner": {
        "id": "gemnasium",
        "name": "Gemnasium"
      },
      "location": {
        "file": "Gemfile.lock",
        "dependency": {
          "package": {
            "name": "rack"
          },
          "version": "2.0.4"
        }
      },
      "identifiers": [
        {
          "type": "gemnasium",
          "name": "Gemnasium-effd904a-dbb5-4117-945f-fe7e235d2380",
          "value": "effd904a-dbb5-4117-945f-fe7e235d2380",
          "url": "https://gitlab.com/gitlab-org/security-products/gemnasium-db/-/blob/v1.2.142/gem/rack/CVE-2018-16471.yml"
        },
        {
          "type": "cve",
          "name": "CVE-2018-16471",
          "value": "CVE-2018-16471",
          "url": "https://cve.mitre.org/cgi-bin/cvename.cgi?name=CVE-2018-16471"
        }
      ],
      "links": [
        {
          "url": "https://nvd.nist.gov/vuln/detail/CVE-2018-16471"
        }
      ],
      "details": {
        "vulnerable_package": {
          "name": "Vulnerable Package",
          "type": "text",
          "value": "rack:2.0.4"
        }
      }
    },
    {
      "id": "40fb09b6ef67d45afa97634710d7ca7f8d3f0c80adc130c35b8b304d436ccb80",
      "category": "dependency_scanning",
      "name": "Information Exposure",
      "message": "Information Exposure in rack",
      "description": "There's a possible information leak / session hijack vulnerability in Rack (RubyGem rack). Attackers may be able to find and hijack sessions by using timing attacks targeting the session id. Session ids are usually stored and indexed in a database that uses some kind of scheme for speeding up lookups of that session id. By carefully measuring the amount of time it takes to look up a session, an attacker may be able to find a valid session id and hijack the session. The session id itself may be generated randomly, but the way the session is indexed by the backing store does not use a secure comparison.",
      "cve": "Gemfile.lock:rack:gemnasium:f3c4e135-0d7a-4ab9-a4ef-a331ef23c423",
      "severity": "Medium",
      "solution": "Upgrade to version 2.0.8 or above.",
      "scanner": {
        "id": "gemnasium",
        "name": "Gemnasium"
      },
      "location": {
        "file": "Gemfile.lock",
        "dependency": {
          "package": {
            "name": "rack"
          },
          "version": "2.0.4"
        }
      },
      "identifiers": [
        {
          "type": "gemnasium",
          "name": "Gemnasium-f3c4e135-0d7a-4ab9-a4ef-a331ef23c423",
          "value": "f3c4e135-0d7a-4ab9-a4ef-a331ef23c423",
          "url": "https://gitlab.com/gitlab-org/security-products/gemnasium-db/-/blob/v1.2.142/gem/rack/CVE-2019-16782.yml"
        },
        {
          "type": "cve",
          "name": "CVE-2019-16782",
          "value": "CVE-2019-16782",
          "url": "https://cve.mitre.org/cgi-bin/cvename.cgi?name=CVE-2019-16782"
        }
      ],
      "links": [
        {
          "url": "https://github.com/rack/rack/security/advisories/GHSA-hrqr-hxpp-chr3"
        },
        {
          "url": "https://nvd.nist.gov/vuln/detail/CVE-2019-16782"
        }
      ],
      "details": {
        "vulnerable_package": {
          "name": "Vulnerable Package",
          "type": "text",
          "value": "rack:2.0.4"
        }
      }
    },
    {
      "id": "2c4cf92854b250491df01803d15991b7d23a68bf7fab5d1461b6a81deed0ac2f",
      "category": "dependency_scanning",
      "name": "Cross-site Scripting",
      "message": "Cross-site Scripting in sinatra",
      "description": "Sinatra has XSS via the 400 Bad Request page that occurs upon a params parser exception.",
      "cve": "Gemfile.lock:sinatra:gemnasium:5027319e-8131-41e0-b7dc-57f9777c36df",
      "severity": "Medium",
      "solution": "Upgrade to version 2.0.2 or above.",
      "scanner": {
        "id": "gemnasium",
        "name": "Gemnasium"
      },
      "location": {
        "file": "Gemfile.lock",
        "dependency": {
          "package": {
            "name": "sinatra"
          },
          "version": "2.0.0"
        }
      },
      "identifiers": [
        {
          "type": "gemnasium",
          "name": "Gemnasium-5027319e-8131-41e0-b7dc-57f9777c36df",
          "value": "5027319e-8131-41e0-b7dc-57f9777c36df",
          "url": "https://gitlab.com/gitlab-org/security-products/gemnasium-db/-/blob/v1.2.142/gem/sinatra/CVE-2018-11627.yml"
        },
        {
          "type": "cve",
          "name": "CVE-2018-11627",
          "value": "CVE-2018-11627",
          "url": "https://cve.mitre.org/cgi-bin/cvename.cgi?name=CVE-2018-11627"
        }
      ],
      "links": [
        {
          "url": "https://nvd.nist.gov/vuln/detail/CVE-2018-11627"
        }
      ],
      "details": {
        "vulnerable_package": {
          "name": "Vulnerable Package",
          "type": "text",
          "value": "sinatra:2.0.0"
        }
      }
    },
    {
      "id": "54db9fe2f7e5ee65e9053c5874c6744c8649be427ffb999cd4271f1d8818f3d6",
      "category": "dependency_scanning",
      "name": "Path Traversal",
      "message": "Path Traversal in sinatra",
      "description": "An issue was discovered in `rack-protection/lib/rack/protection/path_traversal.rb` in Sinatra on Windows. Path traversal is possible via backslash characters.",
      "cve": "Gemfile.lock:sinatra:gemnasium:eed4c5a3-014f-4bbf-b95e-0d393956e75b",
      "severity": "Medium",
      "solution": "Upgrade to version 2.0.2 or above.",
      "scanner": {
        "id": "gemnasium",
        "name": "Gemnasium"
      },
      "location": {
        "file": "Gemfile.lock",
        "dependency": {
          "package": {
            "name": "sinatra"
          },
          "version": "2.0.0"
        }
      },
      "identifiers": [
        {
          "type": "gemnasium",
          "name": "Gemnasium-eed4c5a3-014f-4bbf-b95e-0d393956e75b",
          "value": "eed4c5a3-014f-4bbf-b95e-0d393956e75b",
          "url": "https://gitlab.com/gitlab-org/security-products/gemnasium-db/-/blob/v1.2.142/gem/sinatra/CVE-2018-7212.yml"
        },
        {
          "type": "cve",
          "name": "CVE-2018-7212",
          "value": "CVE-2018-7212",
          "url": "https://cve.mitre.org/cgi-bin/cvename.cgi?name=CVE-2018-7212"
        }
      ],
      "links": [
        {
          "url": "https://github.com/sinatra/sinatra/pull/1379"
        },
        {
          "url": "https://nvd.nist.gov/vuln/detail/CVE-2018-7212"
        }
      ],
      "details": {
        "vulnerable_package": {
          "name": "Vulnerable Package",
          "type": "text",
          "value": "sinatra:2.0.0"
        }
      }
    },
    {
      "id": "33962a0ddfe34347d869d696fe70a334cb54e47777eada10da0d6b3cec28cd26",
      "category": "dependency_scanning",
      "name": "Vulnerabilities in libxml2",
      "message": "Vulnerabilities in libxml2 in nokogiri",
      "description": "The version of libxml2 packaged with Nokogiri contains several vulnerabilities.\nNokogiri has mitigated these issues by upgrading to libxml 2.9.5. It was discovered that a type confusion error existed in libxml2. An attacker could use this to specially construct XML data that could cause a denial of service or possibly execute arbitrary code. (CVE-2017-0663) It was discovered that libxml2 did not properly validate parsed entity references. An attacker could use this to specially construct XML data that could expose sensitive information. (CVE-2017-7375) It was discovered that a buffer overflow existed in libxml2 when handling HTTP redirects. An attacker could use this to specially construct XML data that could cause a denial of service or possibly execute arbitrary code. (CVE-2017-7376) Marcel Böhme and Van-Thuan Pham discovered a buffer overflow in libxml2 when handling elements. An attacker could use this to specially construct XML data that could cause a denial of service or possibly execute arbitrary code. (CVE-2017-9047) Marcel Böhme and Van-Thuan Pham discovered a buffer overread in libxml2 when handling elements. An attacker could use this to specially construct XML data that could cause a denial of service. (CVE-2017-9048) Marcel Böhme and Van-Thuan Pham discovered multiple buffer overreads in libxml2 when handling parameter-entity references. An attacker could use these to specially construct XML data that could cause a denial of service. (CVE-2017-9049, CVE-2017-9050)",
      "cve": "Gemfile.lock:nokogiri:gemnasium:06565b64-486d-4326-b906-890d9915804d",
      "severity": "Unknown",
      "solution": "Upgrade to latest version.",
      "scanner": {
        "id": "gemnasium",
        "name": "Gemnasium"
      },
      "location": {
        "file": "Gemfile.lock",
        "dependency": {
          "package": {
            "name": "nokogiri"
          },
          "version": "1.6.7.2"
        }
      },
      "identifiers": [
        {
          "type": "gemnasium",
          "name": "Gemnasium-06565b64-486d-4326-b906-890d9915804d",
          "value": "06565b64-486d-4326-b906-890d9915804d",
          "url": "https://gitlab.com/gitlab-org/security-products/gemnasium-db/-/blob/v1.2.142/gem/nokogiri/USN-3424-1.yml"
        },
        {
          "type": "usn",
          "name": "USN-3424-1",
          "value": "USN-3424-1",
          "url": "https://usn.ubuntu.com/3424-1/"
        }
      ],
      "links": [
        {
          "url": "https://github.com/sparklemotion/nokogiri/issues/1673"
        }
      ],
      "details": {
        "vulnerable_package": {
          "name": "Vulnerable Package",
          "type": "text",
          "value": "nokogiri:1.6.7.2"
        }
      }
    }
  ],
  "dependency_files": [
    {
      "path": "Gemfile.lock",
      "package_manager": "bundler",
      "dependencies": [
        {
          "package": {
            "name": "activesupport"
          },
          "version": "5.1.4"
        },
        {
          "package": {
            "name": "byebug"
          },
          "version": "10.0.0"
        },
        {
          "package": {
            "name": "coderay"
          },
          "version": "1.1.2"
        },
        {
          "package": {
            "name": "concurrent-ruby"
          },
          "version": "1.0.5"
        },
        {
          "package": {
            "name": "connection_pool"
          },
          "version": "2.2.1"
        },
        {
          "package": {
            "name": "diff-lcs"
          },
          "version": "1.3"
        },
        {
          "package": {
            "name": "faker"
          },
          "version": "1.6.6"
        },
        {
          "package": {
            "name": "ffi"
          },
          "version": "1.9.21"
        },
        {
          "package": {
            "name": "formatador"
          },
          "version": "0.2.5"
        },
        {
          "package": {
            "name": "guard"
          },
          "version": "2.14.2"
        },
        {
          "package": {
            "name": "guard-compat"
          },
          "version": "1.2.1"
        },
        {
          "package": {
            "name": "guard-rspec"
          },
          "version": "4.7.3"
        },
        {
          "package": {
            "name": "i18n"
          },
          "version": "0.9.5"
        },
        {
          "package": {
            "name": "listen"
          },
          "version": "3.1.5"
        },
        {
          "package": {
            "name": "lumberjack"
          },
          "version": "1.0.12"
        },
        {
          "package": {
            "name": "method_source"
          },
          "version": "0.9.0"
        },
        {
          "package": {
            "name": "mini_portile2"
          },
          "version": "2.0.0"
        },
        {
          "package": {
            "name": "minitest"
          },
          "version": "5.11.3"
        },
        {
          "package": {
            "name": "mustermann"
          },
          "version": "1.0.1"
        },
        {
          "package": {
            "name": "nenv"
          },
          "version": "0.3.0"
        },
        {
          "package": {
            "name": "nokogiri"
          },
          "version": "1.6.7.2"
        },
        {
          "package": {
            "name": "notiffany"
          },
          "version": "0.1.1"
        },
        {
          "package": {
            "name": "pg"
          },
          "version": "1.0.0"
        },
        {
          "package": {
            "name": "pry"
          },
          "version": "0.11.3"
        },
        {
          "package": {
            "name": "puma"
          },
          "version": "3.12.0"
        },
        {
          "package": {
            "name": "rack"
          },
          "version": "2.0.4"
        },
        {
          "package": {
            "name": "rack-protection"
          },
          "version": "2.0.0"
        },
        {
          "package": {
            "name": "rb-fsevent"
          },
          "version": "0.10.2"
        },
        {
          "package": {
            "name": "rb-inotify"
          },
          "version": "0.9.10"
        },
        {
          "package": {
            "name": "redis"
          },
          "version": "3.3.5"
        },
        {
          "package": {
            "name": "rspec"
          },
          "version": "3.7.0"
        },
        {
          "package": {
            "name": "rspec-core"
          },
          "version": "3.7.1"
        },
        {
          "package": {
            "name": "rspec-expectations"
          },
          "version": "3.7.0"
        },
        {
          "package": {
            "name": "rspec-mocks"
          },
          "version": "3.7.0"
        },
        {
          "package": {
            "name": "rspec-support"
          },
          "version": "3.7.1"
        },
        {
          "package": {
            "name": "ruby_dep"
          },
          "version": "1.5.0"
        },
        {
          "package": {
            "name": "shellany"
          },
          "version": "0.0.1"
        },
        {
          "package": {
            "name": "sidekiq"
          },
          "version": "4.2.10"
        },
        {
          "package": {
            "name": "sinatra"
          },
          "version": "2.0.0"
        },
        {
          "package": {
            "name": "slim"
          },
          "version": "3.0.9"
        },
        {
          "package": {
            "name": "spring"
          },
          "version": "2.0.2"
        },
        {
          "package": {
            "name": "temple"
          },
          "version": "0.8.0"
        },
        {
          "package": {
            "name": "thor"
          },
          "version": "0.20.0"
        },
        {
          "package": {
            "name": "thread_safe"
          },
          "version": "0.3.6"
        },
        {
          "package": {
            "name": "tilt"
          },
          "version": "2.0.8"
        },
        {
          "package": {
            "name": "tzinfo"
          },
          "version": "1.2.5"
        }
      ]
    }
  ],
  "scan": {
    "analyzer": {
      "id": "gemnasium",
      "name": "Gemnasium",
      "url": "https://gitlab.com/gitlab-org/security-products/analyzers/gemnasium",
      "vendor": {
        "name": "GitLab"
      },
      "version": "3.6.0"
    },
    "scanner": {
      "id": "gemnasium",
      "name": "Gemnasium",
      "url": "https://gitlab.com/gitlab-org/security-products/analyzers/gemnasium",
      "vendor": {
        "name": "GitLab"
      },
      "version": "2.33.0"
    },
    "type": "dependency_scanning",
    "start_time": "2022-02-16T04:38:09",
    "end_time": "2022-02-16T04:38:11",
    "status": "success"
  }
}
