[
  {
    "name": "abab",
    "version": "1.0.3"
  },
  {
    "name": "abbrev",
    "version": "1.0.9"
  },
  {
    "name": "accepts",
    "version": "1.3.3"
  },
  {
    "name": "acorn-dynamic-import",
    "version": "2.0.1"
  },
  {
    "name": "acorn-globals",
    "version": "3.1.0"
  },
  {
    "name": "acorn-jsx",
    "version": "3.0.1"
  },
  {
    "name": "acorn",
    "version": "4.0.4"
  },
  {
    "name": "acorn",
    "version": "3.3.0"
  },
  {
    "name": "acorn",
    "version": "4.0.11"
  },
  {
    "name": "ajv-keywords",
    "version": "1.5.0"
  },
  {
    "name": "ajv",
    "version": "4.11.5"
  },
  {
    "name": "align-text",
    "version": "0.1.4"
  },
  {
    "name": "alphanum-sort",
    "version": "1.0.2"
  },
  {
    "name": "amdefine",
    "version": "1.0.1"
  },
  {
    "name": "angular-animate",
    "version": "1.6.4"
  },
  {
    "name": "angular-cookies",
    "version": "1.6.3"
  },
  {
    "name": "angular-sanitize",
    "version": "1.6.3"
  },
  {
    "name": "angular-storage",
    "version": "0.0.15"
  },
  {
    "name": "angular-ui-bootstrap",
    "version": "2.5.0"
  },
  {
    "name": "angular-ui-router",
    "version": "0.4.2"
  },
  {
    "name": "angular",
    "version": "1.6.3"
  },
  {
    "name": "angular",
    "version": "1.6.6"
  },
  {
    "name": "ansi-escape",
    "version": "1.1.0"
  },
  {
    "name": "ansi-escapes",
    "version": "1.4.0"
  },
  {
    "name": "ansi-html",
    "version": "0.0.7"
  },
  {
    "name": "ansi-regex",
    "version": "2.0.0"
  },
  {
    "name": "ansi-styles",
    "version": "2.2.1"
  },
  {
    "name": "anymatch",
    "version": "1.3.0"
  },
  {
    "name": "append-transform",
    "version": "0.4.0"
  },
  {
    "name": "aproba",
    "version": "1.0.4"
  },
  {
    "name": "archy",
    "version": "1.0.0"
  },
  {
    "name": "are-we-there-yet",
    "version": "1.1.2"
  },
  {
    "name": "argparse",
    "version": "1.0.9"
  },
  {
    "name": "arr-diff",
    "version": "2.0.0"
  },
  {
    "name": "arr-flatten",
    "version": "1.0.1"
  },
  {
    "name": "array-equal",
    "version": "1.0.0"
  },
  {
    "name": "array-filter",
    "version": "0.0.1"
  },
  {
    "name": "array-find-index",
    "version": "1.0.2"
  },
  {
    "name": "array-flatten",
    "version": "1.1.1"
  },
  {
    "name": "array-map",
    "version": "0.0.0"
  },
  {
    "name": "array-reduce",
    "version": "0.0.0"
  },
  {
    "name": "array-union",
    "version": "1.0.2"
  },
  {
    "name": "array-uniq",
    "version": "1.0.3"
  },
  {
    "name": "array-unique",
    "version": "0.2.1"
  },
  {
    "name": "arrify",
    "version": "1.0.1"
  },
  {
    "name": "asn1.js",
    "version": "4.9.1"
  },
  {
    "name": "asn1",
    "version": "0.2.3"
  },
  {
    "name": "assert-plus",
    "version": "0.2.0"
  },
  {
    "name": "assert-plus",
    "version": "1.0.0"
  },
  {
    "name": "assert",
    "version": "1.4.1"
  },
  {
    "name": "ast-types",
    "version": "0.9.2"
  },
  {
    "name": "async-each",
    "version": "1.0.1"
  },
  {
    "name": "async-foreach",
    "version": "0.1.3"
  },
  {
    "name": "async",
    "version": "1.4.2"
  },
  {
    "name": "async",
    "version": "1.5.2"
  },
  {
    "name": "async",
    "version": "2.1.4"
  },
  {
    "name": "async",
    "version": "2.2.0"
  },
  {
    "name": "async",
    "version": "0.2.10"
  },
  {
    "name": "async",
    "version": "1.2.1"
  },
  {
    "name": "asynckit",
    "version": "0.4.0"
  },
  {
    "name": "atob",
    "version": "1.1.3"
  },
  {
    "name": "autoprefixer",
    "version": "6.7.7"
  },
  {
    "name": "aws-sign2",
    "version": "0.6.0"
  },
  {
    "name": "aws4",
    "version": "1.5.0"
  },
  {
    "name": "babel-code-frame",
    "version": "6.22.0"
  },
  {
    "name": "babel-core",
    "version": "6.24.0"
  },
  {
    "name": "babel-generator",
    "version": "6.24.0"
  },
  {
    "name": "babel-helper-call-delegate",
    "version": "6.22.0"
  },
  {
    "name": "babel-helper-define-map",
    "version": "6.23.0"
  },
  {
    "name": "babel-helper-function-name",
    "version": "6.23.0"
  },
  {
    "name": "babel-helper-function-name",
    "version": "6.18.0"
  },
  {
    "name": "babel-helper-get-function-arity",
    "version": "6.22.0"
  },
  {
    "name": "babel-helper-hoist-variables",
    "version": "6.22.0"
  },
  {
    "name": "babel-helper-optimise-call-expression",
    "version": "6.23.0"
  },
  {
    "name": "babel-helper-regex",
    "version": "6.22.0"
  },
  {
    "name": "babel-helper-replace-supers",
    "version": "6.23.0"
  },
  {
    "name": "babel-helpers",
    "version": "6.23.0"
  },
  {
    "name": "babel-loader",
    "version": "6.4.1"
  },
  {
    "name": "babel-messages",
    "version": "6.23.0"
  },
  {
    "name": "babel-plugin-angularjs-annotate",
    "version": "0.7.0"
  },
  {
    "name": "babel-plugin-check-es2015-constants",
    "version": "6.22.0"
  },
  {
    "name": "babel-plugin-istanbul",
    "version": "3.1.2"
  },
  {
    "name": "babel-plugin-lodash",
    "version": "3.2.11"
  },
  {
    "name": "babel-plugin-syntax-object-rest-spread",
    "version": "6.13.0"
  },
  {
    "name": "babel-plugin-transform-es2015-arrow-functions",
    "version": "6.22.0"
  },
  {
    "name": "babel-plugin-transform-es2015-block-scoped-functions",
    "version": "6.22.0"
  },
  {
    "name": "babel-plugin-transform-es2015-block-scoping",
    "version": "6.23.0"
  },
  {
    "name": "babel-plugin-transform-es2015-classes",
    "version": "6.23.0"
  },
  {
    "name": "babel-plugin-transform-es2015-computed-properties",
    "version": "6.22.0"
  },
  {
    "name": "babel-plugin-transform-es2015-destructuring",
    "version": "6.23.0"
  },
  {
    "name": "babel-plugin-transform-es2015-duplicate-keys",
    "version": "6.22.0"
  },
  {
    "name": "babel-plugin-transform-es2015-for-of",
    "version": "6.23.0"
  },
  {
    "name": "babel-plugin-transform-es2015-function-name",
    "version": "6.22.0"
  },
  {
    "name": "babel-plugin-transform-es2015-function-name",
    "version": "6.9.0"
  },
  {
    "name": "babel-plugin-transform-es2015-literals",
    "version": "6.22.0"
  },
  {
    "name": "babel-plugin-transform-es2015-modules-amd",
    "version": "6.24.0"
  },
  {
    "name": "babel-plugin-transform-es2015-modules-commonjs",
    "version": "6.24.0"
  },
  {
    "name": "babel-plugin-transform-es2015-modules-systemjs",
    "version": "6.23.0"
  },
  {
    "name": "babel-plugin-transform-es2015-modules-umd",
    "version": "6.24.0"
  },
  {
    "name": "babel-plugin-transform-es2015-object-super",
    "version": "6.22.0"
  },
  {
    "name": "babel-plugin-transform-es2015-parameters",
    "version": "6.23.0"
  },
  {
    "name": "babel-plugin-transform-es2015-shorthand-properties",
    "version": "6.22.0"
  },
  {
    "name": "babel-plugin-transform-es2015-spread",
    "version": "6.22.0"
  },
  {
    "name": "babel-plugin-transform-es2015-sticky-regex",
    "version": "6.22.0"
  },
  {
    "name": "babel-plugin-transform-es2015-template-literals",
    "version": "6.22.0"
  },
  {
    "name": "babel-plugin-transform-es2015-typeof-symbol",
    "version": "6.23.0"
  },
  {
    "name": "babel-plugin-transform-es2015-unicode-regex",
    "version": "6.22.0"
  },
  {
    "name": "babel-plugin-transform-object-rest-spread",
    "version": "6.23.0"
  },
  {
    "name": "babel-plugin-transform-regenerator",
    "version": "6.22.0"
  },
  {
    "name": "babel-plugin-transform-strict-mode",
    "version": "6.22.0"
  },
  {
    "name": "babel-polyfill",
    "version": "6.23.0"
  },
  {
    "name": "babel-preset-es2015",
    "version": "6.24.0"
  },
  {
    "name": "babel-register",
    "version": "6.24.0"
  },
  {
    "name": "babel-runtime",
    "version": "6.23.0"
  },
  {
    "name": "babel-template",
    "version": "6.23.0"
  },
  {
    "name": "babel-traverse",
    "version": "6.23.1"
  },
  {
    "name": "babel-types",
    "version": "6.23.0"
  },
  {
    "name": "babylon",
    "version": "6.15.0"
  },
  {
    "name": "balanced-match",
    "version": "0.4.2"
  },
  {
    "name": "base64-js",
    "version": "1.2.0"
  },
  {
    "name": "batch",
    "version": "0.5.3"
  },
  {
    "name": "bcrypt-pbkdf",
    "version": "1.0.0"
  },
  {
    "name": "big.js",
    "version": "3.1.3"
  },
  {
    "name": "binary-extensions",
    "version": "1.8.0"
  },
  {
    "name": "block-stream",
    "version": "0.0.9"
  },
  {
    "name": "bluebird",
    "version": "2.11.0"
  },
  {
    "name": "bluebird",
    "version": "3.4.7"
  },
  {
    "name": "bn.js",
    "version": "4.11.6"
  },
  {
    "name": "boolbase",
    "version": "1.0.0"
  },
  {
    "name": "boom",
    "version": "2.10.1"
  },
  {
    "name": "bootstrap",
    "version": "3.3.7"
  },
  {
    "name": "brace-expansion",
    "version": "1.1.6"
  },
  {
    "name": "braces",
    "version": "1.8.5"
  },
  {
    "name": "brorand",
    "version": "1.0.6"
  },
  {
    "name": "browserify-aes",
    "version": "1.0.6"
  },
  {
    "name": "browserify-cipher",
    "version": "1.0.0"
  },
  {
    "name": "browserify-des",
    "version": "1.0.0"
  },
  {
    "name": "browserify-rsa",
    "version": "4.0.1"
  },
  {
    "name": "browserify-sign",
    "version": "4.0.0"
  },
  {
    "name": "browserify-zlib",
    "version": "0.1.4"
  },
  {
    "name": "browserslist",
    "version": "1.7.7"
  },
  {
    "name": "buffer-shims",
    "version": "1.0.0"
  },
  {
    "name": "buffer-xor",
    "version": "1.0.3"
  },
  {
    "name": "buffer",
    "version": "4.9.1"
  },
  {
    "name": "builtin-modules",
    "version": "1.1.1"
  },
  {
    "name": "builtin-status-codes",
    "version": "3.0.0"
  },
  {
    "name": "bytes",
    "version": "2.3.0"
  },
  {
    "name": "caching-transform",
    "version": "1.0.1"
  },
  {
    "name": "caller-path",
    "version": "0.1.0"
  },
  {
    "name": "callsites",
    "version": "0.2.0"
  },
  {
    "name": "camel-case",
    "version": "3.0.0"
  },
  {
    "name": "camel-case",
    "version": "1.2.2"
  },
  {
    "name": "camelcase-keys",
    "version": "2.1.0"
  },
  {
    "name": "camelcase",
    "version": "1.2.1"
  },
  {
    "name": "camelcase",
    "version": "2.1.1"
  },
  {
    "name": "camelcase",
    "version": "3.0.0"
  },
  {
    "name": "caniuse-api",
    "version": "1.5.2"
  },
  {
    "name": "caniuse-db",
    "version": "1.0.30000646"
  },
  {
    "name": "caseless",
    "version": "0.11.0"
  },
  {
    "name": "center-align",
    "version": "0.1.3"
  },
  {
    "name": "chalk",
    "version": "1.1.3"
  },
  {
    "name": "change-case",
    "version": "2.3.1"
  },
  {
    "name": "checklist-model",
    "version": "0.11.0"
  },
  {
    "name": "chokidar-cli",
    "version": "1.2.0"
  },
  {
    "name": "chokidar",
    "version": "1.6.1"
  },
  {
    "name": "chunk-manifest-webpack-plugin",
    "version": "1.0.0"
  },
  {
    "name": "cipher-base",
    "version": "1.0.3"
  },
  {
    "name": "circular-json",
    "version": "0.3.1"
  },
  {
    "name": "clap",
    "version": "1.1.2"
  },
  {
    "name": "clean-css",
    "version": "3.4.23"
  },
  {
    "name": "clean-webpack-plugin",
    "version": "0.1.16"
  },
  {
    "name": "cli-cursor",
    "version": "1.0.2"
  },
  {
    "name": "cli-width",
    "version": "2.1.0"
  },
  {
    "name": "cli",
    "version": "0.6.6"
  },
  {
    "name": "clipboard",
    "version": "1.5.16"
  },
  {
    "name": "cliui",
    "version": "2.1.0"
  },
  {
    "name": "cliui",
    "version": "3.2.0"
  },
  {
    "name": "clone-deep",
    "version": "0.2.4"
  },
  {
    "name": "clone",
    "version": "1.0.2"
  },
  {
    "name": "co",
    "version": "4.6.0"
  },
  {
    "name": "coa",
    "version": "1.0.1"
  },
  {
    "name": "code-point-at",
    "version": "1.1.0"
  },
  {
    "name": "color-convert",
    "version": "1.8.2"
  },
  {
    "name": "color-name",
    "version": "1.1.1"
  },
  {
    "name": "color-string",
    "version": "0.3.0"
  },
  {
    "name": "color",
    "version": "0.11.4"
  },
  {
    "name": "colormin",
    "version": "1.1.2"
  },
  {
    "name": "colors",
    "version": "1.0.3"
  },
  {
    "name": "colors",
    "version": "1.1.2"
  },
  {
    "name": "combined-stream",
    "version": "1.0.5"
  },
  {
    "name": "commander",
    "version": "2.6.0"
  },
  {
    "name": "commander",
    "version": "2.8.1"
  },
  {
    "name": "commander",
    "version": "2.9.0"
  },
  {
    "name": "commondir",
    "version": "1.0.1"
  },
  {
    "name": "compressible",
    "version": "2.0.9"
  },
  {
    "name": "compression",
    "version": "1.6.2"
  },
  {
    "name": "concat-map",
    "version": "0.0.1"
  },
  {
    "name": "concat-stream",
    "version": "1.6.0"
  },
  {
    "name": "connect-history-api-fallback",
    "version": "1.3.0"
  },
  {
    "name": "console-browserify",
    "version": "1.1.0"
  },
  {
    "name": "console-control-strings",
    "version": "1.1.0"
  },
  {
    "name": "console-polyfill",
    "version": "0.2.3"
  },
  {
    "name": "constant-case",
    "version": "1.1.2"
  },
  {
    "name": "constants-browserify",
    "version": "1.0.0"
  },
  {
    "name": "content-disposition",
    "version": "0.5.2"
  },
  {
    "name": "content-type-parser",
    "version": "1.0.1"
  },
  {
    "name": "content-type",
    "version": "1.0.2"
  },
  {
    "name": "convert-source-map",
    "version": "1.3.0"
  },
  {
    "name": "cookie-signature",
    "version": "1.0.6"
  },
  {
    "name": "cookie",
    "version": "0.3.1"
  },
  {
    "name": "core-js",
    "version": "2.4.1"
  },
  {
    "name": "core-util-is",
    "version": "1.0.2"
  },
  {
    "name": "cosmiconfig",
    "version": "2.1.1"
  },
  {
    "name": "create-ecdh",
    "version": "4.0.0"
  },
  {
    "name": "create-hash",
    "version": "1.1.2"
  },
  {
    "name": "create-hmac",
    "version": "1.1.4"
  },
  {
    "name": "create-thenable",
    "version": "1.0.2"
  },
  {
    "name": "cross-spawn",
    "version": "3.0.1"
  },
  {
    "name": "cross-spawn",
    "version": "4.0.2"
  },
  {
    "name": "cryptiles",
    "version": "2.0.5"
  },
  {
    "name": "crypto-browserify",
    "version": "3.11.0"
  },
  {
    "name": "css-color-names",
    "version": "0.0.4"
  },
  {
    "name": "css-loader",
    "version": "0.28.0"
  },
  {
    "name": "css-select",
    "version": "1.2.0"
  },
  {
    "name": "css-selector-tokenizer",
    "version": "0.6.0"
  },
  {
    "name": "css-selector-tokenizer",
    "version": "0.7.0"
  },
  {
    "name": "css-what",
    "version": "2.1.0"
  },
  {
    "name": "css",
    "version": "2.2.1"
  },
  {
    "name": "cssesc",
    "version": "0.1.0"
  },
  {
    "name": "csslint",
    "version": "0.10.0"
  },
  {
    "name": "cssnano",
    "version": "3.10.0"
  },
  {
    "name": "csso",
    "version": "2.2.1"
  },
  {
    "name": "cssom",
    "version": "0.3.2"
  },
  {
    "name": "cssstyle",
    "version": "0.2.37"
  },
  {
    "name": "currently-unhandled",
    "version": "0.4.1"
  },
  {
    "name": "d",
    "version": "0.1.1"
  },
  {
    "name": "dashdash",
    "version": "1.14.1"
  },
  {
    "name": "date-now",
    "version": "0.1.4"
  },
  {
    "name": "debug-log",
    "version": "1.0.1"
  },
  {
    "name": "debug",
    "version": "2.2.0"
  },
  {
    "name": "debug",
    "version": "2.6.1"
  },
  {
    "name": "debug",
    "version": "2.6.7"
  },
  {
    "name": "decache",
    "version": "3.1.0"
  },
  {
    "name": "decamelize",
    "version": "1.2.0"
  },
  {
    "name": "deep-equal",
    "version": "1.0.1"
  },
  {
    "name": "deep-extend",
    "version": "0.4.1"
  },
  {
    "name": "deep-is",
    "version": "0.1.3"
  },
  {
    "name": "default-require-extensions",
    "version": "1.0.0"
  },
  {
    "name": "define-properties",
    "version": "1.1.2"
  },
  {
    "name": "defined",
    "version": "1.0.0"
  },
  {
    "name": "del",
    "version": "2.2.2"
  },
  {
    "name": "delayed-stream",
    "version": "1.0.0"
  },
  {
    "name": "delegate",
    "version": "3.1.1"
  },
  {
    "name": "delegates",
    "version": "1.0.0"
  },
  {
    "name": "depd",
    "version": "1.1.0"
  },
  {
    "name": "des.js",
    "version": "1.0.0"
  },
  {
    "name": "destroy",
    "version": "1.0.4"
  },
  {
    "name": "detect-file",
    "version": "0.1.0"
  },
  {
    "name": "detect-indent",
    "version": "4.0.0"
  },
  {
    "name": "diffie-hellman",
    "version": "5.0.2"
  },
  {
    "name": "doctrine",
    "version": "2.0.0"
  },
  {
    "name": "dom-converter",
    "version": "0.1.4"
  },
  {
    "name": "dom-serializer",
    "version": "0.1.0"
  },
  {
    "name": "domain-browser",
    "version": "1.1.7"
  },
  {
    "name": "domelementtype",
    "version": "1.3.0"
  },
  {
    "name": "domelementtype",
    "version": "1.1.3"
  },
  {
    "name": "domhandler",
    "version": "2.1.0"
  },
  {
    "name": "domhandler",
    "version": "2.3.0"
  },
  {
    "name": "domutils",
    "version": "1.1.6"
  },
  {
    "name": "domutils",
    "version": "1.5.1"
  },
  {
    "name": "dot-case",
    "version": "1.1.2"
  },
  {
    "name": "duplexer",
    "version": "0.1.1"
  },
  {
    "name": "duplicate-package-checker-webpack-plugin",
    "version": "1.2.4"
  },
  {
    "name": "ecc-jsbn",
    "version": "0.1.1"
  },
  {
    "name": "ee-first",
    "version": "1.1.1"
  },
  {
    "name": "ejs",
    "version": "2.5.5"
  },
  {
    "name": "electron-to-chromium",
    "version": "1.3.2"
  },
  {
    "name": "elliptic",
    "version": "6.3.2"
  },
  {
    "name": "emojis-list",
    "version": "2.1.0"
  },
  {
    "name": "encodeurl",
    "version": "1.0.1"
  },
  {
    "name": "enhanced-resolve",
    "version": "3.0.3"
  },
  {
    "name": "entities",
    "version": "1.0.0"
  },
  {
    "name": "entities",
    "version": "1.1.1"
  },
  {
    "name": "errno",
    "version": "0.1.4"
  },
  {
    "name": "error-ex",
    "version": "1.3.0"
  },
  {
    "name": "error-stack-parser",
    "version": "1.3.3"
  },
  {
    "name": "es-abstract",
    "version": "1.6.1"
  },
  {
    "name": "es-to-primitive",
    "version": "1.1.1"
  },
  {
    "name": "es5-ext",
    "version": "0.10.12"
  },
  {
    "name": "es6-iterator",
    "version": "2.0.0"
  },
  {
    "name": "es6-map",
    "version": "0.1.4"
  },
  {
    "name": "es6-set",
    "version": "0.1.4"
  },
  {
    "name": "es6-symbol",
    "version": "3.1.0"
  },
  {
    "name": "es6-templates",
    "version": "0.2.3"
  },
  {
    "name": "es6-weak-map",
    "version": "2.0.1"
  },
  {
    "name": "escape-html",
    "version": "1.0.3"
  },
  {
    "name": "escape-string-regexp",
    "version": "1.0.5"
  },
  {
    "name": "escodegen",
    "version": "1.8.1"
  },
  {
    "name": "escope",
    "version": "3.6.0"
  },
  {
    "name": "eslint",
    "version": "3.18.0"
  },
  {
    "name": "espree",
    "version": "3.4.0"
  },
  {
    "name": "esprima",
    "version": "2.7.3"
  },
  {
    "name": "esprima",
    "version": "3.1.3"
  },
  {
    "name": "esquery",
    "version": "1.0.0"
  },
  {
    "name": "esrecurse",
    "version": "4.1.0"
  },
  {
    "name": "estraverse",
    "version": "1.9.3"
  },
  {
    "name": "estraverse",
    "version": "4.2.0"
  },
  {
    "name": "estraverse",
    "version": "4.1.1"
  },
  {
    "name": "esutils",
    "version": "2.0.2"
  },
  {
    "name": "etag",
    "version": "1.8.0"
  },
  {
    "name": "event-emitter",
    "version": "0.3.4"
  },
  {
    "name": "eventemitter3",
    "version": "1.2.0"
  },
  {
    "name": "events",
    "version": "1.1.1"
  },
  {
    "name": "eventsource",
    "version": "0.1.6"
  },
  {
    "name": "evp_bytestokey",
    "version": "1.0.0"
  },
  {
    "name": "exit-hook",
    "version": "1.1.1"
  },
  {
    "name": "exit",
    "version": "0.1.2"
  },
  {
    "name": "expand-brackets",
    "version": "0.1.5"
  },
  {
    "name": "expand-range",
    "version": "1.8.2"
  },
  {
    "name": "expand-tilde",
    "version": "1.2.2"
  },
  {
    "name": "exports-loader",
    "version": "0.6.4"
  },
  {
    "name": "express",
    "version": "4.15.2"
  },
  {
    "name": "express",
    "version": "4.15.3"
  },
  {
    "name": "extend",
    "version": "3.0.0"
  },
  {
    "name": "external-editor",
    "version": "1.1.1"
  },
  {
    "name": "extglob",
    "version": "0.3.2"
  },
  {
    "name": "extract-text-webpack-plugin",
    "version": "2.1.0"
  },
  {
    "name": "extsprintf",
    "version": "1.0.2"
  },
  {
    "name": "fast-levenshtein",
    "version": "2.0.6"
  },
  {
    "name": "fastparse",
    "version": "1.1.1"
  },
  {
    "name": "faye-websocket",
    "version": "0.10.0"
  },
  {
    "name": "faye-websocket",
    "version": "0.11.0"
  },
  {
    "name": "figures",
    "version": "1.7.0"
  },
  {
    "name": "file-entry-cache",
    "version": "2.0.0"
  },
  {
    "name": "file-loader",
    "version": "0.10.1"
  },
  {
    "name": "filename-regex",
    "version": "2.0.0"
  },
  {
    "name": "filesize",
    "version": "3.5.6"
  },
  {
    "name": "fill-range",
    "version": "2.2.3"
  },
  {
    "name": "finalhandler",
    "version": "1.0.0"
  },
  {
    "name": "finalhandler",
    "version": "1.0.3"
  },
  {
    "name": "find-cache-dir",
    "version": "0.1.1"
  },
  {
    "name": "find-root",
    "version": "1.0.0"
  },
  {
    "name": "find-up",
    "version": "1.1.2"
  },
  {
    "name": "find",
    "version": "0.2.7"
  },
  {
    "name": "findup-sync",
    "version": "0.4.3"
  },
  {
    "name": "fined",
    "version": "1.0.2"
  },
  {
    "name": "flagged-respawn",
    "version": "0.3.2"
  },
  {
    "name": "flat-cache",
    "version": "1.2.2"
  },
  {
    "name": "flatten",
    "version": "1.0.2"
  },
  {
    "name": "font-awesome",
    "version": "4.7.0"
  },
  {
    "name": "for-each",
    "version": "0.3.2"
  },
  {
    "name": "for-in",
    "version": "0.1.6"
  },
  {
    "name": "for-own",
    "version": "0.1.4"
  },
  {
    "name": "foreach",
    "version": "2.0.5"
  },
  {
    "name": "foreground-child",
    "version": "1.5.6"
  },
  {
    "name": "forever-agent",
    "version": "0.6.1"
  },
  {
    "name": "form-data",
    "version": "2.1.2"
  },
  {
    "name": "formatio",
    "version": "1.1.1"
  },
  {
    "name": "forwarded",
    "version": "0.1.0"
  },
  {
    "name": "fresh",
    "version": "0.5.0"
  },
  {
    "name": "fs-exists-sync",
    "version": "0.1.0"
  },
  {
    "name": "fs.realpath",
    "version": "1.0.0"
  },
  {
    "name": "fsevents",
    "version": "1.0.17"
  },
  {
    "name": "fstream-ignore",
    "version": "1.0.5"
  },
  {
    "name": "fstream",
    "version": "1.0.10"
  },
  {
    "name": "function-bind",
    "version": "1.1.0"
  },
  {
    "name": "gauge",
    "version": "2.7.2"
  },
  {
    "name": "gaze",
    "version": "1.1.2"
  },
  {
    "name": "generate-function",
    "version": "2.0.0"
  },
  {
    "name": "generate-object-property",
    "version": "1.2.0"
  },
  {
    "name": "get-caller-file",
    "version": "1.0.2"
  },
  {
    "name": "get-stdin",
    "version": "4.0.1"
  },
  {
    "name": "getpass",
    "version": "0.1.6"
  },
  {
    "name": "glob-base",
    "version": "0.3.0"
  },
  {
    "name": "glob-parent",
    "version": "2.0.0"
  },
  {
    "name": "glob",
    "version": "5.0.15"
  },
  {
    "name": "glob",
    "version": "7.1.1"
  },
  {
    "name": "glob",
    "version": "3.2.11"
  },
  {
    "name": "global-modules",
    "version": "0.2.3"
  },
  {
    "name": "global-prefix",
    "version": "0.1.5"
  },
  {
    "name": "globals",
    "version": "9.14.0"
  },
  {
    "name": "globby",
    "version": "5.0.0"
  },
  {
    "name": "globule",
    "version": "1.1.0"
  },
  {
    "name": "good-listener",
    "version": "1.2.1"
  },
  {
    "name": "graceful-fs",
    "version": "4.1.11"
  },
  {
    "name": "graceful-readlink",
    "version": "1.0.1"
  },
  {
    "name": "gzip-size",
    "version": "3.0.0"
  },
  {
    "name": "handle-thing",
    "version": "1.2.5"
  },
  {
    "name": "handlebars",
    "version": "4.0.6"
  },
  {
    "name": "har-validator",
    "version": "2.0.6"
  },
  {
    "name": "has-ansi",
    "version": "2.0.0"
  },
  {
    "name": "has-flag",
    "version": "1.0.0"
  },
  {
    "name": "has-unicode",
    "version": "2.0.1"
  },
  {
    "name": "has",
    "version": "1.0.1"
  },
  {
    "name": "hash.js",
    "version": "1.0.3"
  },
  {
    "name": "hawk",
    "version": "3.1.3"
  },
  {
    "name": "he",
    "version": "1.1.0"
  },
  {
    "name": "highlight.js",
    "version": "9.10.0"
  },
  {
    "name": "hoek",
    "version": "2.16.3"
  },
  {
    "name": "home-or-tmp",
    "version": "2.0.0"
  },
  {
    "name": "homedir-polyfill",
    "version": "1.0.1"
  },
  {
    "name": "hosted-git-info",
    "version": "2.1.5"
  },
  {
    "name": "hpack.js",
    "version": "2.1.6"
  },
  {
    "name": "html-comment-regex",
    "version": "1.1.1"
  },
  {
    "name": "html-encoding-sniffer",
    "version": "1.0.1"
  },
  {
    "name": "html-entities",
    "version": "1.2.0"
  },
  {
    "name": "html-loader",
    "version": "0.4.5"
  },
  {
    "name": "html-minifier",
    "version": "3.2.3"
  },
  {
    "name": "html-webpack-inline-source-plugin",
    "version": "0.0.7"
  },
  {
    "name": "html-webpack-plugin",
    "version": "2.28.0"
  },
  {
    "name": "htmlhint",
    "version": "0.9.13"
  },
  {
    "name": "htmlparser2",
    "version": "3.8.3"
  },
  {
    "name": "htmlparser2",
    "version": "3.3.0"
  },
  {
    "name": "http-deceiver",
    "version": "1.2.7"
  },
  {
    "name": "http-errors",
    "version": "1.5.1"
  },
  {
    "name": "http-errors",
    "version": "1.6.1"
  },
  {
    "name": "http-proxy-middleware",
    "version": "0.17.4"
  },
  {
    "name": "http-proxy",
    "version": "1.16.2"
  },
  {
    "name": "http-signature",
    "version": "1.1.1"
  },
  {
    "name": "https-browserify",
    "version": "0.0.1"
  },
  {
    "name": "iconv-lite",
    "version": "0.4.13"
  },
  {
    "name": "icss-replace-symbols",
    "version": "1.0.2"
  },
  {
    "name": "ieee754",
    "version": "1.1.8"
  },
  {
    "name": "ignore",
    "version": "3.2.0"
  },
  {
    "name": "imports-loader",
    "version": "0.7.1"
  },
  {
    "name": "imurmurhash",
    "version": "0.1.4"
  },
  {
    "name": "in-publish",
    "version": "2.0.0"
  },
  {
    "name": "indent-string",
    "version": "2.1.0"
  },
  {
    "name": "indexes-of",
    "version": "1.0.1"
  },
  {
    "name": "indexof",
    "version": "0.0.1"
  },
  {
    "name": "inflight",
    "version": "1.0.6"
  },
  {
    "name": "inherits",
    "version": "2.0.3"
  },
  {
    "name": "inherits",
    "version": "2.0.1"
  },
  {
    "name": "ini",
    "version": "1.3.4"
  },
  {
    "name": "inquirer-directory",
    "version": "2.1.0"
  },
  {
    "name": "inquirer",
    "version": "0.12.0"
  },
  {
    "name": "inquirer",
    "version": "1.2.3"
  },
  {
    "name": "interpret",
    "version": "1.0.1"
  },
  {
    "name": "invariant",
    "version": "2.2.2"
  },
  {
    "name": "invert-kv",
    "version": "1.0.0"
  },
  {
    "name": "ipaddr.js",
    "version": "1.3.0"
  },
  {
    "name": "is-absolute-url",
    "version": "2.1.0"
  },
  {
    "name": "is-absolute",
    "version": "0.2.6"
  },
  {
    "name": "is-arrayish",
    "version": "0.2.1"
  },
  {
    "name": "is-binary-path",
    "version": "1.0.1"
  },
  {
    "name": "is-buffer",
    "version": "1.1.4"
  },
  {
    "name": "is-builtin-module",
    "version": "1.0.0"
  },
  {
    "name": "is-callable",
    "version": "1.1.3"
  },
  {
    "name": "is-date-object",
    "version": "1.0.1"
  },
  {
    "name": "is-dotfile",
    "version": "1.0.2"
  },
  {
    "name": "is-equal-shallow",
    "version": "0.1.3"
  },
  {
    "name": "is-extendable",
    "version": "0.1.1"
  },
  {
    "name": "is-extglob",
    "version": "1.0.0"
  },
  {
    "name": "is-extglob",
    "version": "2.1.1"
  },
  {
    "name": "is-finite",
    "version": "1.0.2"
  },
  {
    "name": "is-fullwidth-code-point",
    "version": "1.0.0"
  },
  {
    "name": "is-fullwidth-code-point",
    "version": "2.0.0"
  },
  {
    "name": "is-function",
    "version": "1.0.1"
  },
  {
    "name": "is-glob",
    "version": "2.0.1"
  },
  {
    "name": "is-glob",
    "version": "3.1.0"
  },
  {
    "name": "is-lower-case",
    "version": "1.1.3"
  },
  {
    "name": "is-my-json-valid",
    "version": "2.15.0"
  },
  {
    "name": "is-number",
    "version": "2.1.0"
  },
  {
    "name": "is-path-cwd",
    "version": "1.0.0"
  },
  {
    "name": "is-path-in-cwd",
    "version": "1.0.0"
  },
  {
    "name": "is-path-inside",
    "version": "1.0.0"
  },
  {
    "name": "is-plain-obj",
    "version": "1.1.0"
  },
  {
    "name": "is-plain-object",
    "version": "2.0.1"
  },
  {
    "name": "is-posix-bracket",
    "version": "0.1.1"
  },
  {
    "name": "is-primitive",
    "version": "2.0.0"
  },
  {
    "name": "is-promise",
    "version": "2.1.0"
  },
  {
    "name": "is-property",
    "version": "1.0.2"
  },
  {
    "name": "is-regex",
    "version": "1.0.3"
  },
  {
    "name": "is-relative",
    "version": "0.2.1"
  },
  {
    "name": "is-resolvable",
    "version": "1.0.0"
  },
  {
    "name": "is-svg",
    "version": "2.1.0"
  },
  {
    "name": "is-symbol",
    "version": "1.0.1"
  },
  {
    "name": "is-typedarray",
    "version": "1.0.0"
  },
  {
    "name": "is-unc-path",
    "version": "0.1.2"
  },
  {
    "name": "is-upper-case",
    "version": "1.1.2"
  },
  {
    "name": "is-utf8",
    "version": "0.2.1"
  },
  {
    "name": "is-windows",
    "version": "0.2.0"
  },
  {
    "name": "is_js",
    "version": "0.9.0"
  },
  {
    "name": "isarray",
    "version": "0.0.1"
  },
  {
    "name": "isarray",
    "version": "1.0.0"
  },
  {
    "name": "isexe",
    "version": "1.1.2"
  },
  {
    "name": "isobject",
    "version": "1.0.2"
  },
  {
    "name": "isobject",
    "version": "2.1.0"
  },
  {
    "name": "isstream",
    "version": "0.1.2"
  },
  {
    "name": "istanbul-lib-coverage",
    "version": "1.0.2"
  },
  {
    "name": "istanbul-lib-hook",
    "version": "1.0.5"
  },
  {
    "name": "istanbul-lib-instrument",
    "version": "1.4.2"
  },
  {
    "name": "istanbul-lib-instrument",
    "version": "1.7.0"
  },
  {
    "name": "istanbul-lib-report",
    "version": "1.0.0"
  },
  {
    "name": "istanbul-lib-source-maps",
    "version": "1.1.1"
  },
  {
    "name": "istanbul-reports",
    "version": "1.0.2"
  },
  {
    "name": "jodid25519",
    "version": "1.0.2"
  },
  {
    "name": "jquery",
    "version": "3.2.1"
  },
  {
    "name": "js-base64",
    "version": "2.1.9"
  },
  {
    "name": "js-tokens",
    "version": "2.0.0"
  },
  {
    "name": "js-tokens",
    "version": "3.0.1"
  },
  {
    "name": "js-yaml",
    "version": "3.7.0"
  },
  {
    "name": "js-yaml",
    "version": "3.6.1"
  },
  {
    "name": "jsbn",
    "version": "0.1.0"
  },
  {
    "name": "jsdom",
    "version": "9.12.0"
  },
  {
    "name": "jsesc",
    "version": "1.3.0"
  },
  {
    "name": "jsesc",
    "version": "0.5.0"
  },
  {
    "name": "jshint",
    "version": "2.8.0"
  },
  {
    "name": "json-loader",
    "version": "0.5.4"
  },
  {
    "name": "json-schema",
    "version": "0.2.3"
  },
  {
    "name": "json-stable-stringify",
    "version": "1.0.1"
  },
  {
    "name": "json-stringify-safe",
    "version": "5.0.1"
  },
  {
    "name": "json3",
    "version": "3.3.2"
  },
  {
    "name": "json5",
    "version": "0.5.1"
  },
  {
    "name": "jsonify",
    "version": "0.0.0"
  },
  {
    "name": "jsonpointer",
    "version": "4.0.1"
  },
  {
    "name": "jsprim",
    "version": "1.3.1"
  },
  {
    "name": "kind-of",
    "version": "2.0.1"
  },
  {
    "name": "kind-of",
    "version": "3.1.0"
  },
  {
    "name": "lazy-cache",
    "version": "0.2.7"
  },
  {
    "name": "lazy-cache",
    "version": "1.0.4"
  },
  {
    "name": "lcid",
    "version": "1.0.0"
  },
  {
    "name": "levn",
    "version": "0.3.0"
  },
  {
    "name": "liftoff",
    "version": "2.3.0"
  },
  {
    "name": "load-json-file",
    "version": "1.1.0"
  },
  {
    "name": "loader-runner",
    "version": "2.3.0"
  },
  {
    "name": "loader-utils",
    "version": "0.2.16"
  },
  {
    "name": "loader-utils",
    "version": "1.1.0"
  },
  {
    "name": "lodash.assign",
    "version": "4.2.0"
  },
  {
    "name": "lodash.assignwith",
    "version": "4.2.0"
  },
  {
    "name": "lodash.camelcase",
    "version": "4.3.0"
  },
  {
    "name": "lodash.clonedeep",
    "version": "4.5.0"
  },
  {
    "name": "lodash.get",
    "version": "4.4.2"
  },
  {
    "name": "lodash.indexof",
    "version": "4.0.5"
  },
  {
    "name": "lodash.isempty",
    "version": "4.4.0"
  },
  {
    "name": "lodash.isplainobject",
    "version": "4.0.6"
  },
  {
    "name": "lodash.isstring",
    "version": "4.0.1"
  },
  {
    "name": "lodash.mapvalues",
    "version": "4.6.0"
  },
  {
    "name": "lodash.memoize",
    "version": "4.1.2"
  },
  {
    "name": "lodash.mergewith",
    "version": "4.6.0"
  },
  {
    "name": "lodash.pick",
    "version": "4.4.0"
  },
  {
    "name": "lodash.tail",
    "version": "4.1.1"
  },
  {
    "name": "lodash.uniq",
    "version": "4.5.0"
  },
  {
    "name": "lodash",
    "version": "3.7.0"
  },
  {
    "name": "lodash",
    "version": "4.17.4"
  },
  {
    "name": "lodash",
    "version": "3.10.1"
  },
  {
    "name": "lodash",
    "version": "4.16.4"
  },
  {
    "name": "lolex",
    "version": "1.3.2"
  },
  {
    "name": "longest",
    "version": "1.0.1"
  },
  {
    "name": "loose-envify",
    "version": "1.3.0"
  },
  {
    "name": "loud-rejection",
    "version": "1.6.0"
  },
  {
    "name": "lower-case-first",
    "version": "1.0.2"
  },
  {
    "name": "lower-case",
    "version": "1.1.3"
  },
  {
    "name": "lru-cache",
    "version": "2.2.4"
  },
  {
    "name": "lru-cache",
    "version": "4.0.2"
  },
  {
    "name": "macaddress",
    "version": "0.2.8"
  },
  {
    "name": "map-cache",
    "version": "0.2.2"
  },
  {
    "name": "map-obj",
    "version": "1.0.1"
  },
  {
    "name": "marked",
    "version": "0.3.7"
  },
  {
    "name": "math-expression-evaluator",
    "version": "1.2.14"
  },
  {
    "name": "md5-hex",
    "version": "1.3.0"
  },
  {
    "name": "md5-o-matic",
    "version": "0.1.1"
  },
  {
    "name": "media-typer",
    "version": "0.3.0"
  },
  {
    "name": "memory-fs",
    "version": "0.4.1"
  },
  {
    "name": "meow",
    "version": "3.7.0"
  },
  {
    "name": "merge-descriptors",
    "version": "1.0.1"
  },
  {
    "name": "merge-source-map",
    "version": "1.0.3"
  },
  {
    "name": "methods",
    "version": "1.1.2"
  },
  {
    "name": "micromatch",
    "version": "2.3.11"
  },
  {
    "name": "miller-rabin",
    "version": "4.0.0"
  },
  {
    "name": "mime-db",
    "version": "1.25.0"
  },
  {
    "name": "mime-db",
    "version": "1.27.0"
  },
  {
    "name": "mime-types",
    "version": "2.1.13"
  },
  {
    "name": "mime-types",
    "version": "2.1.15"
  },
  {
    "name": "mime",
    "version": "1.3.4"
  },
  {
    "name": "minimalistic-assert",
    "version": "1.0.0"
  },
  {
    "name": "minimatch",
    "version": "0.3.0"
  },
  {
    "name": "minimatch",
    "version": "3.0.3"
  },
  {
    "name": "minimatch",
    "version": "2.0.10"
  },
  {
    "name": "minimist",
    "version": "0.0.8"
  },
  {
    "name": "minimist",
    "version": "1.2.0"
  },
  {
    "name": "mixin-object",
    "version": "2.0.1"
  },
  {
    "name": "mkdirp",
    "version": "0.5.1"
  },
  {
    "name": "moment-timezone",
    "version": "0.5.11"
  },
  {
    "name": "moment",
    "version": "2.19.3"
  },
  {
    "name": "moment",
    "version": "2.18.1"
  },
  {
    "name": "ms",
    "version": "0.7.1"
  },
  {
    "name": "ms",
    "version": "0.7.2"
  },
  {
    "name": "ms",
    "version": "2.0.0"
  },
  {
    "name": "mute-stream",
    "version": "0.0.5"
  },
  {
    "name": "mute-stream",
    "version": "0.0.6"
  },
  {
    "name": "nan",
    "version": "2.5.0"
  },
  {
    "name": "nanoscroller",
    "version": "0.8.7"
  },
  {
    "name": "native-promise-only",
    "version": "0.8.1"
  },
  {
    "name": "natural-compare",
    "version": "1.4.0"
  },
  {
    "name": "ncname",
    "version": "1.0.0"
  },
  {
    "name": "negotiator",
    "version": "0.6.1"
  },
  {
    "name": "ng-file-upload",
    "version": "12.2.13"
  },
  {
    "name": "ngclipboard",
    "version": "1.1.1"
  },
  {
    "name": "no-case",
    "version": "2.3.1"
  },
  {
    "name": "node-gyp",
    "version": "3.5.0"
  },
  {
    "name": "node-libs-browser",
    "version": "2.0.0"
  },
  {
    "name": "node-plop",
    "version": "0.5.5"
  },
  {
    "name": "node-pre-gyp",
    "version": "0.6.32"
  },
  {
    "name": "node-sass",
    "version": "4.5.2"
  },
  {
    "name": "nopt",
    "version": "3.0.6"
  },
  {
    "name": "normalize-package-data",
    "version": "2.3.5"
  },
  {
    "name": "normalize-path",
    "version": "2.0.1"
  },
  {
    "name": "normalize-range",
    "version": "0.1.2"
  },
  {
    "name": "normalize-url",
    "version": "1.9.0"
  },
  {
    "name": "npmlog",
    "version": "4.0.2"
  },
  {
    "name": "nth-check",
    "version": "1.0.1"
  },
  {
    "name": "null-loader",
    "version": "0.1.1"
  },
  {
    "name": "num2fraction",
    "version": "1.2.2"
  },
  {
    "name": "number-is-nan",
    "version": "1.0.1"
  },
  {
    "name": "nwmatcher",
    "version": "1.3.9"
  },
  {
    "name": "nyc",
    "version": "10.2.0"
  },
  {
    "name": "oauth-sign",
    "version": "0.8.2"
  },
  {
    "name": "object-assign",
    "version": "4.1.0"
  },
  {
    "name": "object-assign",
    "version": "4.1.1"
  },
  {
    "name": "object-inspect",
    "version": "1.2.1"
  },
  {
    "name": "object-keys",
    "version": "1.0.11"
  },
  {
    "name": "object.omit",
    "version": "2.0.1"
  },
  {
    "name": "obuf",
    "version": "1.1.1"
  },
  {
    "name": "on-finished",
    "version": "2.3.0"
  },
  {
    "name": "on-headers",
    "version": "1.0.1"
  },
  {
    "name": "once",
    "version": "1.4.0"
  },
  {
    "name": "once",
    "version": "1.3.3"
  },
  {
    "name": "onetime",
    "version": "1.1.0"
  },
  {
    "name": "opener",
    "version": "1.4.2"
  },
  {
    "name": "opn",
    "version": "4.0.2"
  },
  {
    "name": "optimist",
    "version": "0.6.1"
  },
  {
    "name": "optionator",
    "version": "0.8.2"
  },
  {
    "name": "original",
    "version": "1.0.0"
  },
  {
    "name": "os-browserify",
    "version": "0.2.1"
  },
  {
    "name": "os-homedir",
    "version": "1.0.2"
  },
  {
    "name": "os-locale",
    "version": "1.4.0"
  },
  {
    "name": "os-shim",
    "version": "0.1.3"
  },
  {
    "name": "os-tmpdir",
    "version": "1.0.2"
  },
  {
    "name": "osenv",
    "version": "0.1.4"
  },
  {
    "name": "pako",
    "version": "0.2.9"
  },
  {
    "name": "param-case",
    "version": "2.1.0"
  },
  {
    "name": "param-case",
    "version": "1.1.2"
  },
  {
    "name": "parse-asn1",
    "version": "5.0.0"
  },
  {
    "name": "parse-filepath",
    "version": "1.0.1"
  },
  {
    "name": "parse-glob",
    "version": "3.0.4"
  },
  {
    "name": "parse-json",
    "version": "2.2.0"
  },
  {
    "name": "parse-link-header",
    "version": "0.4.1"
  },
  {
    "name": "parse-ms",
    "version": "1.0.1"
  },
  {
    "name": "parse-passwd",
    "version": "1.0.0"
  },
  {
    "name": "parse5",
    "version": "1.5.1"
  },
  {
    "name": "parserlib",
    "version": "0.2.5"
  },
  {
    "name": "parseurl",
    "version": "1.3.1"
  },
  {
    "name": "pascal-case",
    "version": "1.1.2"
  },
  {
    "name": "path-browserify",
    "version": "0.0.0"
  },
  {
    "name": "path-case",
    "version": "1.1.2"
  },
  {
    "name": "path-exists",
    "version": "2.1.0"
  },
  {
    "name": "path-is-absolute",
    "version": "1.0.1"
  },
  {
    "name": "path-is-inside",
    "version": "1.0.2"
  },
  {
    "name": "path-parse",
    "version": "1.0.5"
  },
  {
    "name": "path-root-regex",
    "version": "0.1.2"
  },
  {
    "name": "path-root",
    "version": "0.1.1"
  },
  {
    "name": "path-to-regexp",
    "version": "0.1.7"
  },
  {
    "name": "path-type",
    "version": "1.1.0"
  },
  {
    "name": "pbkdf2",
    "version": "3.0.9"
  },
  {
    "name": "pify",
    "version": "2.3.0"
  },
  {
    "name": "pinkie-promise",
    "version": "2.0.1"
  },
  {
    "name": "pinkie",
    "version": "2.0.4"
  },
  {
    "name": "pkg-dir",
    "version": "1.0.0"
  },
  {
    "name": "plop",
    "version": "1.7.4"
  },
  {
    "name": "plur",
    "version": "1.0.0"
  },
  {
    "name": "pluralize",
    "version": "1.2.1"
  },
  {
    "name": "pnotify",
    "version": "3.0.0"
  },
  {
    "name": "portfinder",
    "version": "1.0.10"
  },
  {
    "name": "postcss-calc",
    "version": "5.3.1"
  },
  {
    "name": "postcss-colormin",
    "version": "2.2.1"
  },
  {
    "name": "postcss-convert-values",
    "version": "2.6.0"
  },
  {
    "name": "postcss-discard-comments",
    "version": "2.0.4"
  },
  {
    "name": "postcss-discard-duplicates",
    "version": "2.0.2"
  },
  {
    "name": "postcss-discard-empty",
    "version": "2.1.0"
  },
  {
    "name": "postcss-discard-overridden",
    "version": "0.1.1"
  },
  {
    "name": "postcss-discard-unused",
    "version": "2.2.3"
  },
  {
    "name": "postcss-filter-plugins",
    "version": "2.0.2"
  },
  {
    "name": "postcss-load-config",
    "version": "1.2.0"
  },
  {
    "name": "postcss-load-options",
    "version": "1.2.0"
  },
  {
    "name": "postcss-load-plugins",
    "version": "2.3.0"
  },
  {
    "name": "postcss-loader",
    "version": "1.3.3"
  },
  {
    "name": "postcss-merge-idents",
    "version": "2.1.7"
  },
  {
    "name": "postcss-merge-longhand",
    "version": "2.0.1"
  },
  {
    "name": "postcss-merge-rules",
    "version": "2.1.1"
  },
  {
    "name": "postcss-message-helpers",
    "version": "2.0.0"
  },
  {
    "name": "postcss-minify-font-values",
    "version": "1.0.5"
  },
  {
    "name": "postcss-minify-gradients",
    "version": "1.0.5"
  },
  {
    "name": "postcss-minify-params",
    "version": "1.2.2"
  },
  {
    "name": "postcss-minify-selectors",
    "version": "2.1.1"
  },
  {
    "name": "postcss-modules-extract-imports",
    "version": "1.0.1"
  },
  {
    "name": "postcss-modules-local-by-default",
    "version": "1.1.1"
  },
  {
    "name": "postcss-modules-scope",
    "version": "1.0.2"
  },
  {
    "name": "postcss-modules-values",
    "version": "1.2.2"
  },
  {
    "name": "postcss-normalize-charset",
    "version": "1.1.1"
  },
  {
    "name": "postcss-normalize-url",
    "version": "3.0.8"
  },
  {
    "name": "postcss-ordered-values",
    "version": "2.2.3"
  },
  {
    "name": "postcss-reduce-idents",
    "version": "2.4.0"
  },
  {
    "name": "postcss-reduce-initial",
    "version": "1.0.1"
  },
  {
    "name": "postcss-reduce-transforms",
    "version": "1.0.4"
  },
  {
    "name": "postcss-selector-parser",
    "version": "2.2.2"
  },
  {
    "name": "postcss-svgo",
    "version": "2.1.6"
  },
  {
    "name": "postcss-unique-selectors",
    "version": "2.0.2"
  },
  {
    "name": "postcss-value-parser",
    "version": "3.3.0"
  },
  {
    "name": "postcss-zindex",
    "version": "2.2.0"
  },
  {
    "name": "postcss",
    "version": "5.2.16"
  },
  {
    "name": "prelude-ls",
    "version": "1.1.2"
  },
  {
    "name": "prepend-http",
    "version": "1.0.4"
  },
  {
    "name": "preserve",
    "version": "0.2.0"
  },
  {
    "name": "pretty-error",
    "version": "2.0.2"
  },
  {
    "name": "pretty-ms",
    "version": "2.1.0"
  },
  {
    "name": "private",
    "version": "0.1.6"
  },
  {
    "name": "process-nextick-args",
    "version": "1.0.7"
  },
  {
    "name": "process",
    "version": "0.11.9"
  },
  {
    "name": "progress",
    "version": "1.1.8"
  },
  {
    "name": "proxy-addr",
    "version": "1.1.4"
  },
  {
    "name": "prr",
    "version": "0.0.0"
  },
  {
    "name": "pseudomap",
    "version": "1.0.2"
  },
  {
    "name": "public-encrypt",
    "version": "4.0.0"
  },
  {
    "name": "punycode",
    "version": "1.3.2"
  },
  {
    "name": "punycode",
    "version": "1.4.1"
  },
  {
    "name": "q",
    "version": "1.4.1"
  },
  {
    "name": "qs",
    "version": "6.4.0"
  },
  {
    "name": "qs",
    "version": "6.3.0"
  },
  {
    "name": "query-string",
    "version": "4.3.0"
  },
  {
    "name": "querystring-es3",
    "version": "0.2.1"
  },
  {
    "name": "querystring",
    "version": "0.2.0"
  },
  {
    "name": "querystringify",
    "version": "0.0.4"
  },
  {
    "name": "randomatic",
    "version": "1.1.6"
  },
  {
    "name": "randombytes",
    "version": "2.0.3"
  },
  {
    "name": "range-parser",
    "version": "1.2.0"
  },
  {
    "name": "raw-loader",
    "version": "0.5.1"
  },
  {
    "name": "rc",
    "version": "1.1.6"
  },
  {
    "name": "re-emitter",
    "version": "1.1.3"
  },
  {
    "name": "read-pkg-up",
    "version": "1.0.1"
  },
  {
    "name": "read-pkg",
    "version": "1.1.0"
  },
  {
    "name": "readable-stream",
    "version": "1.0.34"
  },
  {
    "name": "readable-stream",
    "version": "1.1.13"
  },
  {
    "name": "readable-stream",
    "version": "2.2.2"
  },
  {
    "name": "readable-stream",
    "version": "2.1.5"
  },
  {
    "name": "readdirp",
    "version": "2.1.0"
  },
  {
    "name": "readline2",
    "version": "1.0.1"
  },
  {
    "name": "recast",
    "version": "0.11.18"
  },
  {
    "name": "rechoir",
    "version": "0.6.2"
  },
  {
    "name": "redent",
    "version": "1.0.0"
  },
  {
    "name": "reduce-css-calc",
    "version": "1.3.0"
  },
  {
    "name": "reduce-function-call",
    "version": "1.0.2"
  },
  {
    "name": "regenerate",
    "version": "1.3.2"
  },
  {
    "name": "regenerator-runtime",
    "version": "0.10.1"
  },
  {
    "name": "regenerator-transform",
    "version": "0.9.8"
  },
  {
    "name": "regex-cache",
    "version": "0.4.3"
  },
  {
    "name": "regexpu-core",
    "version": "1.0.0"
  },
  {
    "name": "regexpu-core",
    "version": "2.0.0"
  },
  {
    "name": "regjsgen",
    "version": "0.2.0"
  },
  {
    "name": "regjsparser",
    "version": "0.1.5"
  },
  {
    "name": "relateurl",
    "version": "0.2.7"
  },
  {
    "name": "renderkid",
    "version": "2.0.0"
  },
  {
    "name": "repeat-element",
    "version": "1.1.2"
  },
  {
    "name": "repeat-string",
    "version": "1.6.1"
  },
  {
    "name": "repeating",
    "version": "2.0.1"
  },
  {
    "name": "request-ip",
    "version": "2.0.1"
  },
  {
    "name": "request",
    "version": "2.79.0"
  },
  {
    "name": "require-directory",
    "version": "2.1.1"
  },
  {
    "name": "require-from-string",
    "version": "1.2.1"
  },
  {
    "name": "require-main-filename",
    "version": "1.0.1"
  },
  {
    "name": "require-uncached",
    "version": "1.0.3"
  },
  {
    "name": "requires-port",
    "version": "1.0.0"
  },
  {
    "name": "resolve-dir",
    "version": "0.1.1"
  },
  {
    "name": "resolve-from",
    "version": "1.0.1"
  },
  {
    "name": "resolve-from",
    "version": "2.0.0"
  },
  {
    "name": "resolve-url",
    "version": "0.2.1"
  },
  {
    "name": "resolve",
    "version": "1.3.2"
  },
  {
    "name": "resolve",
    "version": "1.1.7"
  },
  {
    "name": "restore-cursor",
    "version": "1.0.1"
  },
  {
    "name": "resumer",
    "version": "0.0.0"
  },
  {
    "name": "right-align",
    "version": "0.1.3"
  },
  {
    "name": "rimraf",
    "version": "2.6.1"
  },
  {
    "name": "rimraf",
    "version": "2.5.4"
  },
  {
    "name": "ripemd160",
    "version": "1.0.1"
  },
  {
    "name": "rollbar",
    "version": "2.0.4"
  },
  {
    "name": "run-async",
    "version": "0.1.0"
  },
  {
    "name": "run-async",
    "version": "2.3.0"
  },
  {
    "name": "rx-lite",
    "version": "3.1.2"
  },
  {
    "name": "rx-lite",
    "version": "4.0.8"
  },
  {
    "name": "rx",
    "version": "4.1.0"
  },
  {
    "name": "samsam",
    "version": "1.1.2"
  },
  {
    "name": "sass-graph",
    "version": "2.1.2"
  },
  {
    "name": "sass-loader",
    "version": "6.0.3"
  },
  {
    "name": "sax",
    "version": "1.2.1"
  },
  {
    "name": "select-hose",
    "version": "2.0.0"
  },
  {
    "name": "select",
    "version": "1.1.0"
  },
  {
    "name": "semver",
    "version": "5.3.0"
  },
  {
    "name": "send",
    "version": "0.15.1"
  },
  {
    "name": "send",
    "version": "0.15.3"
  },
  {
    "name": "sentence-case",
    "version": "1.1.3"
  },
  {
    "name": "serve-index",
    "version": "1.8.0"
  },
  {
    "name": "serve-static",
    "version": "1.12.1"
  },
  {
    "name": "serve-static",
    "version": "1.12.3"
  },
  {
    "name": "set-blocking",
    "version": "2.0.0"
  },
  {
    "name": "set-immediate-shim",
    "version": "1.0.1"
  },
  {
    "name": "setimmediate",
    "version": "1.0.5"
  },
  {
    "name": "setprototypeof",
    "version": "1.0.2"
  },
  {
    "name": "setprototypeof",
    "version": "1.0.3"
  },
  {
    "name": "sha.js",
    "version": "2.4.8"
  },
  {
    "name": "shallow-clone",
    "version": "0.1.2"
  },
  {
    "name": "shell-quote",
    "version": "1.6.1"
  },
  {
    "name": "shelljs",
    "version": "0.3.0"
  },
  {
    "name": "shelljs",
    "version": "0.7.6"
  },
  {
    "name": "sigmund",
    "version": "1.0.1"
  },
  {
    "name": "signal-exit",
    "version": "2.1.2"
  },
  {
    "name": "signal-exit",
    "version": "3.0.2"
  },
  {
    "name": "simple-is",
    "version": "0.2.0"
  },
  {
    "name": "sinon-as-promised",
    "version": "4.0.3"
  },
  {
    "name": "sinon",
    "version": "1.17.7"
  },
  {
    "name": "slash",
    "version": "1.0.0"
  },
  {
    "name": "slice-ansi",
    "version": "0.0.4"
  },
  {
    "name": "slide",
    "version": "1.1.6"
  },
  {
    "name": "snake-case",
    "version": "1.1.2"
  },
  {
    "name": "sntp",
    "version": "1.0.9"
  },
  {
    "name": "sockjs-client",
    "version": "1.1.2"
  },
  {
    "name": "sockjs",
    "version": "0.3.18"
  },
  {
    "name": "sort-keys",
    "version": "1.1.2"
  },
  {
    "name": "source-list-map",
    "version": "0.1.8"
  },
  {
    "name": "source-list-map",
    "version": "1.1.1"
  },
  {
    "name": "source-map-resolve",
    "version": "0.3.1"
  },
  {
    "name": "source-map-support",
    "version": "0.4.8"
  },
  {
    "name": "source-map-url",
    "version": "0.4.0"
  },
  {
    "name": "source-map-url",
    "version": "0.3.0"
  },
  {
    "name": "source-map",
    "version": "0.4.4"
  },
  {
    "name": "source-map",
    "version": "0.5.6"
  },
  {
    "name": "source-map",
    "version": "0.1.43"
  },
  {
    "name": "source-map",
    "version": "0.2.0"
  },
  {
    "name": "spawn-sync",
    "version": "1.0.15"
  },
  {
    "name": "spawn-wrap",
    "version": "1.2.4"
  },
  {
    "name": "spdx-correct",
    "version": "1.0.2"
  },
  {
    "name": "spdx-expression-parse",
    "version": "1.0.4"
  },
  {
    "name": "spdx-license-ids",
    "version": "1.2.2"
  },
  {
    "name": "spdy-transport",
    "version": "2.0.18"
  },
  {
    "name": "spdy",
    "version": "3.4.4"
  },
  {
    "name": "split",
    "version": "1.0.0"
  },
  {
    "name": "sprintf-js",
    "version": "1.0.3"
  },
  {
    "name": "sshpk",
    "version": "1.10.1"
  },
  {
    "name": "stackframe",
    "version": "0.3.1"
  },
  {
    "name": "statuses",
    "version": "1.3.1"
  },
  {
    "name": "stdout-stream",
    "version": "1.4.0"
  },
  {
    "name": "stream-browserify",
    "version": "2.0.1"
  },
  {
    "name": "stream-http",
    "version": "2.6.1"
  },
  {
    "name": "strict-uri-encode",
    "version": "1.1.0"
  },
  {
    "name": "string-width",
    "version": "1.0.2"
  },
  {
    "name": "string-width",
    "version": "2.0.0"
  },
  {
    "name": "string.prototype.trim",
    "version": "1.1.2"
  },
  {
    "name": "string_decoder",
    "version": "0.10.31"
  },
  {
    "name": "stringstream",
    "version": "0.0.5"
  },
  {
    "name": "strip-ansi",
    "version": "3.0.1"
  },
  {
    "name": "strip-bom",
    "version": "2.0.0"
  },
  {
    "name": "strip-bom",
    "version": "3.0.0"
  },
  {
    "name": "strip-indent",
    "version": "1.0.1"
  },
  {
    "name": "strip-json-comments",
    "version": "1.0.4"
  },
  {
    "name": "strip-json-comments",
    "version": "2.0.1"
  },
  {
    "name": "style-loader",
    "version": "0.16.1"
  },
  {
    "name": "supports-color",
    "version": "0.2.0"
  },
  {
    "name": "supports-color",
    "version": "2.0.0"
  },
  {
    "name": "supports-color",
    "version": "3.1.2"
  },
  {
    "name": "supports-color",
    "version": "3.2.3"
  },
  {
    "name": "svgo",
    "version": "0.7.1"
  },
  {
    "name": "swap-case",
    "version": "1.1.2"
  },
  {
    "name": "symbol-tree",
    "version": "3.2.2"
  },
  {
    "name": "table",
    "version": "3.8.3"
  },
  {
    "name": "tap-lochnest",
    "version": "1.1.2"
  },
  {
    "name": "tap-out",
    "version": "1.4.2"
  },
  {
    "name": "tap-summary",
    "version": "3.0.1"
  },
  {
    "name": "tapable",
    "version": "0.2.6"
  },
  {
    "name": "tape",
    "version": "4.6.3"
  },
  {
    "name": "tar-pack",
    "version": "3.3.0"
  },
  {
    "name": "tar",
    "version": "2.2.1"
  },
  {
    "name": "test-exclude",
    "version": "3.3.0"
  },
  {
    "name": "test-exclude",
    "version": "4.0.3"
  },
  {
    "name": "text-table",
    "version": "0.2.0"
  },
  {
    "name": "through",
    "version": "2.3.8"
  },
  {
    "name": "timers-browserify",
    "version": "2.0.2"
  },
  {
    "name": "tiny-emitter",
    "version": "1.1.0"
  },
  {
    "name": "title-case",
    "version": "1.1.2"
  },
  {
    "name": "tmp",
    "version": "0.0.29"
  },
  {
    "name": "to-arraybuffer",
    "version": "1.0.1"
  },
  {
    "name": "to-fast-properties",
    "version": "1.0.2"
  },
  {
    "name": "toposort",
    "version": "1.0.0"
  },
  {
    "name": "tough-cookie",
    "version": "2.3.2"
  },
  {
    "name": "tr46",
    "version": "0.0.3"
  },
  {
    "name": "traverse-chain",
    "version": "0.1.0"
  },
  {
    "name": "trim-newlines",
    "version": "1.0.0"
  },
  {
    "name": "trim-right",
    "version": "1.0.1"
  },
  {
    "name": "trim",
    "version": "0.0.1"
  },
  {
    "name": "tryit",
    "version": "1.0.3"
  },
  {
    "name": "tty-browserify",
    "version": "0.0.0"
  },
  {
    "name": "tunnel-agent",
    "version": "0.4.3"
  },
  {
    "name": "tweetnacl",
    "version": "0.14.5"
  },
  {
    "name": "type-check",
    "version": "0.3.2"
  },
  {
    "name": "type-is",
    "version": "1.6.14"
  },
  {
    "name": "type-is",
    "version": "1.6.15"
  },
  {
    "name": "typedarray",
    "version": "0.0.6"
  },
  {
    "name": "uglify-js",
    "version": "2.7.5"
  },
  {
    "name": "uglify-js",
    "version": "2.8.18"
  },
  {
    "name": "uglify-to-browserify",
    "version": "1.0.2"
  },
  {
    "name": "uid-number",
    "version": "0.0.6"
  },
  {
    "name": "unc-path-regex",
    "version": "0.1.2"
  },
  {
    "name": "uniq",
    "version": "1.0.1"
  },
  {
    "name": "uniqid",
    "version": "4.1.1"
  },
  {
    "name": "uniqs",
    "version": "2.0.0"
  },
  {
    "name": "unique-concat",
    "version": "0.2.2"
  },
  {
    "name": "unpipe",
    "version": "1.0.0"
  },
  {
    "name": "upper-case-first",
    "version": "1.1.2"
  },
  {
    "name": "upper-case",
    "version": "1.1.3"
  },
  {
    "name": "urix",
    "version": "0.1.0"
  },
  {
    "name": "url-loader",
    "version": "0.5.8"
  },
  {
    "name": "url-parse",
    "version": "1.0.5"
  },
  {
    "name": "url-parse",
    "version": "1.1.7"
  },
  {
    "name": "url",
    "version": "0.11.0"
  },
  {
    "name": "user-home",
    "version": "1.1.1"
  },
  {
    "name": "user-home",
    "version": "2.0.0"
  },
  {
    "name": "util-deprecate",
    "version": "1.0.2"
  },
  {
    "name": "util",
    "version": "0.10.3"
  },
  {
    "name": "utila",
    "version": "0.3.3"
  },
  {
    "name": "utila",
    "version": "0.4.0"
  },
  {
    "name": "utils-merge",
    "version": "1.0.0"
  },
  {
    "name": "uuid",
    "version": "3.0.1"
  },
  {
    "name": "uuid",
    "version": "2.0.3"
  },
  {
    "name": "v8flags",
    "version": "2.0.11"
  },
  {
    "name": "validate-npm-package-license",
    "version": "3.0.1"
  },
  {
    "name": "vary",
    "version": "1.1.0"
  },
  {
    "name": "vary",
    "version": "1.1.1"
  },
  {
    "name": "vendors",
    "version": "1.0.1"
  },
  {
    "name": "verror",
    "version": "1.3.6"
  },
  {
    "name": "vm-browserify",
    "version": "0.0.4"
  },
  {
    "name": "watchpack",
    "version": "1.3.1"
  },
  {
    "name": "wbuf",
    "version": "1.7.2"
  },
  {
    "name": "webidl-conversions",
    "version": "3.0.1"
  },
  {
    "name": "webidl-conversions",
    "version": "4.0.1"
  },
  {
    "name": "webpack-bundle-analyzer",
    "version": "2.3.1"
  },
  {
    "name": "webpack-core",
    "version": "0.6.9"
  },
  {
    "name": "webpack-dev-middleware",
    "version": "1.9.0"
  },
  {
    "name": "webpack-dev-server",
    "version": "2.4.2"
  },
  {
    "name": "webpack-sources",
    "version": "0.1.3"
  },
  {
    "name": "webpack-sources",
    "version": "0.2.3"
  },
  {
    "name": "webpack",
    "version": "2.3.2"
  },
  {
    "name": "websocket-driver",
    "version": "0.6.5"
  },
  {
    "name": "websocket-extensions",
    "version": "0.1.1"
  },
  {
    "name": "whatwg-encoding",
    "version": "1.0.1"
  },
  {
    "name": "whatwg-url",
    "version": "4.6.0"
  },
  {
    "name": "whet.extend",
    "version": "0.9.9"
  },
  {
    "name": "which-module",
    "version": "1.0.0"
  },
  {
    "name": "which",
    "version": "1.2.12"
  },
  {
    "name": "wide-align",
    "version": "1.1.0"
  },
  {
    "name": "window-size",
    "version": "0.1.0"
  },
  {
    "name": "window-size",
    "version": "0.1.4"
  },
  {
    "name": "window-size",
    "version": "0.2.0"
  },
  {
    "name": "wordwrap",
    "version": "0.0.2"
  },
  {
    "name": "wordwrap",
    "version": "0.0.3"
  },
  {
    "name": "wordwrap",
    "version": "1.0.0"
  },
  {
    "name": "wrap-ansi",
    "version": "2.1.0"
  },
  {
    "name": "wrappy",
    "version": "1.0.2"
  },
  {
    "name": "write-file-atomic",
    "version": "1.3.1"
  },
  {
    "name": "write",
    "version": "0.2.1"
  },
  {
    "name": "xml-char-classes",
    "version": "1.0.0"
  },
  {
    "name": "xml-name-validator",
    "version": "2.0.1"
  },
  {
    "name": "xml",
    "version": "1.0.0"
  },
  {
    "name": "xtend",
    "version": "4.0.1"
  },
  {
    "name": "y18n",
    "version": "3.2.1"
  },
  {
    "name": "yallist",
    "version": "2.0.0"
  },
  {
    "name": "yargs-parser",
    "version": "2.4.1"
  },
  {
    "name": "yargs-parser",
    "version": "4.2.1"
  },
  {
    "name": "yargs-parser",
    "version": "5.0.0"
  },
  {
    "name": "yargs",
    "version": "3.32.0"
  },
  {
    "name": "yargs",
    "version": "4.8.1"
  },
  {
    "name": "yargs",
    "version": "6.6.0"
  },
  {
    "name": "yargs",
    "version": "7.0.2"
  },
  {
    "name": "yargs",
    "version": "3.10.0"
  }
]