{
  "version": "14.0.4",
  "vulnerabilities": [
    {
      "id": "fb3a0fbfb19f6e88decf85653a0b9269715f3a403f948fdedbfd9d8542b3f21e",
      "category": "dependency_scanning",
      "name": "Bypass of a protection mechanism in libxslt",
      "message": "Bypass of a protection mechanism in libxslt in nokogiri",
      "description": "The libxslt binary, which is included in nokogiri, allows bypass of a protection mechanism because callers of `xsltCheckRead` and `xsltCheckWrite` permit access even upon receiving a -1 error code. `xsltCheckRead` can return -1 for a crafted URL that is not actually invalid and is subsequently loaded.",
      "cve": "Gemfile.lock:nokogiri:gemnasium:1a2e2e6e-67ba-4142-bfa1-3391f5416e4c",
      "severity": "Critical",
      "solution": "Upgrade to version 1.2.0 or above.",
      "scanner": {
        "id": "gemnasium",
        "name": "Gemnasium"
      },
      "location": {
        "file": "Gemfile.lock",
        "dependency": {
          "package": {
            "name": "nokogiri"
          },
          "version": "1.6.7.2"
        }
      },
      "identifiers": [
        {
          "type": "gemnasium",
          "name": "Gemnasium-1a2e2e6e-67ba-4142-bfa1-3391f5416e4c",
          "value": "1a2e2e6e-67ba-4142-bfa1-3391f5416e4c",
          "url": "https://gitlab.com/gitlab-org/security-products/gemnasium-db/-/blob/v1.2.142/gem/nokogiri/CVE-2019-11068.yml"
        },
        {
          "type": "cve",
          "name": "CVE-2019-11068",
          "value": "CVE-2019-11068",
          "url": "https://cve.mitre.org/cgi-bin/cvename.cgi?name=CVE-2019-11068"
        }
      ],
      "links": [
        {
          "url": "https://cve.mitre.org/cgi-bin/cvename.cgi?name=CVE-2019-11068"
        },
        {
          "url": "https://github.com/sparklemotion/nokogiri/issues/1892"
        },
        {
          "url": "https://nvd.nist.gov/vuln/detail/CVE-2019-11068"
        },
        {
          "url": "https://people.canonical.com/~ubuntu-security/cve/CVE-2019-11068"
        },
        {
          "url": "https://security-tracker.debian.org/tracker/CVE-2019-11068"
        }
      ],
      "details": {
        "vulnerable_package": {
          "type": "text",
          "name": "Vulnerable Package",
          "value": "nokogiri:1.6.7.2"
        }
      }
    },
    {
      "id": "eacb64f3da1e7f63fd7739fbedf9b5c30be2d2a60b1bb58ab4604c12842e0ab1",
      "category": "dependency_scanning",
      "name": "libxml2 vulnerabilities",
      "message": "libxml2 vulnerabilities in nokogiri",
      "description": "Nokogiri is affected via its dependency libxml2. CVE-2016-4448: Format string vulnerability in libxml2 allows attackers to have unspecified impact via format string specifiers in unknown vectors. CVE-2016-4658: libxml2 allows remote attackers to execute arbitrary code or cause a denial of service (memory corruption) via a crafted XML document. CVE-2016-5131: libxml2 allows remote attackers to cause a denial of service or possibly have unspecified other impact via vectors related to the XPointer range-to function. ",
      "cve": "Gemfile.lock:nokogiri:gemnasium:208c00fd-0100-4109-9577-79b0a9a63a60",
      "severity": "Critical",
      "solution": "Upgrade to latest version",
      "scanner": {
        "id": "gemnasium",
        "name": "Gemnasium"
      },
      "location": {
        "file": "Gemfile.lock",
        "dependency": {
          "package": {
            "name": "nokogiri"
          },
          "version": "1.6.7.2"
        }
      },
      "identifiers": [
        {
          "type": "gemnasium",
          "name": "Gemnasium-208c00fd-0100-4109-9577-79b0a9a63a60",
          "value": "208c00fd-0100-4109-9577-79b0a9a63a60",
          "url": "https://gitlab.com/gitlab-org/security-products/gemnasium-db/-/blob/v1.2.142/gem/nokogiri/CVE-2016-4658.yml"
        },
        {
          "type": "cve",
          "name": "CVE-2016-4658",
          "value": "CVE-2016-4658",
          "url": "https://cve.mitre.org/cgi-bin/cvename.cgi?name=CVE-2016-4658"
        }
      ],
      "links": [
        {
          "url": "http://people.canonical.com/~ubuntu-security/cve/2016/CVE-2016-4448.html"
        },
        {
          "url": "http://people.canonical.com/~ubuntu-security/cve/2016/CVE-2016-4658.html"
        },
        {
          "url": "http://people.canonical.com/~ubuntu-security/cve/2016/CVE-2016-5131.html"
        },
        {
          "url": "https://github.com/sparklemotion/nokogiri/issues/1615"
        }
      ],
      "details": {
        "vulnerable_package": {
          "type": "text",
          "name": "Vulnerable Package",
          "value": "nokogiri:1.6.7.2"
        }
      }
    },
    {
      "id": "71f7b1ab083026d6558f04f14005d49830e02b97636ed56b059cf859a17cd81c",
      "category": "dependency_scanning",
      "name": "Command Injection",
      "message": "Command Injection in nokogiri",
      "description": "A command injection vulnerability in Nokogiri and earlier allows commands to be executed in a subprocess via Ruby's `Kernel.open` method. Processes are vulnerable only if the undocumented method `Nokogiri::CSS::Tokenizer#load_file` is being called with unsafe user input as the filename.",
      "cve": "Gemfile.lock:nokogiri:gemnasium:7e9c16eb-d4ee-4c0a-a3b7-ed88f1ea7125",
      "severity": "Critical",
      "solution": "Upgrade to version 1.10.4 or above.",
      "scanner": {
        "id": "gemnasium",
        "name": "Gemnasium"
      },
      "location": {
        "file": "Gemfile.lock",
        "dependency": {
          "package": {
            "name": "nokogiri"
          },
          "version": "1.6.7.2"
        }
      },
      "identifiers": [
        {
          "type": "gemnasium",
          "name": "Gemnasium-7e9c16eb-d4ee-4c0a-a3b7-ed88f1ea7125",
          "value": "7e9c16eb-d4ee-4c0a-a3b7-ed88f1ea7125",
          "url": "https://gitlab.com/gitlab-org/security-products/gemnasium-db/-/blob/v1.2.142/gem/nokogiri/CVE-2019-5477.yml"
        },
        {
          "type": "cve",
          "name": "CVE-2019-5477",
          "value": "CVE-2019-5477",
          "url": "https://cve.mitre.org/cgi-bin/cvename.cgi?name=CVE-2019-5477"
        }
      ],
      "links": [
        {
          "url": "https://github.com/sparklemotion/nokogiri/issues/1915"
        },
        {
          "url": "https://nvd.nist.gov/vuln/detail/CVE-2019-5477"
        }
      ],
      "details": {
        "vulnerable_package": {
          "type": "text",
          "name": "Vulnerable Package",
          "value": "nokogiri:1.6.7.2"
        }
      }
    },
    {
      "id": "c8f335869d4930815ce39c7be88359a154e74141f0b47f0402dc97a394eb7df8",
      "category": "dependency_scanning",
      "name": "SQL Injection",
      "message": "SQL Injection in symfony/http-foundation",
      "description": "In Symfony HTTP Methods provided as verbs or using the override header may be treated as trusted input, but they are not validated, possibly causing SQL injection or XSS.",
      "cve": "composer.lock:symfony/http-foundation:gemnasium:48c406df-6a7e-40d8-9347-357776ee41d6",
      "severity": "Critical",
      "solution": "Upgrade to versions 2.7.51, 2.8.50, 3.4.26, 4.2.7 or above.",
      "scanner": {
        "id": "gemnasium",
        "name": "Gemnasium"
      },
      "location": {
        "file": "composer.lock",
        "dependency": {
          "package": {
            "name": "symfony/http-foundation"
          },
          "version": "v3.1.10"
        }
      },
      "identifiers": [
        {
          "type": "gemnasium",
          "name": "Gemnasium-48c406df-6a7e-40d8-9347-357776ee41d6",
          "value": "48c406df-6a7e-40d8-9347-357776ee41d6",
          "url": "https://gitlab.com/gitlab-org/security-products/gemnasium-db/-/blob/v1.2.142/packagist/symfony/http-foundation/CVE-2019-10913.yml"
        },
        {
          "type": "cve",
          "name": "CVE-2019-10913",
          "value": "CVE-2019-10913",
          "url": "https://cve.mitre.org/cgi-bin/cvename.cgi?name=CVE-2019-10913"
        }
      ],
      "links": [
        {
          "url": "https://symfony.com/cve-2019-10913"
        }
      ],
      "details": {
        "vulnerable_package": {
          "type": "text",
          "name": "Vulnerable Package",
          "value": "symfony/http-foundation:v3.1.10"
        }
      }
    },
    {
      "id": "f823a7a010abaae6eb38c6145770f6127e49ba83c433eb24e2777609fb8d8b41",
      "category": "dependency_scanning",
      "name": "Untrusted Search Path",
      "message": "Untrusted Search Path in ffi",
      "description": "ruby-ffi has a DLL loading issue which can be hijacked on Windows OS, when a Symbol is used as DLL name instead of a String.",
      "cve": "Gemfile.lock:ffi:gemnasium:8e0cf74f-27fb-41ad-939b-d86940adefa2",
      "severity": "High",
      "solution": "Upgrade to version 1.9.24 or above.",
      "scanner": {
        "id": "gemnasium",
        "name": "Gemnasium"
      },
      "location": {
        "file": "Gemfile.lock",
        "dependency": {
          "package": {
            "name": "ffi"
          },
          "version": "1.9.21"
        }
      },
      "identifiers": [
        {
          "type": "gemnasium",
          "name": "Gemnasium-8e0cf74f-27fb-41ad-939b-d86940adefa2",
          "value": "8e0cf74f-27fb-41ad-939b-d86940adefa2",
          "url": "https://gitlab.com/gitlab-org/security-products/gemnasium-db/-/blob/v1.2.142/gem/ffi/CVE-2018-1000201.yml"
        },
        {
          "type": "cve",
          "name": "CVE-2018-1000201",
          "value": "CVE-2018-1000201",
          "url": "https://cve.mitre.org/cgi-bin/cvename.cgi?name=CVE-2018-1000201"
        }
      ],
      "links": [
        {
          "url": "https://nvd.nist.gov/vuln/detail/CVE-2018-1000201"
        }
      ],
      "details": {
        "vulnerable_package": {
          "type": "text",
          "name": "Vulnerable Package",
          "value": "ffi:1.9.21"
        }
      }
    },
    {
      "id": "cc5e4be4f926348f87ed0559cb80294e6063911193bfbbc399ba0d03352563ed",
      "category": "dependency_scanning",
      "name": "Improper Input Validation",
      "message": "Improper Input Validation in nokogiri",
      "description": "In `numbers.c` in libxslt 1.1.33, which is used by nokogiri, an `xsl:number` with certain format strings could lead to an uninitialized read in `xsltNumberFormatInsertNumbers`.  This could allow an attacker to discern whether a byte on the stack contains the characters `[AaIi0]`, or any other character.",
      "cve": "Gemfile.lock:nokogiri:gemnasium:0f3c3d7c-8e3c-4bc7-8b8d-a3a6703fff7d",
      "severity": "High",
      "solution": "Upgrade to version 1.10.5 or above.",
      "scanner": {
        "id": "gemnasium",
        "name": "Gemnasium"
      },
      "location": {
        "file": "Gemfile.lock",
        "dependency": {
          "package": {
            "name": "nokogiri"
          },
          "version": "1.6.7.2"
        }
      },
      "identifiers": [
        {
          "type": "gemnasium",
          "name": "Gemnasium-0f3c3d7c-8e3c-4bc7-8b8d-a3a6703fff7d",
          "value": "0f3c3d7c-8e3c-4bc7-8b8d-a3a6703fff7d",
          "url": "https://gitlab.com/gitlab-org/security-products/gemnasium-db/-/blob/v1.2.142/gem/nokogiri/CVE-2019-13117.yml"
        },
        {
          "type": "cve",
          "name": "CVE-2019-13117",
          "value": "CVE-2019-13117",
          "url": "https://cve.mitre.org/cgi-bin/cvename.cgi?name=CVE-2019-13117"
        }
      ],
      "links": [
        {
          "url": "https://bugs.chromium.org/p/oss-fuzz/issues/detail?id=14471"
        },
        {
          "url": "https://nvd.nist.gov/vuln/detail/CVE-2019-13117"
        }
      ],
      "details": {
        "vulnerable_package": {
          "type": "text",
          "name": "Vulnerable Package",
          "value": "nokogiri:1.6.7.2"
        }
      }
    },
    {
      "id": "b043bff61dc576e4ad3ad3c415f33917a45e90c30a4ee481d550a6126b11ffee",
      "category": "dependency_scanning",
      "name": "Upstream libxslt vulnerabilities",
      "message": "Upstream libxslt vulnerabilities in nokogiri",
      "description": "The `xsltAddTextString` function in `transform.c` in libxslt, as used by nokogiri, lacks a check for integer overflow during a size calculation, which allows a remote attacker to perform an out-of-bounds memory write via a crafted HTML page.",
      "cve": "Gemfile.lock:nokogiri:gemnasium:4289ba56-7bdf-4067-8314-1b3209d05948",
      "severity": "High",
      "solution": "Upgrade to version 1.7.1 or above.",
      "scanner": {
        "id": "gemnasium",
        "name": "Gemnasium"
      },
      "location": {
        "file": "Gemfile.lock",
        "dependency": {
          "package": {
            "name": "nokogiri"
          },
          "version": "1.6.7.2"
        }
      },
      "identifiers": [
        {
          "type": "gemnasium",
          "name": "Gemnasium-4289ba56-7bdf-4067-8314-1b3209d05948",
          "value": "4289ba56-7bdf-4067-8314-1b3209d05948",
          "url": "https://gitlab.com/gitlab-org/security-products/gemnasium-db/-/blob/v1.2.142/gem/nokogiri/CVE-2017-5029.yml"
        },
        {
          "type": "cve",
          "name": "CVE-2017-5029",
          "value": "CVE-2017-5029",
          "url": "https://cve.mitre.org/cgi-bin/cvename.cgi?name=CVE-2017-5029"
        }
      ],
      "links": [
        {
          "url": "http://www.securityfocus.com/bid/96767"
        },
        {
          "url": "https://crbug.com/676623"
        },
        {
          "url": "https://github.com/sparklemotion/nokogiri/issues/1634"
        },
        {
          "url": "https://nvd.nist.gov/vuln/detail/CVE-2017-5029"
        }
      ],
      "details": {
        "vulnerable_package": {
          "type": "text",
          "name": "Vulnerable Package",
          "value": "nokogiri:1.6.7.2"
        }
      }
    },
    {
      "id": "2ae8c1672b4c32acee4de9227104d3068858ee63c6b3d3bcc30a89751ac5f958",
      "category": "dependency_scanning",
      "name": "Access of Resource Using Incompatible Type (Type Confusion)",
      "message": "Access of Resource Using Incompatible Type (Type Confusion) in nokogiri",
      "description": "Type confusion in `xsltNumberFormatGetMultipleLevel` in libxslt, which is included in nokogiri, could allow attackers to potentially exploit heap corruption via crafted XML data.",
      "cve": "Gemfile.lock:nokogiri:gemnasium:66bbb585-09a1-4042-bb63-e57e64568ded",
      "severity": "High",
      "solution": "Upgrade to version 1.2.0 or above.",
      "scanner": {
        "id": "gemnasium",
        "name": "Gemnasium"
      },
      "location": {
        "file": "Gemfile.lock",
        "dependency": {
          "package": {
            "name": "nokogiri"
          },
          "version": "1.6.7.2"
        }
      },
      "identifiers": [
        {
          "type": "gemnasium",
          "name": "Gemnasium-66bbb585-09a1-4042-bb63-e57e64568ded",
          "value": "66bbb585-09a1-4042-bb63-e57e64568ded",
          "url": "https://gitlab.com/gitlab-org/security-products/gemnasium-db/-/blob/v1.2.142/gem/nokogiri/CVE-2019-5815.yml"
        },
        {
          "type": "cve",
          "name": "CVE-2019-5815",
          "value": "CVE-2019-5815",
          "url": "https://cve.mitre.org/cgi-bin/cvename.cgi?name=CVE-2019-5815"
        }
      ],
      "links": [
        {
          "url": "https://bugs.chromium.org/p/chromium/issues/detail?id=930663"
        },
        {
          "url": "https://gitlab.gnome.org/GNOME/libxslt/commit/08b62c25871b38d5d573515ca8a065b4b8f64f6b"
        },
        {
          "url": "https://nvd.nist.gov/vuln/detail/CVE-2019-5815"
        }
      ],
      "details": {
        "vulnerable_package": {
          "type": "text",
          "name": "Vulnerable Package",
          "value": "nokogiri:1.6.7.2"
        }
      }
    },
    {
      "id": "e0fd14bbb23c36ce2e123fffd8243b8990c3d860241d0cd7f962960d798f13c6",
      "category": "dependency_scanning",
      "name": "Infinite recursion in parameter entities",
      "message": "Infinite recursion in parameter entities in nokogiri",
      "description": "The library libxml2, which is included in nokogiri, incorrectly handles certain parameter entities. An attacker can leverage this with specially constructed XML data to cause libxml2 to consume resources, leading to a denial of service.",
      "cve": "Gemfile.lock:nokogiri:gemnasium:6a0d56f6-2441-492a-9b14-edb95ac31919",
      "severity": "High",
      "solution": "Upgrade to latest version.",
      "scanner": {
        "id": "gemnasium",
        "name": "Gemnasium"
      },
      "location": {
        "file": "Gemfile.lock",
        "dependency": {
          "package": {
            "name": "nokogiri"
          },
          "version": "1.6.7.2"
        }
      },
      "identifiers": [
        {
          "type": "gemnasium",
          "name": "Gemnasium-6a0d56f6-2441-492a-9b14-edb95ac31919",
          "value": "6a0d56f6-2441-492a-9b14-edb95ac31919",
          "url": "https://gitlab.com/gitlab-org/security-products/gemnasium-db/-/blob/v1.2.142/gem/nokogiri/CVE-2017-16932.yml"
        },
        {
          "type": "cve",
          "name": "CVE-2017-16932",
          "value": "CVE-2017-16932",
          "url": "https://cve.mitre.org/cgi-bin/cvename.cgi?name=CVE-2017-16932"
        }
      ],
      "links": [
        {
          "url": "https://cve.mitre.org/cgi-bin/cvename.cgi?name=CVE-2017-16932"
        },
        {
          "url": "https://github.com/sparklemotion/nokogiri/issues/1714"
        },
        {
          "url": "https://people.canonical.com/~ubuntu-security/cve/2017/CVE-2017-16932.html"
        },
        {
          "url": "https://usn.ubuntu.com/usn/usn-3504-1/"
        }
      ],
      "details": {
        "vulnerable_package": {
          "type": "text",
          "name": "Vulnerable Package",
          "value": "nokogiri:1.6.7.2"
        }
      }
    },
    {
      "id": "56c2431fcacc569902762bddee633f3e0e197224516f30c19670e7bb12f7b9a4",
      "category": "dependency_scanning",
      "name": "Denial of Service",
      "message": "Denial of Service in nokogiri",
      "description": "The libxml2 binary, which is included in nokogiri, incorrectly handles certain files. An attacker can use this issue with specially constructed XML data to cause libxml2 to consume resources, leading to a denial of service. ",
      "cve": "Gemfile.lock:nokogiri:gemnasium:78658378-bd8f-4d79-81c8-07c419302426",
      "severity": "High",
      "solution": "Upgrade to latest version.",
      "scanner": {
        "id": "gemnasium",
        "name": "Gemnasium"
      },
      "location": {
        "file": "Gemfile.lock",
        "dependency": {
          "package": {
            "name": "nokogiri"
          },
          "version": "1.6.7.2"
        }
      },
      "identifiers": [
        {
          "type": "gemnasium",
          "name": "Gemnasium-78658378-bd8f-4d79-81c8-07c419302426",
          "value": "78658378-bd8f-4d79-81c8-07c419302426",
          "url": "https://gitlab.com/gitlab-org/security-products/gemnasium-db/-/blob/v1.2.142/gem/nokogiri/CVE-2017-15412.yml"
        },
        {
          "type": "cve",
          "name": "CVE-2017-15412",
          "value": "CVE-2017-15412",
          "url": "https://cve.mitre.org/cgi-bin/cvename.cgi?name=CVE-2017-15412"
        }
      ],
      "links": [
        {
          "url": "https://cve.mitre.org/cgi-bin/cvename.cgi?name=CVE-2017-15412"
        },
        {
          "url": "https://github.com/sparklemotion/nokogiri/issues/1714"
        },
        {
          "url": "https://people.canonical.com/~ubuntu-security/cve/2017/CVE-2017-15412.html"
        }
      ],
      "details": {
        "vulnerable_package": {
          "type": "text",
          "name": "Vulnerable Package",
          "value": "nokogiri:1.6.7.2"
        }
      }
    },
    {
      "id": "4d1df157fb3bc1a2180675d3010cf24ae2c28117b02c0b3818e9463acb2478b8",
      "category": "dependency_scanning",
      "name": "Denial of service or RCE from libxml2 and libxslt",
      "message": "Denial of service or RCE from libxml2 and libxslt in nokogiri",
      "description": "Nokogiri is affected by series of vulnerabilities in libxml2 and libxslt, which are libraries Nokogiri depends on. It was discovered that libxml2 and libxslt incorrectly handled certain malformed documents, which can allow malicious users to cause issues ranging from denial of service to remote code execution attacks.",
      "cve": "Gemfile.lock:nokogiri:gemnasium:988aa1ec-2e90-4cdf-9ed5-0900f3846b70",
      "severity": "High",
      "solution": "Upgrade to latest version.",
      "scanner": {
        "id": "gemnasium",
        "name": "Gemnasium"
      },
      "location": {
        "file": "Gemfile.lock",
        "dependency": {
          "package": {
            "name": "nokogiri"
          },
          "version": "1.6.7.2"
        }
      },
      "identifiers": [
        {
          "type": "gemnasium",
          "name": "Gemnasium-988aa1ec-2e90-4cdf-9ed5-0900f3846b70",
          "value": "988aa1ec-2e90-4cdf-9ed5-0900f3846b70",
          "url": "https://gitlab.com/gitlab-org/security-products/gemnasium-db/-/blob/v1.2.142/gem/nokogiri/CVE-2015-8806.yml"
        },
        {
          "type": "cve",
          "name": "CVE-2015-8806",
          "value": "CVE-2015-8806",
          "url": "https://cve.mitre.org/cgi-bin/cvename.cgi?name=CVE-2015-8806"
        }
      ],
      "links": [
        {
          "url": "http://www.ubuntu.com/usn/usn-2994-1/"
        },
        {
          "url": "https://github.com/sparklemotion/nokogiri/commit/03d402212707bd5dfa0a21b7de5e91a7f9d90028"
        },
        {
          "url": "https://github.com/sparklemotion/nokogiri/issues/1473"
        },
        {
          "url": "https://mail.gnome.org/archives/xml/2016-May/msg00023.html"
        }
      ],
      "details": {
        "vulnerable_package": {
          "type": "text",
          "name": "Vulnerable Package",
          "value": "nokogiri:1.6.7.2"
        }
      }
    },
    {
      "id": "b66ad6fd76c562486b23f9278645910ee484ef630089788dc462ba180caf2d66",
      "category": "dependency_scanning",
      "name": "Improper Input Validation",
      "message": "Improper Input Validation in nokogiri",
      "description": "In `numbers.c` in libxslt 1.1.33, which is used by nokogiri, a type holding grouping characters of an `xsl:number` instruction was too narrow and an invalid character/length combination could be passed to `xsltNumberFormatDecimal`, leading to a read of uninitialized stack data.",
      "cve": "Gemfile.lock:nokogiri:gemnasium:e81fe131-f92b-4449-bc54-ca2baa35b06f",
      "severity": "High",
      "solution": "Upgrade to version 1.10.5 or above.",
      "scanner": {
        "id": "gemnasium",
        "name": "Gemnasium"
      },
      "location": {
        "file": "Gemfile.lock",
        "dependency": {
          "package": {
            "name": "nokogiri"
          },
          "version": "1.6.7.2"
        }
      },
      "identifiers": [
        {
          "type": "gemnasium",
          "name": "Gemnasium-e81fe131-f92b-4449-bc54-ca2baa35b06f",
          "value": "e81fe131-f92b-4449-bc54-ca2baa35b06f",
          "url": "https://gitlab.com/gitlab-org/security-products/gemnasium-db/-/blob/v1.2.142/gem/nokogiri/CVE-2019-13118.yml"
        },
        {
          "type": "cve",
          "name": "CVE-2019-13118",
          "value": "CVE-2019-13118",
          "url": "https://cve.mitre.org/cgi-bin/cvename.cgi?name=CVE-2019-13118"
        }
      ],
      "links": [
        {
          "url": "https://nvd.nist.gov/vuln/detail/CVE-2019-13118"
        }
      ],
      "details": {
        "vulnerable_package": {
          "type": "text",
          "name": "Vulnerable Package",
          "value": "nokogiri:1.6.7.2"
        }
      }
    },
    {
      "id": "be9062544501e09a40e7b910bf59d91f4123b8410451870f27fbdaaa3666876f",
      "category": "dependency_scanning",
      "name": "Use After Free",
      "message": "Use After Free in nokogiri",
      "description": "In `xsltCopyText` in `transform.c` in libxslt, which is used by nokogiri, a pointer variable isn't reset under certain circumstances. If the relevant memory area happened to be freed and reused in a certain way, a bounds check could fail and memory outside a buffer could be written to, or uninitialized data could be disclosed.",
      "cve": "Gemfile.lock:nokogiri:gemnasium:ecf64d0e-4f5c-4ebe-9f3f-c75ea81dc837",
      "severity": "High",
      "solution": "Upgrade to version 1.10.5 or above.",
      "scanner": {
        "id": "gemnasium",
        "name": "Gemnasium"
      },
      "location": {
        "file": "Gemfile.lock",
        "dependency": {
          "package": {
            "name": "nokogiri"
          },
          "version": "1.6.7.2"
        }
      },
      "identifiers": [
        {
          "type": "gemnasium",
          "name": "Gemnasium-ecf64d0e-4f5c-4ebe-9f3f-c75ea81dc837",
          "value": "ecf64d0e-4f5c-4ebe-9f3f-c75ea81dc837",
          "url": "https://gitlab.com/gitlab-org/security-products/gemnasium-db/-/blob/v1.2.142/gem/nokogiri/CVE-2019-18197.yml"
        },
        {
          "type": "cve",
          "name": "CVE-2019-18197",
          "value": "CVE-2019-18197",
          "url": "https://cve.mitre.org/cgi-bin/cvename.cgi?name=CVE-2019-18197"
        }
      ],
      "links": [
        {
          "url": "https://nvd.nist.gov/vuln/detail/CVE-2019-18197"
        }
      ],
      "details": {
        "vulnerable_package": {
          "type": "text",
          "name": "Vulnerable Package",
          "value": "nokogiri:1.6.7.2"
        }
      }
    },
    {
      "id": "46af9280556b39a2e77f4ea3e2aa7a7c82ab99afb96a42c4fd53a0f85bbea857",
      "category": "dependency_scanning",
      "name": "Inconsistent Interpretation of HTTP Requests (HTTP Request Smuggling)",
      "message": "Inconsistent Interpretation of HTTP Requests (HTTP Request Smuggling) in puma",
      "description": " In Puma (RubyGem), a client could smuggle a request through a proxy, causing the proxy to send a response back to another unknown client. If the proxy uses persistent connections and the client adds another request in via HTTP pipelining, the proxy may mistake it as the first request's body. Puma, however, would see it as two requests, and when processing the second request, send back a response that the proxy does not expect. If the proxy has reused the persistent connection to Puma to send another request for a different client, the second response from the first client will be sent to the second client.",
      "cve": "Gemfile.lock:puma:gemnasium:1cd16c54-101c-455b-9267-b5e2904acc67",
      "severity": "High",
      "solution": "Upgrade to versions 3.12.6, 4.3.5 or above.",
      "scanner": {
        "id": "gemnasium",
        "name": "Gemnasium"
      },
      "location": {
        "file": "Gemfile.lock",
        "dependency": {
          "package": {
            "name": "puma"
          },
          "version": "3.12.0"
        }
      },
      "identifiers": [
        {
          "type": "gemnasium",
          "name": "Gemnasium-1cd16c54-101c-455b-9267-b5e2904acc67",
          "value": "1cd16c54-101c-455b-9267-b5e2904acc67",
          "url": "https://gitlab.com/gitlab-org/security-products/gemnasium-db/-/blob/v1.2.142/gem/puma/CVE-2020-11077.yml"
        },
        {
          "type": "cve",
          "name": "CVE-2020-11077",
          "value": "CVE-2020-11077",
          "url": "https://cve.mitre.org/cgi-bin/cvename.cgi?name=CVE-2020-11077"
        }
      ],
      "links": [
        {
          "url": "https://nvd.nist.gov/vuln/detail/CVE-2020-11077"
        }
      ],
      "details": {
        "vulnerable_package": {
          "type": "text",
          "name": "Vulnerable Package",
          "value": "puma:3.12.0"
        }
      }
    },
    {
      "id": "92919f0b3e63834c06dd062bcb81ce68d9ff53ca278a9f79ae087dd7835bf4d9",
      "category": "dependency_scanning",
      "name": "Inconsistent Interpretation of HTTP Requests (HTTP Request Smuggling)",
      "message": "Inconsistent Interpretation of HTTP Requests (HTTP Request Smuggling) in puma",
      "description": "In Puma (RubyGem), an attacker could smuggle an HTTP response, by using an invalid transfer-encoding header.",
      "cve": "Gemfile.lock:puma:gemnasium:3f0a2579-150e-454f-a3d7-2f3e1959be45",
      "severity": "High",
      "solution": "Upgrade to versions 3.12.6, 4.3.5 or above.",
      "scanner": {
        "id": "gemnasium",
        "name": "Gemnasium"
      },
      "location": {
        "file": "Gemfile.lock",
        "dependency": {
          "package": {
            "name": "puma"
          },
          "version": "3.12.0"
        }
      },
      "identifiers": [
        {
          "type": "gemnasium",
          "name": "Gemnasium-3f0a2579-150e-454f-a3d7-2f3e1959be45",
          "value": "3f0a2579-150e-454f-a3d7-2f3e1959be45",
          "url": "https://gitlab.com/gitlab-org/security-products/gemnasium-db/-/blob/v1.2.142/gem/puma/CVE-2020-11076.yml"
        },
        {
          "type": "cve",
          "name": "CVE-2020-11076",
          "value": "CVE-2020-11076",
          "url": "https://cve.mitre.org/cgi-bin/cvename.cgi?name=CVE-2020-11076"
        }
      ],
      "links": [
        {
          "url": "https://nvd.nist.gov/vuln/detail/CVE-2020-11076"
        }
      ],
      "details": {
        "vulnerable_package": {
          "type": "text",
          "name": "Vulnerable Package",
          "value": "puma:3.12.0"
        }
      }
    },
    {
      "id": "9f63e5e1931442914aee729181aed5fa2db6bc5c0fee45a0ffec910e2a419cd8",
      "category": "dependency_scanning",
      "name": "Improper Neutralization of CRLF Sequences in HTTP Headers",
      "message": "Improper Neutralization of CRLF Sequences in HTTP Headers in puma",
      "description": "In Puma (RubyGem), if an application using Puma allows untrusted input in a response header, an attacker can use newline characters (i.e. `CR`, `LF` or`/r`, `/n`) to end the header and inject malicious content, such as additional headers or an entirely new response body. This vulnerability is known as HTTP Response Splitting. While not an attack in itself, response splitting is a vector for several other attacks, such as cross-site scripting (XSS).",
      "cve": "Gemfile.lock:puma:gemnasium:66c46af8-8f1d-46c9-be8e-36ee0801fba3",
      "severity": "High",
      "solution": "Upgrade to versions 3.12.4, 4.3.3 or above.",
      "scanner": {
        "id": "gemnasium",
        "name": "Gemnasium"
      },
      "location": {
        "file": "Gemfile.lock",
        "dependency": {
          "package": {
            "name": "puma"
          },
          "version": "3.12.0"
        }
      },
      "identifiers": [
        {
          "type": "gemnasium",
          "name": "Gemnasium-66c46af8-8f1d-46c9-be8e-36ee0801fba3",
          "value": "66c46af8-8f1d-46c9-be8e-36ee0801fba3",
          "url": "https://gitlab.com/gitlab-org/security-products/gemnasium-db/-/blob/v1.2.142/gem/puma/CVE-2020-5247.yml"
        },
        {
          "type": "cve",
          "name": "CVE-2020-5247",
          "value": "CVE-2020-5247",
          "url": "https://cve.mitre.org/cgi-bin/cvename.cgi?name=CVE-2020-5247"
        }
      ],
      "links": [
        {
          "url": "https://github.com/puma/puma/security/advisories/GHSA-84j7-475p-hp8v"
        },
        {
          "url": "https://nvd.nist.gov/vuln/detail/CVE-2020-5247"
        },
        {
          "url": "https://www.ruby-lang.org/en/news/2019/10/01/http-response-splitting-in-webrick-cve-2019-16254"
        }
      ],
      "details": {
        "vulnerable_package": {
          "type": "text",
          "name": "Vulnerable Package",
          "value": "puma:3.12.0"
        }
      }
    },
    {
      "id": "5ddf6fa6803a8b8dc0e119d2516c376bd82cd6667e6f1cca85564ffaa43c9793",
      "category": "dependency_scanning",
      "name": "Path Traversal",
      "message": "Path Traversal in rack",
      "description": "A directory traversal vulnerability exists in rack that allows an attacker perform directory traversal vulnerability in the `Rack::Directory` app that is bundled with Rack which could result in information disclosure.",
      "cve": "Gemfile.lock:rack:gemnasium:53834578-b5cb-4f46-9607-ce88978e7443",
      "severity": "High",
      "solution": "Upgrade to version 2.2.0 or above.",
      "scanner": {
        "id": "gemnasium",
        "name": "Gemnasium"
      },
      "location": {
        "file": "Gemfile.lock",
        "dependency": {
          "package": {
            "name": "rack"
          },
          "version": "2.0.4"
        }
      },
      "identifiers": [
        {
          "type": "gemnasium",
          "name": "Gemnasium-53834578-b5cb-4f46-9607-ce88978e7443",
          "value": "53834578-b5cb-4f46-9607-ce88978e7443",
          "url": "https://gitlab.com/gitlab-org/security-products/gemnasium-db/-/blob/v1.2.142/gem/rack/CVE-2020-8161.yml"
        },
        {
          "type": "cve",
          "name": "CVE-2020-8161",
          "value": "CVE-2020-8161",
          "url": "https://cve.mitre.org/cgi-bin/cvename.cgi?name=CVE-2020-8161"
        }
      ],
      "links": [
        {
          "url": "https://nvd.nist.gov/vuln/detail/CVE-2020-8161"
        }
      ],
      "details": {
        "vulnerable_package": {
          "type": "text",
          "name": "Vulnerable Package",
          "value": "rack:2.0.4"
        }
      }
    },
    {
      "id": "c051a9b9433e2f09431939999a8c47e8544c93e1f44ee88796a1c29cee312649",
      "category": "dependency_scanning",
      "name": "Improper Input Validation",
      "message": "Improper Input Validation in rack",
      "description": "A reliance on cookies without `validation/integrity` check security vulnerability exists in rack that makes it is possible for an attacker to forge a secure or host-only cookie prefix.",
      "cve": "Gemfile.lock:rack:gemnasium:b960a2e0-c5c1-4117-b443-bf772494bcb7",
      "severity": "High",
      "solution": "Upgrade to versions 2.1.4, 2.2.3 or above.",
      "scanner": {
        "id": "gemnasium",
        "name": "Gemnasium"
      },
      "location": {
        "file": "Gemfile.lock",
        "dependency": {
          "package": {
            "name": "rack"
          },
          "version": "2.0.4"
        }
      },
      "identifiers": [
        {
          "type": "gemnasium",
          "name": "Gemnasium-b960a2e0-c5c1-4117-b443-bf772494bcb7",
          "value": "b960a2e0-c5c1-4117-b443-bf772494bcb7",
          "url": "https://gitlab.com/gitlab-org/security-products/gemnasium-db/-/blob/v1.2.142/gem/rack/CVE-2020-8184.yml"
        },
        {
          "type": "cve",
          "name": "CVE-2020-8184",
          "value": "CVE-2020-8184",
          "url": "https://cve.mitre.org/cgi-bin/cvename.cgi?name=CVE-2020-8184"
        }
      ],
      "links": [
        {
          "url": "https://nvd.nist.gov/vuln/detail/CVE-2020-8184"
        }
      ],
      "details": {
        "vulnerable_package": {
          "type": "text",
          "name": "Vulnerable Package",
          "value": "rack:2.0.4"
        }
      }
    },
    {
      "id": "6ba76225e2461b0db9565828e444d491017ca78144d91a8e611946e042fe4359",
      "category": "dependency_scanning",
      "name": "Uncontrolled Resource Consumption",
      "message": "Uncontrolled Resource Consumption in rack",
      "description": "There is a possible DoS vulnerability in the multipart parser in Rack. Specially crafted requests can cause the multipart parser to enter a pathological state, causing the parser to use CPU resources disproportionate to the request size.",
      "cve": "Gemfile.lock:rack:gemnasium:fafa07ab-4b63-433a-a2aa-573f542f8f4d",
      "severity": "High",
      "solution": "Upgrade to version 2.0.6 or above.",
      "scanner": {
        "id": "gemnasium",
        "name": "Gemnasium"
      },
      "location": {
        "file": "Gemfile.lock",
        "dependency": {
          "package": {
            "name": "rack"
          },
          "version": "2.0.4"
        }
      },
      "identifiers": [
        {
          "type": "gemnasium",
          "name": "Gemnasium-fafa07ab-4b63-433a-a2aa-573f542f8f4d",
          "value": "fafa07ab-4b63-433a-a2aa-573f542f8f4d",
          "url": "https://gitlab.com/gitlab-org/security-products/gemnasium-db/-/blob/v1.2.142/gem/rack/CVE-2018-16470.yml"
        },
        {
          "type": "cve",
          "name": "CVE-2018-16470",
          "value": "CVE-2018-16470",
          "url": "https://cve.mitre.org/cgi-bin/cvename.cgi?name=CVE-2018-16470"
        }
      ],
      "links": [
        {
          "url": "https://nvd.nist.gov/vuln/detail/CVE-2018-16470"
        }
      ],
      "details": {
        "vulnerable_package": {
          "type": "text",
          "name": "Vulnerable Package",
          "value": "rack:2.0.4"
        }
      }
    },
    {
      "id": "5b41d839837ee7758b3087be849405752ece080140d2255121e0a96cbbd11cd6",
      "category": "dependency_scanning",
      "name": "Improper Input Validation",
      "message": "Improper Input Validation in symfony/http-foundation",
      "description": "If an application passes unvalidated user input as the file for which MIME type validation should occur, then arbitrary arguments are passed to the underlying file command. This is related to symfony/http-foundation (and symfony/mime in 4.3.x).",
      "cve": "composer.lock:symfony/http-foundation:gemnasium:de545386-bc70-4e98-b5ef-eabe2cc8e22f",
      "severity": "High",
      "solution": "Upgrade to versions 2.8.52, 3.4.35, 4.2.12, 4.3.8 or above.",
      "scanner": {
        "id": "gemnasium",
        "name": "Gemnasium"
      },
      "location": {
        "file": "composer.lock",
        "dependency": {
          "package": {
            "name": "symfony/http-foundation"
          },
          "version": "v3.1.10"
        }
      },
      "identifiers": [
        {
          "type": "gemnasium",
          "name": "Gemnasium-de545386-bc70-4e98-b5ef-eabe2cc8e22f",
          "value": "de545386-bc70-4e98-b5ef-eabe2cc8e22f",
          "url": "https://gitlab.com/gitlab-org/security-products/gemnasium-db/-/blob/v1.2.142/packagist/symfony/http-foundation/CVE-2019-18888.yml"
        },
        {
          "type": "cve",
          "name": "CVE-2019-18888",
          "value": "CVE-2019-18888",
          "url": "https://cve.mitre.org/cgi-bin/cvename.cgi?name=CVE-2019-18888"
        }
      ],
      "links": [
        {
          "url": "https://symfony.com/cve-2019-18888"
        }
      ],
      "details": {
        "vulnerable_package": {
          "type": "text",
          "name": "Vulnerable Package",
          "value": "symfony/http-foundation:v3.1.10"
        }
      }
    },
    {
      "id": "c210182d0a39c4400d883c53e627f6a63a695c9286a430adb54313542aa0fc0d",
      "category": "dependency_scanning",
      "name": "Concurrent Execution using Shared Resource with Improper Synchronization (Race Condition)",
      "message": "Concurrent Execution using Shared Resource with Improper Synchronization (Race Condition) in symfony/http-kernel",
      "description": "The UriSigner was subjectto timing attacks.",
      "cve": "composer.lock:symfony/http-kernel:gemnasium:506fdb16-e220-4d1a-b472-e3bb1d84fe16",
      "severity": "High",
      "solution": "Upgrade to versions 2.8.52, 3.4.35, 4.2.12, 4.3.8 or above.",
      "scanner": {
        "id": "gemnasium",
        "name": "Gemnasium"
      },
      "location": {
        "file": "composer.lock",
        "dependency": {
          "package": {
            "name": "symfony/http-kernel"
          },
          "version": "v3.1.10"
        }
      },
      "identifiers": [
        {
          "type": "gemnasium",
          "name": "Gemnasium-506fdb16-e220-4d1a-b472-e3bb1d84fe16",
          "value": "506fdb16-e220-4d1a-b472-e3bb1d84fe16",
          "url": "https://gitlab.com/gitlab-org/security-products/gemnasium-db/-/blob/v1.2.142/packagist/symfony/http-kernel/CVE-2019-18887.yml"
        },
        {
          "type": "cve",
          "name": "CVE-2019-18887",
          "value": "CVE-2019-18887",
          "url": "https://cve.mitre.org/cgi-bin/cvename.cgi?name=CVE-2019-18887"
        }
      ],
      "links": [
        {
          "url": "https://symfony.com/cve-2019-18887"
        }
      ],
      "details": {
        "vulnerable_package": {
          "type": "text",
          "name": "Vulnerable Package",
          "value": "symfony/http-kernel:v3.1.10"
        }
      }
    },
    {
      "id": "ce098748d788cdcb3f62771d4a4bcde031f921acc20752f717a5395ba5c2cd0b",
      "category": "dependency_scanning",
      "name": "Allocation of File Descriptors or Handles Without Limits or Throttling",
      "message": "Allocation of File Descriptors or Handles Without Limits or Throttling in github.com/minio/minio",
      "description": "Minio a Allocation of Memory Without Limits or Throttling vulnerability in write-to-RAM.",
      "cve": "go.sum:github.com/minio/minio:gemnasium:051e7fdd-4e0a-4dfd-ba52-083ee235a580",
      "severity": "High",
      "solution": "Unfortunately, there is no solution available yet.",
      "scanner": {
        "id": "gemnasium",
        "name": "Gemnasium"
      },
      "location": {
        "file": "go.sum",
        "dependency": {
          "package": {
            "name": "github.com/minio/minio"
          },
          "version": "v0.0.0-20180419184637-5a16671f721f"
        }
      },
      "identifiers": [
        {
          "type": "gemnasium",
          "name": "Gemnasium-051e7fdd-4e0a-4dfd-ba52-083ee235a580",
          "value": "051e7fdd-4e0a-4dfd-ba52-083ee235a580",
          "url": "https://gitlab.com/gitlab-org/security-products/gemnasium-db/-/blob/v1.2.142/go/github.com/minio/minio/CVE-2018-1000538.yml"
        },
        {
          "type": "cve",
          "name": "CVE-2018-1000538",
          "value": "CVE-2018-1000538",
          "url": "https://cve.mitre.org/cgi-bin/cvename.cgi?name=CVE-2018-1000538"
        }
      ],
      "links": [
        {
          "url": "https://github.com/minio/minio/pull/5957"
        },
        {
          "url": "https://nvd.nist.gov/vuln/detail/CVE-2018-1000538"
        }
      ],
      "details": {
        "vulnerable_package": {
          "type": "text",
          "name": "Vulnerable Package",
          "value": "github.com/minio/minio:v0.0.0-20180419184637-5a16671f721f"
        }
      }
    },
    {
      "id": "db7b2a4079055a222490d9190394fec297289431b886a3fa4d3dc49ef6b3f0a0",
      "category": "dependency_scanning",
      "name": "Improper Authentication",
      "message": "Improper Authentication in github.com/minio/minio",
      "description": "MinIO versions before has an authentication bypass issue in the MinIO admin API. Given an admin access key, it is possible to perform admin API operations, i.e., creating new service accounts for existing access keys without knowing the admin secret key.",
      "cve": "go.sum:github.com/minio/minio:gemnasium:216192fe-2efa-4c52-addd-4bf3522c2b69",
      "severity": "High",
      "solution": "Upgrade to version RELEASE.2020-04-23T00-58-49Z or above.",
      "scanner": {
        "id": "gemnasium",
        "name": "Gemnasium"
      },
      "location": {
        "file": "go.sum",
        "dependency": {
          "package": {
            "name": "github.com/minio/minio"
          },
          "version": "v0.0.0-20180419184637-5a16671f721f"
        }
      },
      "identifiers": [
        {
          "type": "gemnasium",
          "name": "Gemnasium-216192fe-2efa-4c52-addd-4bf3522c2b69",
          "value": "216192fe-2efa-4c52-addd-4bf3522c2b69",
          "url": "https://gitlab.com/gitlab-org/security-products/gemnasium-db/-/blob/v1.2.142/go/github.com/minio/minio/CVE-2020-11012.yml"
        },
        {
          "type": "cve",
          "name": "CVE-2020-11012",
          "value": "CVE-2020-11012",
          "url": "https://cve.mitre.org/cgi-bin/cvename.cgi?name=CVE-2020-11012"
        }
      ],
      "links": [
        {
          "url": "https://nvd.nist.gov/vuln/detail/CVE-2020-11012"
        }
      ],
      "details": {
        "vulnerable_package": {
          "type": "text",
          "name": "Vulnerable Package",
          "value": "github.com/minio/minio:v0.0.0-20180419184637-5a16671f721f"
        }
      }
    },
    {
      "id": "347aba2eca6b4081cd9e0cdf3e5fce1330b200254eff0c524c7532ebdea492a2",
      "category": "dependency_scanning",
      "name": "Allocation of Resources Without Limits or Throttling",
      "message": "Allocation of Resources Without Limits or Throttling in puma",
      "description": "In Puma, a poorly-behaved client could use keepalive requests to monopolize Puma's reactor and create a denial of service attack. If more keepalive connections to Puma are opened than there are threads available, additional connections will wait permanently if the attacker sends requests frequently enough.",
      "cve": "Gemfile.lock:puma:gemnasium:855d4255-6625-4349-b9d9-b8df7a97e7f5",
      "severity": "Medium",
      "solution": "Upgrade to versions 3.12.2, 4.3.1 or above.",
      "scanner": {
        "id": "gemnasium",
        "name": "Gemnasium"
      },
      "location": {
        "file": "Gemfile.lock",
        "dependency": {
          "package": {
            "name": "puma"
          },
          "version": "3.12.0"
        }
      },
      "identifiers": [
        {
          "type": "gemnasium",
          "name": "Gemnasium-855d4255-6625-4349-b9d9-b8df7a97e7f5",
          "value": "855d4255-6625-4349-b9d9-b8df7a97e7f5",
          "url": "https://gitlab.com/gitlab-org/security-products/gemnasium-db/-/blob/v1.2.142/gem/puma/CVE-2019-16770.yml"
        },
        {
          "type": "cve",
          "name": "CVE-2019-16770",
          "value": "CVE-2019-16770",
          "url": "https://cve.mitre.org/cgi-bin/cvename.cgi?name=CVE-2019-16770"
        }
      ],
      "links": [
        {
          "url": "https://nvd.nist.gov/vuln/detail/CVE-2019-16770"
        }
      ],
      "details": {
        "vulnerable_package": {
          "type": "text",
          "name": "Vulnerable Package",
          "value": "puma:3.12.0"
        }
      }
    },
    {
      "id": "04b98f55bb1dcb2e250eb326a5fd3624db673597485076e7107eb9da55880e72",
      "category": "dependency_scanning",
      "name": "Injection Vulnerability",
      "message": "Injection Vulnerability in puma",
      "description": "In Puma (RubyGem), if an application using Puma allows untrusted input in an early-hints header, an attacker can use a carriage return character to end the header and inject malicious content, such as additional headers or an entirely new response body. This vulnerability is known as HTTP Response Splitting. While not an attack in itself, response splitting is a vector for several other attacks, such as cross-site scripting (XSS).",
      "cve": "Gemfile.lock:puma:gemnasium:9b88f320-c56b-477d-8d32-f99f79147d74",
      "severity": "Medium",
      "solution": "Upgrade to versions 3.12.4, 4.3.3 or above.",
      "scanner": {
        "id": "gemnasium",
        "name": "Gemnasium"
      },
      "location": {
        "file": "Gemfile.lock",
        "dependency": {
          "package": {
            "name": "puma"
          },
          "version": "3.12.0"
        }
      },
      "identifiers": [
        {
          "type": "gemnasium",
          "name": "Gemnasium-9b88f320-c56b-477d-8d32-f99f79147d74",
          "value": "9b88f320-c56b-477d-8d32-f99f79147d74",
          "url": "https://gitlab.com/gitlab-org/security-products/gemnasium-db/-/blob/v1.2.142/gem/puma/CVE-2020-5249.yml"
        },
        {
          "type": "cve",
          "name": "CVE-2020-5249",
          "value": "CVE-2020-5249",
          "url": "https://cve.mitre.org/cgi-bin/cvename.cgi?name=CVE-2020-5249"
        }
      ],
      "links": [
        {
          "url": "https://nvd.nist.gov/vuln/detail/CVE-2020-5249"
        }
      ],
      "details": {
        "vulnerable_package": {
          "type": "text",
          "name": "Vulnerable Package",
          "value": "puma:3.12.0"
        }
      }
    },
    {
      "id": "3819d8dde5184041e341fd7e54682e8a9021a14c128f4b40024bca11f5112f34",
      "category": "dependency_scanning",
      "name": "Path traversal on Windows",
      "message": "Path traversal on Windows in rack-protection",
      "description": "Path traversal is possible via backslash characters on Windows. An attacker could access arbitrary files and directories stored on the file system.",
      "cve": "Gemfile.lock:rack-protection:gemnasium:fff2cf11-3422-4aaf-b18f-aa30a0f2ae37",
      "severity": "Medium",
      "solution": "Upgrade to version 2.0.1 or above.",
      "scanner": {
        "id": "gemnasium",
        "name": "Gemnasium"
      },
      "location": {
        "file": "Gemfile.lock",
        "dependency": {
          "package": {
            "name": "rack-protection"
          },
          "version": "2.0.0"
        }
      },
      "identifiers": [
        {
          "type": "gemnasium",
          "name": "Gemnasium-fff2cf11-3422-4aaf-b18f-aa30a0f2ae37",
          "value": "fff2cf11-3422-4aaf-b18f-aa30a0f2ae37",
          "url": "https://gitlab.com/gitlab-org/security-products/gemnasium-db/-/blob/v1.2.142/gem/rack-protection/CVE-2018-7212.yml"
        },
        {
          "type": "cve",
          "name": "CVE-2018-7212",
          "value": "CVE-2018-7212",
          "url": "https://cve.mitre.org/cgi-bin/cvename.cgi?name=CVE-2018-7212"
        }
      ],
      "links": [
        {
          "url": "https://github.com/sinatra/rack-protection/pull/120"
        },
        {
          "url": "https://github.com/sinatra/rack-protection/pull/120/commits/4239c2f189a73dfc93e957fc97adcbcbc0ed31c6"
        },
        {
          "url": "https://github.com/sinatra/sinatra/commit/d17aa95f5056c52daf5d7c3170fbfd831dc96381"
        },
        {
          "url": "https://github.com/sinatra/sinatra/pull/1379"
        }
      ],
      "details": {
        "vulnerable_package": {
          "type": "text",
          "name": "Vulnerable Package",
          "value": "rack-protection:2.0.0"
        }
      }
    },
    {
      "id": "01b1d2a63711e15d895acac64c4511cc358542ec718d267fe2edc008d48b4858",
      "category": "dependency_scanning",
      "name": "Cross-site Scripting",
      "message": "Cross-site Scripting in rack",
      "description": "There is a possible XSS vulnerability in Rack. Carefully crafted requests can impact the data returned by the `scheme` method on `Rack::Request`. Applications that expect the scheme to be limited to HTTP or HTTPS and do not escape the return value could be vulnerable to an XSS attack. Note that applications using the normal escaping mechanisms provided by Rails may not be impacted, but applications that bypass the escaping mechanisms, or do not use them may be vulnerable.",
      "cve": "Gemfile.lock:rack:gemnasium:effd904a-dbb5-4117-945f-fe7e235d2380",
      "severity": "Medium",
      "solution": "Upgrade to versions 1.6.11, 2.0.6 or above.",
      "scanner": {
        "id": "gemnasium",
        "name": "Gemnasium"
      },
      "location": {
        "file": "Gemfile.lock",
        "dependency": {
          "package": {
            "name": "rack"
          },
          "version": "2.0.4"
        }
      },
      "identifiers": [
        {
          "type": "gemnasium",
          "name": "Gemnasium-effd904a-dbb5-4117-945f-fe7e235d2380",
          "value": "effd904a-dbb5-4117-945f-fe7e235d2380",
          "url": "https://gitlab.com/gitlab-org/security-products/gemnasium-db/-/blob/v1.2.142/gem/rack/CVE-2018-16471.yml"
        },
        {
          "type": "cve",
          "name": "CVE-2018-16471",
          "value": "CVE-2018-16471",
          "url": "https://cve.mitre.org/cgi-bin/cvename.cgi?name=CVE-2018-16471"
        }
      ],
      "links": [
        {
          "url": "https://nvd.nist.gov/vuln/detail/CVE-2018-16471"
        }
      ],
      "details": {
        "vulnerable_package": {
          "type": "text",
          "name": "Vulnerable Package",
          "value": "rack:2.0.4"
        }
      }
    },
    {
      "id": "bd9d4d1e258b03af3d8b9203b66b958367e14d01266b63e55018cd2d476cc750",
      "category": "dependency_scanning",
      "name": "Information Exposure",
      "message": "Information Exposure in rack",
      "description": "There's a possible information leak / session hijack vulnerability in Rack (RubyGem rack). Attackers may be able to find and hijack sessions by using timing attacks targeting the session id. Session ids are usually stored and indexed in a database that uses some kind of scheme for speeding up lookups of that session id. By carefully measuring the amount of time it takes to look up a session, an attacker may be able to find a valid session id and hijack the session. The session id itself may be generated randomly, but the way the session is indexed by the backing store does not use a secure comparison.",
      "cve": "Gemfile.lock:rack:gemnasium:f3c4e135-0d7a-4ab9-a4ef-a331ef23c423",
      "severity": "Medium",
      "solution": "Upgrade to version 2.0.8 or above.",
      "scanner": {
        "id": "gemnasium",
        "name": "Gemnasium"
      },
      "location": {
        "file": "Gemfile.lock",
        "dependency": {
          "package": {
            "name": "rack"
          },
          "version": "2.0.4"
        }
      },
      "identifiers": [
        {
          "type": "gemnasium",
          "name": "Gemnasium-f3c4e135-0d7a-4ab9-a4ef-a331ef23c423",
          "value": "f3c4e135-0d7a-4ab9-a4ef-a331ef23c423",
          "url": "https://gitlab.com/gitlab-org/security-products/gemnasium-db/-/blob/v1.2.142/gem/rack/CVE-2019-16782.yml"
        },
        {
          "type": "cve",
          "name": "CVE-2019-16782",
          "value": "CVE-2019-16782",
          "url": "https://cve.mitre.org/cgi-bin/cvename.cgi?name=CVE-2019-16782"
        }
      ],
      "links": [
        {
          "url": "https://github.com/rack/rack/security/advisories/GHSA-hrqr-hxpp-chr3"
        },
        {
          "url": "https://nvd.nist.gov/vuln/detail/CVE-2019-16782"
        }
      ],
      "details": {
        "vulnerable_package": {
          "type": "text",
          "name": "Vulnerable Package",
          "value": "rack:2.0.4"
        }
      }
    },
    {
      "id": "5f635ddd6302ae5ac77ddb16171a82de5caade570984750bf752a57ff3fa0ef4",
      "category": "dependency_scanning",
      "name": "Cross-site Scripting",
      "message": "Cross-site Scripting in sinatra",
      "description": "Sinatra has XSS via the 400 Bad Request page that occurs upon a params parser exception.",
      "cve": "Gemfile.lock:sinatra:gemnasium:5027319e-8131-41e0-b7dc-57f9777c36df",
      "severity": "Medium",
      "solution": "Upgrade to version 2.0.2 or above.",
      "scanner": {
        "id": "gemnasium",
        "name": "Gemnasium"
      },
      "location": {
        "file": "Gemfile.lock",
        "dependency": {
          "package": {
            "name": "sinatra"
          },
          "version": "2.0.0"
        }
      },
      "identifiers": [
        {
          "type": "gemnasium",
          "name": "Gemnasium-5027319e-8131-41e0-b7dc-57f9777c36df",
          "value": "5027319e-8131-41e0-b7dc-57f9777c36df",
          "url": "https://gitlab.com/gitlab-org/security-products/gemnasium-db/-/blob/v1.2.142/gem/sinatra/CVE-2018-11627.yml"
        },
        {
          "type": "cve",
          "name": "CVE-2018-11627",
          "value": "CVE-2018-11627",
          "url": "https://cve.mitre.org/cgi-bin/cvename.cgi?name=CVE-2018-11627"
        }
      ],
      "links": [
        {
          "url": "https://nvd.nist.gov/vuln/detail/CVE-2018-11627"
        }
      ],
      "details": {
        "vulnerable_package": {
          "type": "text",
          "name": "Vulnerable Package",
          "value": "sinatra:2.0.0"
        }
      }
    },
    {
      "id": "90b7e8328964f2cce9461c5ee936e48e8169f5ada92f549028eadca119e1563a",
      "category": "dependency_scanning",
      "name": "Path Traversal",
      "message": "Path Traversal in sinatra",
      "description": "An issue was discovered in `rack-protection/lib/rack/protection/path_traversal.rb` in Sinatra on Windows. Path traversal is possible via backslash characters.",
      "cve": "Gemfile.lock:sinatra:gemnasium:eed4c5a3-014f-4bbf-b95e-0d393956e75b",
      "severity": "Medium",
      "solution": "Upgrade to version 2.0.2 or above.",
      "scanner": {
        "id": "gemnasium",
        "name": "Gemnasium"
      },
      "location": {
        "file": "Gemfile.lock",
        "dependency": {
          "package": {
            "name": "sinatra"
          },
          "version": "2.0.0"
        }
      },
      "identifiers": [
        {
          "type": "gemnasium",
          "name": "Gemnasium-eed4c5a3-014f-4bbf-b95e-0d393956e75b",
          "value": "eed4c5a3-014f-4bbf-b95e-0d393956e75b",
          "url": "https://gitlab.com/gitlab-org/security-products/gemnasium-db/-/blob/v1.2.142/gem/sinatra/CVE-2018-7212.yml"
        },
        {
          "type": "cve",
          "name": "CVE-2018-7212",
          "value": "CVE-2018-7212",
          "url": "https://cve.mitre.org/cgi-bin/cvename.cgi?name=CVE-2018-7212"
        }
      ],
      "links": [
        {
          "url": "https://github.com/sinatra/sinatra/pull/1379"
        },
        {
          "url": "https://nvd.nist.gov/vuln/detail/CVE-2018-7212"
        }
      ],
      "details": {
        "vulnerable_package": {
          "type": "text",
          "name": "Vulnerable Package",
          "value": "sinatra:2.0.0"
        }
      }
    },
    {
      "id": "0baa94e591726fc153505dab21ce857eaae2403ef4b4b91e7a2bcd37bd542bec",
      "category": "dependency_scanning",
      "name": "Close remember_me Timing Attack Vector",
      "message": "Close remember_me Timing Attack Vector in laravel/framework",
      "description": "This package mishandles the `remember_me token` verification process because `DatabaseUserProvider` does not have constant-time token comparison.",
      "cve": "composer.lock:laravel/framework:gemnasium:5c83436d-2193-4d2a-8c2b-a08896f4e7d2",
      "severity": "Medium",
      "solution": "Upgrade to latest version.",
      "scanner": {
        "id": "gemnasium",
        "name": "Gemnasium"
      },
      "location": {
        "file": "composer.lock",
        "dependency": {
          "package": {
            "name": "laravel/framework"
          },
          "version": "v5.3.31"
        }
      },
      "identifiers": [
        {
          "type": "gemnasium",
          "name": "Gemnasium-5c83436d-2193-4d2a-8c2b-a08896f4e7d2",
          "value": "5c83436d-2193-4d2a-8c2b-a08896f4e7d2",
          "url": "https://gitlab.com/gitlab-org/security-products/gemnasium-db/-/blob/v1.2.142/packagist/laravel/framework/CVE-2017-14775.yml"
        },
        {
          "type": "cve",
          "name": "CVE-2017-14775",
          "value": "CVE-2017-14775",
          "url": "https://cve.mitre.org/cgi-bin/cvename.cgi?name=CVE-2017-14775"
        }
      ],
      "links": [
        {
          "url": "https://github.com/laravel/framework/pull/21320"
        },
        {
          "url": "https://github.com/laravel/framework/releases/tag/v5.5.10"
        },
        {
          "url": "https://laravel-news.com/laravel-v5-5-11"
        }
      ],
      "details": {
        "vulnerable_package": {
          "type": "text",
          "name": "Vulnerable Package",
          "value": "laravel/framework:v5.3.31"
        }
      }
    },
    {
      "id": "2956106e4b6735725c5a798d45ec7cbf2d80de8ef56491d770039c96cb0fceb6",
      "category": "dependency_scanning",
      "name": "User phishing",
      "message": "User phishing in laravel/framework",
      "description": "There's a vulnerability that allows phishing attempts on users of the application. Using the password reset system, malicious users can attempt to trick your users into entering their login credentials into a separate application that they control. Since the password reset notification uses the host of the incoming request to build the password reset URL, the host of the password reset URL may be spoofed. If users do not notice that they are not on their intended application's domain, they may accidentally enter their login credentials into a malicious application.",
      "cve": "composer.lock:laravel/framework:gemnasium:b1fc6162-300b-425e-891e-44c3fcbf4d75",
      "severity": "Medium",
      "solution": "Upgrade to fixed version",
      "scanner": {
        "id": "gemnasium",
        "name": "Gemnasium"
      },
      "location": {
        "file": "composer.lock",
        "dependency": {
          "package": {
            "name": "laravel/framework"
          },
          "version": "v5.3.31"
        }
      },
      "identifiers": [
        {
          "type": "gemnasium",
          "name": "Gemnasium-b1fc6162-300b-425e-891e-44c3fcbf4d75",
          "value": "b1fc6162-300b-425e-891e-44c3fcbf4d75",
          "url": "https://gitlab.com/gitlab-org/security-products/gemnasium-db/-/blob/v1.2.142/packagist/laravel/framework/CVE-2017-9303.yml"
        },
        {
          "type": "cve",
          "name": "CVE-2017-9303",
          "value": "CVE-2017-9303",
          "url": "https://cve.mitre.org/cgi-bin/cvename.cgi?name=CVE-2017-9303"
        }
      ],
      "links": [
        {
          "url": "https://laravel.com/docs/5.4/releases#laravel-5.4.22"
        }
      ],
      "details": {
        "vulnerable_package": {
          "type": "text",
          "name": "Vulnerable Package",
          "value": "laravel/framework:v5.3.31"
        }
      }
    },
    {
      "id": "c832f83115b15f90645fa423bb0ac6356aa3c5406c35f4e7cae1f0099c6bf96b",
      "category": "dependency_scanning",
      "name": "Insufficient Session Expiration",
      "message": "Insufficient Session Expiration in symfony/http-foundation",
      "description": "The `PDOSessionHandler` class allows storing sessions on a PDO connection. Under some configurations and with a well-crafted payload, it was possible to do a denial of service on a Symfony application without too much resources.",
      "cve": "composer.lock:symfony/http-foundation:gemnasium:27a62549-2bed-461b-bc6d-3d3d69e8c225",
      "severity": "Medium",
      "solution": "Upgrade to versions 2.8.41, 3.4.11, 4.0.11 or above.",
      "scanner": {
        "id": "gemnasium",
        "name": "Gemnasium"
      },
      "location": {
        "file": "composer.lock",
        "dependency": {
          "package": {
            "name": "symfony/http-foundation"
          },
          "version": "v3.1.10"
        }
      },
      "identifiers": [
        {
          "type": "gemnasium",
          "name": "Gemnasium-27a62549-2bed-461b-bc6d-3d3d69e8c225",
          "value": "27a62549-2bed-461b-bc6d-3d3d69e8c225",
          "url": "https://gitlab.com/gitlab-org/security-products/gemnasium-db/-/blob/v1.2.142/packagist/symfony/http-foundation/CVE-2018-11386.yml"
        },
        {
          "type": "cve",
          "name": "CVE-2018-11386",
          "value": "CVE-2018-11386",
          "url": "https://cve.mitre.org/cgi-bin/cvename.cgi?name=CVE-2018-11386"
        }
      ],
      "links": [
        {
          "url": "https://symfony.com/cve-2018-11386"
        }
      ],
      "details": {
        "vulnerable_package": {
          "type": "text",
          "name": "Vulnerable Package",
          "value": "symfony/http-foundation:v3.1.10"
        }
      }
    },
    {
      "id": "d4b69021792593f30ccc17e459160c9bf2f5d5d073bf0ffd7d0daf4462a44493",
      "category": "dependency_scanning",
      "name": "URL Rewrite vulnerability",
      "message": "URL Rewrite vulnerability in symfony/http-foundation",
      "description": "An issue in Symfony arises from support for a (legacy) IIS header that lets users override the path in the request URL via the `X-Original-URL` or `X-Rewrite-URL` HTTP request header. These headers are designed for IIS support, but it's not verified that the server is in fact running IIS, which means anybody who can send these requests to an application can trigger this. This affects `\\Symfony\\Component\\HttpFoundation\\Request::prepareRequestUri()` where `X-Original-URL` and `X_REWRITE_URL` are both used. The fix drops support for these methods so that they cannot be used as attack vectors such as web cache poisoning.",
      "cve": "composer.lock:symfony/http-foundation:gemnasium:f9700bc8-c75b-4da8-9806-582fcad4bd7b",
      "severity": "Medium",
      "solution": "Upgrade to versions 2.8.44, 3.4.14, 4.0.14, 4.1.3 or above.",
      "scanner": {
        "id": "gemnasium",
        "name": "Gemnasium"
      },
      "location": {
        "file": "composer.lock",
        "dependency": {
          "package": {
            "name": "symfony/http-foundation"
          },
          "version": "v3.1.10"
        }
      },
      "identifiers": [
        {
          "type": "gemnasium",
          "name": "Gemnasium-f9700bc8-c75b-4da8-9806-582fcad4bd7b",
          "value": "f9700bc8-c75b-4da8-9806-582fcad4bd7b",
          "url": "https://gitlab.com/gitlab-org/security-products/gemnasium-db/-/blob/v1.2.142/packagist/symfony/http-foundation/CVE-2018-14773.yml"
        },
        {
          "type": "cve",
          "name": "CVE-2018-14773",
          "value": "CVE-2018-14773",
          "url": "https://cve.mitre.org/cgi-bin/cvename.cgi?name=CVE-2018-14773"
        }
      ],
      "links": [
        {
          "url": "https://symfony.com/blog/cve-2018-14773-remove-support-for-legacy-and-risky-http-headers"
        }
      ],
      "details": {
        "vulnerable_package": {
          "type": "text",
          "name": "Vulnerable Package",
          "value": "symfony/http-foundation:v3.1.10"
        }
      }
    },
    {
      "id": "47b962f53335d1657510b0463643516b696f722a1d294858e687a292618ee6d4",
      "category": "dependency_scanning",
      "name": "Concurrent Execution using Shared Resource with Improper Synchronization (Race Condition)",
      "message": "Concurrent Execution using Shared Resource with Improper Synchronization (Race Condition) in github.com/astaxie/beego",
      "description": "The File Session Manager in Beego allows local users to read session files because there is a race condition involving file creation within a directory with weak permissions.",
      "cve": "go.sum:github.com/astaxie/beego:gemnasium:5cbdb968-d76c-4285-9597-33fbb14d4ac2",
      "severity": "Medium",
      "solution": "Upgrade to version 1.10.1 or above.",
      "scanner": {
        "id": "gemnasium",
        "name": "Gemnasium"
      },
      "location": {
        "file": "go.sum",
        "dependency": {
          "package": {
            "name": "github.com/astaxie/beego"
          },
          "version": "v1.10.0"
        }
      },
      "identifiers": [
        {
          "type": "gemnasium",
          "name": "Gemnasium-5cbdb968-d76c-4285-9597-33fbb14d4ac2",
          "value": "5cbdb968-d76c-4285-9597-33fbb14d4ac2",
          "url": "https://gitlab.com/gitlab-org/security-products/gemnasium-db/-/blob/v1.2.142/go/github.com/astaxie/beego/CVE-2019-16354.yml"
        },
        {
          "type": "cve",
          "name": "CVE-2019-16354",
          "value": "CVE-2019-16354",
          "url": "https://cve.mitre.org/cgi-bin/cvename.cgi?name=CVE-2019-16354"
        }
      ],
      "links": [
        {
          "url": "https://nvd.nist.gov/vuln/detail/CVE-2019-16354"
        }
      ],
      "details": {
        "vulnerable_package": {
          "type": "text",
          "name": "Vulnerable Package",
          "value": "github.com/astaxie/beego:v1.10.0"
        }
      }
    },
    {
      "id": "31c78f05b6ab0574325b3663091a8e0e357ab189e18f2d73b37770dc1a90c520",
      "category": "dependency_scanning",
      "name": "Incorrect Default Permissions",
      "message": "Incorrect Default Permissions in github.com/astaxie/beego",
      "description": "The File Session Manager in Beego allows local users to read session files because of weak permissions for individual files.",
      "cve": "go.sum:github.com/astaxie/beego:gemnasium:b9fefee9-c6b2-460d-a61a-e02696c8900b",
      "severity": "Medium",
      "solution": "Upgrade to version 1.10.1 or above.",
      "scanner": {
        "id": "gemnasium",
        "name": "Gemnasium"
      },
      "location": {
        "file": "go.sum",
        "dependency": {
          "package": {
            "name": "github.com/astaxie/beego"
          },
          "version": "v1.10.0"
        }
      },
      "identifiers": [
        {
          "type": "gemnasium",
          "name": "Gemnasium-b9fefee9-c6b2-460d-a61a-e02696c8900b",
          "value": "b9fefee9-c6b2-460d-a61a-e02696c8900b",
          "url": "https://gitlab.com/gitlab-org/security-products/gemnasium-db/-/blob/v1.2.142/go/github.com/astaxie/beego/CVE-2019-16355.yml"
        },
        {
          "type": "cve",
          "name": "CVE-2019-16355",
          "value": "CVE-2019-16355",
          "url": "https://cve.mitre.org/cgi-bin/cvename.cgi?name=CVE-2019-16355"
        }
      ],
      "links": [
        {
          "url": "https://nvd.nist.gov/vuln/detail/CVE-2019-16355"
        }
      ],
      "details": {
        "vulnerable_package": {
          "type": "text",
          "name": "Vulnerable Package",
          "value": "github.com/astaxie/beego:v1.10.0"
        }
      }
    },
    {
      "id": "bdd7d42731243a56499e97d5358453e03aae7cf1be75cdab40684cf96e6b5158",
      "category": "dependency_scanning",
      "name": "Vulnerabilities in libxml2",
      "message": "Vulnerabilities in libxml2 in nokogiri",
      "description": "The version of libxml2 packaged with Nokogiri contains several vulnerabilities.\nNokogiri has mitigated these issues by upgrading to libxml 2.9.5. It was discovered that a type confusion error existed in libxml2. An attacker could use this to specially construct XML data that could cause a denial of service or possibly execute arbitrary code. (CVE-2017-0663) It was discovered that libxml2 did not properly validate parsed entity references. An attacker could use this to specially construct XML data that could expose sensitive information. (CVE-2017-7375) It was discovered that a buffer overflow existed in libxml2 when handling HTTP redirects. An attacker could use this to specially construct XML data that could cause a denial of service or possibly execute arbitrary code. (CVE-2017-7376) Marcel Böhme and Van-Thuan Pham discovered a buffer overflow in libxml2 when handling elements. An attacker could use this to specially construct XML data that could cause a denial of service or possibly execute arbitrary code. (CVE-2017-9047) Marcel Böhme and Van-Thuan Pham discovered a buffer overread in libxml2 when handling elements. An attacker could use this to specially construct XML data that could cause a denial of service. (CVE-2017-9048) Marcel Böhme and Van-Thuan Pham discovered multiple buffer overreads in libxml2 when handling parameter-entity references. An attacker could use these to specially construct XML data that could cause a denial of service. (CVE-2017-9049, CVE-2017-9050)",
      "cve": "Gemfile.lock:nokogiri:gemnasium:06565b64-486d-4326-b906-890d9915804d",
      "severity": "Unknown",
      "solution": "Upgrade to latest version.",
      "scanner": {
        "id": "gemnasium",
        "name": "Gemnasium"
      },
      "location": {
        "file": "Gemfile.lock",
        "dependency": {
          "package": {
            "name": "nokogiri"
          },
          "version": "1.6.7.2"
        }
      },
      "identifiers": [
        {
          "type": "gemnasium",
          "name": "Gemnasium-06565b64-486d-4326-b906-890d9915804d",
          "value": "06565b64-486d-4326-b906-890d9915804d",
          "url": "https://gitlab.com/gitlab-org/security-products/gemnasium-db/-/blob/v1.2.142/gem/nokogiri/USN-3424-1.yml"
        },
        {
          "type": "usn",
          "name": "USN-3424-1",
          "value": "USN-3424-1",
          "url": "https://usn.ubuntu.com/3424-1/"
        }
      ],
      "links": [
        {
          "url": "https://github.com/sparklemotion/nokogiri/issues/1673"
        }
      ],
      "details": {
        "vulnerable_package": {
          "type": "text",
          "name": "Vulnerable Package",
          "value": "nokogiri:1.6.7.2"
        }
      }
    },
    {
      "id": "e2307c4b9e77ccae36dd9fac17901eb1280685469043bb2a270db9addc87ad09",
      "category": "dependency_scanning",
      "name": "Session Fixation",
      "message": "Session Fixation in laravel/framework",
      "description": "Cookie serialization vulnerability in laravel framework.",
      "cve": "composer.lock:laravel/framework:gemnasium:168d8c5c-c985-4019-8381-8e89b2d2975d",
      "severity": "Unknown",
      "solution": "Upgrade to versions 5.5.42, 5.6.30 or above.",
      "scanner": {
        "id": "gemnasium",
        "name": "Gemnasium"
      },
      "location": {
        "file": "composer.lock",
        "dependency": {
          "package": {
            "name": "laravel/framework"
          },
          "version": "v5.3.31"
        }
      },
      "identifiers": [
        {
          "type": "gemnasium",
          "name": "Gemnasium-168d8c5c-c985-4019-8381-8e89b2d2975d",
          "value": "168d8c5c-c985-4019-8381-8e89b2d2975d",
          "url": "https://gitlab.com/gitlab-org/security-products/gemnasium-db/-/blob/v1.2.142/packagist/laravel/framework/2018-08-08-1.yml"
        }
      ],
      "links": [
        {
          "url": "https://laravel.com/docs/5.6/upgrade#upgrade-5.6.30"
        }
      ],
      "details": {
        "vulnerable_package": {
          "type": "text",
          "name": "Vulnerable Package",
          "value": "laravel/framework:v5.3.31"
        }
      }
    },
    {
      "id": "ca294dad13b7f2d2634e72dae86a7146e8a9fab03e46c2f485121ac5d560b956",
      "category": "dependency_scanning",
      "name": "Cryptographic Issues",
      "message": "Cryptographic Issues in laravel/framework",
      "description": "Exploit of encryption failure vulnerability",
      "cve": "composer.lock:laravel/framework:gemnasium:626d728d-1ece-46ce-82b2-21fe79484e53",
      "severity": "Unknown",
      "solution": "Upgrade to versions 5.5.40, 5.6.15 or above.",
      "scanner": {
        "id": "gemnasium",
        "name": "Gemnasium"
      },
      "location": {
        "file": "composer.lock",
        "dependency": {
          "package": {
            "name": "laravel/framework"
          },
          "version": "v5.3.31"
        }
      },
      "identifiers": [
        {
          "type": "gemnasium",
          "name": "Gemnasium-626d728d-1ece-46ce-82b2-21fe79484e53",
          "value": "626d728d-1ece-46ce-82b2-21fe79484e53",
          "url": "https://gitlab.com/gitlab-org/security-products/gemnasium-db/-/blob/v1.2.142/packagist/laravel/framework/2018-03-30-1.yml"
        }
      ],
      "links": [
        {
          "url": "https://medium.com/@taylorotwell/laravel-security-release-5-6-15-and-5-5-40-56f1257933a0"
        }
      ],
      "details": {
        "vulnerable_package": {
          "type": "text",
          "name": "Vulnerable Package",
          "value": "laravel/framework:v5.3.31"
        }
      }
    },
    {
      "id": "5f2f0365336d0d3d98f2689960ad1631fef50d1f72aece2da13737c4df6d2182",
      "category": "dependency_scanning",
      "name": "Unsafe payload decryption",
      "message": "Unsafe payload decryption in laravel/framework",
      "description": "There's a potential exploit of the Laravel Encrypter component that may cause the Encrypter to fail on decryption and unexpectedly return false. To exploit this, the attacker must be able to modify the encrypted payload before it is decrypted. This could lead to unexpected behavior when combined with weak type comparisons.",
      "cve": "composer.lock:laravel/framework:gemnasium:d6aad686-c9c5-431a-8a0e-2dea585ac020",
      "severity": "Unknown",
      "solution": "Upgrade to latest version.",
      "scanner": {
        "id": "gemnasium",
        "name": "Gemnasium"
      },
      "location": {
        "file": "composer.lock",
        "dependency": {
          "package": {
            "name": "laravel/framework"
          },
          "version": "v5.3.31"
        }
      },
      "identifiers": [
        {
          "type": "gemnasium",
          "name": "Gemnasium-d6aad686-c9c5-431a-8a0e-2dea585ac020",
          "value": "d6aad686-c9c5-431a-8a0e-2dea585ac020",
          "url": "https://gitlab.com/gitlab-org/security-products/gemnasium-db/-/blob/v1.2.142/packagist/laravel/framework/GMS-2018-27.yml"
        }
      ],
      "links": [
        {
          "url": "https://medium.com/@taylorotwell/laravel-security-release-5-6-15-and-5-5-40-56f1257933a0"
        }
      ],
      "details": {
        "vulnerable_package": {
          "type": "text",
          "name": "Vulnerable Package",
          "value": "laravel/framework:v5.3.31"
        }
      }
    },
    {
      "id": "dd3fc24483d0611a0dd4e96c83386271c0fbd60aea6f45fef8a66bb67b158a16",
      "category": "dependency_scanning",
      "name": "XML Entity Expansion",
      "message": "XML Entity Expansion in gopkg.in/yaml.v2",
      "description": "go-yaml is vulnerable to a Billion Laughs Attack.",
      "cve": "go.sum:gopkg.in/yaml.v2:gemnasium:7368f513-0aa9-4e34-a08d-40ea81f48e0e",
      "severity": "Unknown",
      "solution": "Upgrade to version 2.2.3 or above.",
      "scanner": {
        "id": "gemnasium",
        "name": "Gemnasium"
      },
      "location": {
        "file": "go.sum",
        "dependency": {
          "package": {
            "name": "gopkg.in/yaml.v2"
          },
          "version": "v2.2.2"
        }
      },
      "identifiers": [
        {
          "type": "gemnasium",
          "name": "Gemnasium-7368f513-0aa9-4e34-a08d-40ea81f48e0e",
          "value": "7368f513-0aa9-4e34-a08d-40ea81f48e0e",
          "url": "https://gitlab.com/gitlab-org/security-products/gemnasium-db/-/blob/v1.2.142/go/gopkg.in/yaml.v2/GMS-2019-2.yml"
        }
      ],
      "links": [
        {
          "url": "https://github.com/docker/cli/pull/2117"
        }
      ],
      "details": {
        "vulnerable_package": {
          "type": "text",
          "name": "Vulnerable Package",
          "value": "gopkg.in/yaml.v2:v2.2.2"
        }
      }
    }
  ],
  "dependency_files": [
    {
      "path": "Gemfile.lock",
      "package_manager": "bundler",
      "dependencies": [
        {
          "package": {
            "name": "activesupport"
          },
          "version": "5.1.4"
        },
        {
          "package": {
            "name": "byebug"
          },
          "version": "10.0.0"
        },
        {
          "package": {
            "name": "coderay"
          },
          "version": "1.1.2"
        },
        {
          "package": {
            "name": "concurrent-ruby"
          },
          "version": "1.0.5"
        },
        {
          "package": {
            "name": "connection_pool"
          },
          "version": "2.2.1"
        },
        {
          "package": {
            "name": "diff-lcs"
          },
          "version": "1.3"
        },
        {
          "package": {
            "name": "faker"
          },
          "version": "1.6.6"
        },
        {
          "package": {
            "name": "ffi"
          },
          "version": "1.9.21"
        },
        {
          "package": {
            "name": "formatador"
          },
          "version": "0.2.5"
        },
        {
          "package": {
            "name": "guard"
          },
          "version": "2.14.2"
        },
        {
          "package": {
            "name": "guard-compat"
          },
          "version": "1.2.1"
        },
        {
          "package": {
            "name": "guard-rspec"
          },
          "version": "4.7.3"
        },
        {
          "package": {
            "name": "i18n"
          },
          "version": "0.9.5"
        },
        {
          "package": {
            "name": "listen"
          },
          "version": "3.1.5"
        },
        {
          "package": {
            "name": "lumberjack"
          },
          "version": "1.0.12"
        },
        {
          "package": {
            "name": "method_source"
          },
          "version": "0.9.0"
        },
        {
          "package": {
            "name": "mini_portile2"
          },
          "version": "2.0.0"
        },
        {
          "package": {
            "name": "minitest"
          },
          "version": "5.11.3"
        },
        {
          "package": {
            "name": "mustermann"
          },
          "version": "1.0.1"
        },
        {
          "package": {
            "name": "nenv"
          },
          "version": "0.3.0"
        },
        {
          "package": {
            "name": "nokogiri"
          },
          "version": "1.6.7.2"
        },
        {
          "package": {
            "name": "notiffany"
          },
          "version": "0.1.1"
        },
        {
          "package": {
            "name": "pg"
          },
          "version": "1.0.0"
        },
        {
          "package": {
            "name": "pry"
          },
          "version": "0.11.3"
        },
        {
          "package": {
            "name": "puma"
          },
          "version": "3.12.0"
        },
        {
          "package": {
            "name": "rack"
          },
          "version": "2.0.4"
        },
        {
          "package": {
            "name": "rack-protection"
          },
          "version": "2.0.0"
        },
        {
          "package": {
            "name": "rb-fsevent"
          },
          "version": "0.10.2"
        },
        {
          "package": {
            "name": "rb-inotify"
          },
          "version": "0.9.10"
        },
        {
          "package": {
            "name": "redis"
          },
          "version": "3.3.5"
        },
        {
          "package": {
            "name": "rspec"
          },
          "version": "3.7.0"
        },
        {
          "package": {
            "name": "rspec-core"
          },
          "version": "3.7.1"
        },
        {
          "package": {
            "name": "rspec-expectations"
          },
          "version": "3.7.0"
        },
        {
          "package": {
            "name": "rspec-mocks"
          },
          "version": "3.7.0"
        },
        {
          "package": {
            "name": "rspec-support"
          },
          "version": "3.7.1"
        },
        {
          "package": {
            "name": "ruby_dep"
          },
          "version": "1.5.0"
        },
        {
          "package": {
            "name": "shellany"
          },
          "version": "0.0.1"
        },
        {
          "package": {
            "name": "sidekiq"
          },
          "version": "4.2.10"
        },
        {
          "package": {
            "name": "sinatra"
          },
          "version": "2.0.0"
        },
        {
          "package": {
            "name": "slim"
          },
          "version": "3.0.9"
        },
        {
          "package": {
            "name": "spring"
          },
          "version": "2.0.2"
        },
        {
          "package": {
            "name": "temple"
          },
          "version": "0.8.0"
        },
        {
          "package": {
            "name": "thor"
          },
          "version": "0.20.0"
        },
        {
          "package": {
            "name": "thread_safe"
          },
          "version": "0.3.6"
        },
        {
          "package": {
            "name": "tilt"
          },
          "version": "2.0.8"
        },
        {
          "package": {
            "name": "tzinfo"
          },
          "version": "1.2.5"
        }
      ]
    },
    {
      "path": "composer.lock",
      "package_manager": "composer",
      "dependencies": [
        {
          "package": {
            "name": "classpreloader/classpreloader"
          },
          "version": "3.2.0"
        },
        {
          "package": {
            "name": "dnoegel/php-xdg-base-dir"
          },
          "version": "0.1"
        },
        {
          "package": {
            "name": "doctrine/inflector"
          },
          "version": "v1.1.0"
        },
        {
          "package": {
            "name": "jakub-onderka/php-console-color"
          },
          "version": "0.1"
        },
        {
          "package": {
            "name": "jakub-onderka/php-console-highlighter"
          },
          "version": "v0.3.2"
        },
        {
          "package": {
            "name": "jeremeamia/SuperClosure"
          },
          "version": "2.3.0"
        },
        {
          "package": {
            "name": "laravel/framework"
          },
          "version": "v5.3.31"
        },
        {
          "package": {
            "name": "league/flysystem"
          },
          "version": "1.0.42"
        },
        {
          "package": {
            "name": "monolog/monolog"
          },
          "version": "1.23.0"
        },
        {
          "package": {
            "name": "mtdowling/cron-expression"
          },
          "version": "v1.2.1"
        },
        {
          "package": {
            "name": "nesbot/carbon"
          },
          "version": "1.22.1"
        },
        {
          "package": {
            "name": "nikic/php-parser"
          },
          "version": "v3.1.4"
        },
        {
          "package": {
            "name": "paragonie/random_compat"
          },
          "version": "v2.0.11"
        },
        {
          "package": {
            "name": "psr/log"
          },
          "version": "1.0.2"
        },
        {
          "package": {
            "name": "psy/psysh"
          },
          "version": "v0.8.17"
        },
        {
          "package": {
            "name": "ramsey/uuid"
          },
          "version": "3.7.3"
        },
        {
          "package": {
            "name": "swiftmailer/swiftmailer"
          },
          "version": "v5.4.9"
        },
        {
          "package": {
            "name": "symfony/console"
          },
          "version": "v3.1.10"
        },
        {
          "package": {
            "name": "symfony/debug"
          },
          "version": "v3.1.10"
        },
        {
          "package": {
            "name": "symfony/event-dispatcher"
          },
          "version": "v3.4.4"
        },
        {
          "package": {
            "name": "symfony/finder"
          },
          "version": "v3.1.10"
        },
        {
          "package": {
            "name": "symfony/http-foundation"
          },
          "version": "v3.1.10"
        },
        {
          "package": {
            "name": "symfony/http-kernel"
          },
          "version": "v3.1.10"
        },
        {
          "package": {
            "name": "symfony/polyfill-mbstring"
          },
          "version": "v1.7.0"
        },
        {
          "package": {
            "name": "symfony/polyfill-php56"
          },
          "version": "v1.7.0"
        },
        {
          "package": {
            "name": "symfony/polyfill-util"
          },
          "version": "v1.7.0"
        },
        {
          "package": {
            "name": "symfony/process"
          },
          "version": "v3.1.10"
        },
        {
          "package": {
            "name": "symfony/routing"
          },
          "version": "v3.1.10"
        },
        {
          "package": {
            "name": "symfony/translation"
          },
          "version": "v3.1.10"
        },
        {
          "package": {
            "name": "symfony/var-dumper"
          },
          "version": "v3.1.10"
        },
        {
          "package": {
            "name": "vlucas/phpdotenv"
          },
          "version": "v2.4.0"
        }
      ]
    },
    {
      "path": "go.sum",
      "package_manager": "go",
      "dependencies": [
        {
          "package": {
            "name": "github.com/astaxie/beego"
          },
          "version": "v1.10.0"
        },
        {
          "package": {
            "name": "github.com/davecgh/go-spew"
          },
          "version": "v1.1.1"
        },
        {
          "package": {
            "name": "github.com/konsorten/go-windows-terminal-sequences"
          },
          "version": "v1.0.1"
        },
        {
          "package": {
            "name": "github.com/minio/minio"
          },
          "version": "v0.0.0-20180419184637-5a16671f721f"
        },
        {
          "package": {
            "name": "github.com/minio/minio-go"
          },
          "version": "v6.0.14"
        },
        {
          "package": {
            "name": "github.com/minio/sha256-simd"
          },
          "version": "v0.1.1"
        },
        {
          "package": {
            "name": "github.com/pmezard/go-difflib"
          },
          "version": "v1.0.0"
        },
        {
          "package": {
            "name": "github.com/sirupsen/logrus"
          },
          "version": "v1.4.2"
        },
        {
          "package": {
            "name": "github.com/stretchr/objx"
          },
          "version": "v0.1.1"
        },
        {
          "package": {
            "name": "github.com/stretchr/testify"
          },
          "version": "v1.2.2"
        },
        {
          "package": {
            "name": "golang.org/x/sys"
          },
          "version": "v0.0.0-20190422165155-953cdadca894"
        },
        {
          "package": {
            "name": "golang.org/x/sys"
          },
          "version": "v0.0.0-20191026070338-33540a1f6037"
        },
        {
          "package": {
            "name": "gopkg.in/check.v1"
          },
          "version": "v0.0.0-20161208181325-20d25e280405"
        },
        {
          "package": {
            "name": "gopkg.in/yaml.v2"
          },
          "version": "v2.2.2"
        }
      ]
    }
  ],
  "scan": {
    "analyzer": {
      "id": "gemnasium",
      "name": "Gemnasium",
      "url": "https://gitlab.com/gitlab-org/security-products/analyzers/gemnasium",
      "vendor": {
        "name": "GitLab"
      },
      "version": "3.6.0"
    },
    "scanner": {
      "id": "gemnasium",
      "name": "Gemnasium",
      "url": "https://gitlab.com/gitlab-org/security-products/analyzers/gemnasium",
      "vendor": {
        "name": "GitLab"
      },
      "version": "2.31.0"
    },
    "type": "dependency_scanning",
    "start_time": "2022-02-16T07:12:20",
    "end_time": "2022-02-16T07:12:23",
    "status": "success"
  }
}
