[
  {
    "from": {
      "name": "org.apache.geode/geode-core",
      "version": "1.1.1"
    },
    "to": {
      "name": "org.apache.geode/geode-json",
      "version": "1.1.1"
    },
    "range": "1.1.1"
  },
  {
    "from": {
      "name": "org.apache.geode/geode-core",
      "version": "1.1.1"
    },
    "to": {
      "name": "org.apache.geode/geode-common",
      "version": "1.1.1"
    },
    "range": "1.1.1"
  },
  {
    "from": {
      "name": "org.apache.geode/geode-core",
      "version": "1.1.1"
    },
    "to": {
      "name": "org.apache.shiro/shiro-core",
      "version": "1.3.1"
    },
    "range": "1.3.1"
  },
  {
    "from": {
      "name": "org.apache.shiro/shiro-core",
      "version": "1.3.1"
    },
    "to": {
      "name": "commons-beanutils/commons-beanutils",
      "version": "1.8.3"
    },
    "range": "1.8.3"
  },
  {
    "to": {
      "name": "org.apache.geode/geode-core",
      "version": "1.1.1"
    },
    "range": "1.1.1"
  }
]
