module gitlab.com/gitlab-org/security-products/analyzers/gemnasium/v2

require (
	github.com/BurntSushi/toml v0.3.1
	github.com/ProtonMail/go-crypto v0.0.0-20211221144345-a4f6767435ab // indirect
	github.com/google/uuid v1.3.0
	github.com/sirupsen/logrus v1.8.1
	github.com/spiegel-im-spiegel/go-cvss v0.4.0
	github.com/stretchr/testify v1.8.0
	github.com/umisama/go-cvss v0.0.0-20150430082624-a4ad666ead9b
	github.com/urfave/cli/v2 v2.3.0
	gitlab.com/gitlab-org/security-products/analyzers/command v1.8.1
	gitlab.com/gitlab-org/security-products/analyzers/common/v3 v3.2.1
	gitlab.com/gitlab-org/security-products/analyzers/report/v3 v3.17.0
	golang.org/x/crypto v0.0.0-20220112180741-5e0467b6c7ce // indirect
	golang.org/x/text v0.4.0 // indirect
	golang.org/x/tools v0.1.12
	gonum.org/v1/gonum v0.11.0
	gopkg.in/yaml.v2 v2.4.0
)

go 1.13
