[
  {
    "version": "1.73.0",
    "name": "boost"
  },
  {
    "version": "1.0.8",
    "name": "bzip2"
  },
  {
    "version": "2.2.0",
    "name": "jerryscript"
  },
  {
    "version": "0.20.1",
    "name": "libgettext"
  },
  {
    "version": "1.16",
    "name": "libiconv"
  },
  {
    "version": "8.0.17",
    "name": "libmysqlclient"
  },
  {
    "version": "11.5",
    "name": "libpq"
  },
  {
    "version": "1.3.1",
    "name": "libunwind"
  },
  {
    "version": "1.1.1g",
    "name": "openssl"
  },
  {
    "version": "3.31.1",
    "name": "sqlite3"
  },
  {
    "version": "4.4.0",
    "name": "wt"
  },
  {
    "version": "5.2.4",
    "name": "xz_utils"
  },
  {
    "version": "1.2.11",
    "name": "zlib"
  },
  {
    "version": "1.4.4",
    "name": "zstd"
  }
]