[
  {
    "range": "^2.0.0",
    "version": "2.0.0",
    "satisfies": true
  },
  {
    "range": "^2.0.0",
    "version": "1.1.0",
    "satisfies": false
  },
  {
    "range": "^2.0.0",
    "version": "1.1.0",
    "satisfies": false
  },
  {
    "range": "^2.0.0",
    "version": "1.1.0",
    "satisfies": false
  },
  {
    "range": "^2.0.0",
    "version": "1.1.0",
    "satisfies": false
  },
  {
    "range": "^2.0.0",
    "version": "1.1.0",
    "satisfies": false
  },
  {
    "range": "^2.0.0",
    "version": "1.1.0",
    "satisfies": false
  },
  {
    "range": "^2.0.0",
    "version": "1.1.0",
    "satisfies": false
  },
  {
    "range": "^2.0.0",
    "version": "1.1.0",
    "satisfies": false
  },
  {
    "range": "Y.Z.YZ",
    "version": "1.1.0",
    "error": "malformed range string"
  },
  {
    "range": "^2.0.0 || ^3.0.0",
    "version": "2.0.0",
    "satisfies": true
  },
  {
    "range": "^2.0.0-alpha.1",
    "version": "2.0.0",
    "satisfies": true
  },
  {
    "range": "^2.0.0-alpha.1",
    "version": "2.0.0",
    "satisfies": true
  },
  {
    "range": "< 2.0.0",
    "version": "1.0.0-alpha.1",
    "satisfies": true
  }
]
