[
  {
    "name": "django",
    "version": "1.11.3"
  },
  {
    "name": "docutils",
    "version": "0.13.1"
  },
  {
    "name": "pytz",
    "version": "2019.2"
  },
  {
    "name": "requests",
    "version": "2.5.3"
  }
]