{
  "bomFormat": "CycloneDX",
  "specVersion": "1.4",
  "serialNumber": "urn:uuid:63baa0e8-90ff-4210-a4c5-bc9147a12e42",
  "version": 1,
  "metadata": {
    "timestamp": "2022-02-23T07:58:59Z",
    "tools": [
      {
        "vendor": "GitLab",
        "name": "Gemnasium",
        "version": "2.34.0"
      }
    ],
    "authors": [
      {
        "name": "GitLab",
        "email": "support@gitlab.com"
      }
    ],
    "properties": [
      {
        "name": "gitlab:dependency_scanning:input_file",
        "value": "javascript-project/package-lock.json"
      },
      {
        "name": "gitlab:dependency_scanning:package_manager",
        "value": "npm"
      }
    ]
  },
  "components": [
    {
      "name": "macaddress",
      "version": "0.2.8",
      "purl": "pkg:npm/macaddress@0.2.8",
      "type": "library",
      "bom-ref": "pkg:npm/macaddress@0.2.8"
    }
  ]
}
