{
  "bomFormat": "CycloneDX",
  "specVersion": "1.3",
  "serialNumber": "urn:uuid:955a725d-9be0-44c1-ba33-1d80ed060904",
  "version": 1,
  "metadata": {
    "tools": [
      {
        "vendor": "GitLab",
        "name": "gemnasium",
        "version": "not-configured"
      }
    ],
    "authors": [
      {
        "name": "GitLab",
        "email": "gitlab@gitlab.com"
      }
    ],
    "lock_file": "npm/package-lock.json",
    "package_manager": "npm"
  },
  "components": [
    {
      "iid": 1,
      "name": "macaddress",
      "version": "0.2.8",
      "description": "description",
      "purl": "pkg:npm/macaddress@0.2.8",
      "type": "library",
      "bom-ref": "pkg:npm/macaddress@0.2.8"
    }
  ]
}
