[
  {
    "name": "com.fasterxml.jackson.core/jackson-annotations",
    "version": "2.9.0"
  },
  {
    "name": "com.fasterxml.jackson.core/jackson-core",
    "version": "2.9.2"
  },
  {
    "name": "com.fasterxml.jackson.core/jackson-databind",
    "version": "2.9.2"
  },
  {
    "name": "io.netty/netty",
    "version": "3.9.1.Final"
  },
  {
    "name": "junit/junit",
    "version": "3.8"
  },
  {
    "name": "org.apache.commons/commons-lang3",
    "version": "3.4"
  },
  {
    "name": "org.apache.maven/maven-artifact",
    "version": "3.3.9"
  },
  {
    "name": "org.codehaus.plexus/plexus-utils",
    "version": "3.0.22"
  },
  {
    "name": "org.hamcrest/hamcrest-core",
    "version": "1.1"
  },
  {
    "name": "org.javassist/javassist",
    "version": "3.21.0-GA"
  },
  {
    "name": "org.mockito/mockito-core",
    "version": "1.10.19"
  },
  {
    "name": "org.objenesis/objenesis",
    "version": "2.1"
  },
  {
    "name": "org.powermock/powermock-api-mockito",
    "version": "1.7.3"
  },
  {
    "name": "org.powermock/powermock-api-mockito-common",
    "version": "1.7.3"
  },
  {
    "name": "org.powermock/powermock-api-support",
    "version": "1.7.3"
  },
  {
    "name": "org.powermock/powermock-core",
    "version": "1.7.3"
  },
  {
    "name": "org.powermock/powermock-reflect",
    "version": "1.7.3"
  }
]