{
  "bomFormat": "CycloneDX",
  "specVersion": "1.4",
  "serialNumber": "urn:uuid:dec6c395-5f93-4af2-bd9a-29f87363073f",
  "version": 1,
  "metadata": {
    "timestamp": "2022-02-23T07:58:59Z",
    "tools": [
      {
        "vendor": "GitLab",
        "name": "Gemnasium",
        "version": "2.34.0"
      }
    ],
    "authors": [
      {
        "name": "GitLab",
        "email": "support@gitlab.com"
      }
    ],
    "properties": [
      {
        "name": "gitlab:dependency_scanning:input_file",
        "value": "ruby-project-2/Gemfile.lock"
      },
      {
        "name": "gitlab:dependency_scanning:package_manager",
        "value": "bundler"
      }
    ]
  },
  "components": [
    {
      "name": "user_agent_parser",
      "version": "2.5.0",
      "purl": "pkg:gem/user_agent_parser@2.5.0",
      "type": "library",
      "bom-ref": "pkg:gem/user_agent_parser@2.5.0"
    }
  ]
}
